(footprint HSOP-54-1EP_7.5x17.9mm_P0.65mm_EP4.6x4.6mm (version 20221018) (generator kicad-footprint-generator)
  (layer F.Cu)
  (descr "HSOP, 54 Pin (https://www.nxp.com/docs/en/package-information/98ASA10506D.pdf), generated with kicad-footprint-generator ipc_gullwing_generator.py")
  (tags "HSOP SO")
  (attr smd)
  (fp_text reference REF** (at 0 -9.9) (layer F.SilkS)
    (effects (font (size 1 1) (thickness 0.15)))
  )
  (fp_text value HSOP-54-1EP_7.5x17.9mm_P0.65mm_EP4.6x4.6mm (at 0 9.9) (layer F.Fab)
    (effects (font (size 1 1) (thickness 0.15)))
  )
  (fp_line (start -5.8 -9.2) (end -5.8 9.2)
    (stroke (width 0.05) (type solid)) (layer F.CrtYd))
  (fp_line (start -5.8 9.2) (end 5.8 9.2)
    (stroke (width 0.05) (type solid)) (layer F.CrtYd))
  (fp_line (start 5.8 9.2) (end 5.8 -9.2)
    (stroke (width 0.05) (type solid)) (layer F.CrtYd))
  (fp_line (start 5.8 -9.2) (end -5.8 -9.2)
    (stroke (width 0.05) (type solid)) (layer F.CrtYd))
  (fp_line (start 0 9.06) (end 3.75 9.06)
    (stroke (width 0.12) (type solid)) (layer F.SilkS))
  (fp_line (start 0 9.06) (end -3.75 9.06)
    (stroke (width 0.12) (type solid)) (layer F.SilkS))
  (fp_line (start 0 -9.06) (end 3.75 -9.06)
    (stroke (width 0.12) (type solid)) (layer F.SilkS))
  (fp_line (start 0 -9.06) (end -3.75 -9.06)
    (stroke (width 0.12) (type solid)) (layer F.SilkS))
  (fp_line (start -2.75 -8.95) (end 3.75 -8.95)
    (stroke (width 0.1) (type solid)) (layer F.Fab))
  (fp_line (start 3.75 -8.95) (end 3.75 8.95)
    (stroke (width 0.1) (type solid)) (layer F.Fab))
  (fp_line (start 3.75 8.95) (end -3.75 8.95)
    (stroke (width 0.1) (type solid)) (layer F.Fab))
  (fp_line (start -3.75 8.95) (end -3.75 -7.95)
    (stroke (width 0.1) (type solid)) (layer F.Fab))
  (fp_line (start -3.75 -7.95) (end -2.75 -8.95)
    (stroke (width 0.1) (type solid)) (layer F.Fab))
  (pad 1 smd roundrect (at -4.75 -8.45) (size 1.6 0.5) (layers F.Cu F.Mask F.Paste) (roundrect_rratio 0.25))
  (pad 2 smd roundrect (at -4.75 -7.8) (size 1.6 0.5) (layers F.Cu F.Mask F.Paste) (roundrect_rratio 0.25))
  (pad 3 smd roundrect (at -4.75 -7.15) (size 1.6 0.5) (layers F.Cu F.Mask F.Paste) (roundrect_rratio 0.25))
  (pad 4 smd roundrect (at -4.75 -6.5) (size 1.6 0.5) (layers F.Cu F.Mask F.Paste) (roundrect_rratio 0.25))
  (pad 5 smd roundrect (at -4.75 -5.85) (size 1.6 0.5) (layers F.Cu F.Mask F.Paste) (roundrect_rratio 0.25))
  (pad 6 smd roundrect (at -4.75 -5.2) (size 1.6 0.5) (layers F.Cu F.Mask F.Paste) (roundrect_rratio 0.25))
  (pad 7 smd roundrect (at -4.75 -4.55) (size 1.6 0.5) (layers F.Cu F.Mask F.Paste) (roundrect_rratio 0.25))
  (pad 8 smd roundrect (at -4.75 -3.9) (size 1.6 0.5) (layers F.Cu F.Mask F.Paste) (roundrect_rratio 0.25))
  (pad 9 smd roundrect (at -4.75 -3.25) (size 1.6 0.5) (layers F.Cu F.Mask F.Paste) (roundrect_rratio 0.25))
  (pad 10 smd roundrect (at -4.75 -2.6) (size 1.6 0.5) (layers F.Cu F.Mask F.Paste) (roundrect_rratio 0.25))
  (pad 11 smd roundrect (at -4.75 -1.95) (size 1.6 0.5) (layers F.Cu F.Mask F.Paste) (roundrect_rratio 0.25))
  (pad 12 smd roundrect (at -4.75 -1.3) (size 1.6 0.5) (layers F.Cu F.Mask F.Paste) (roundrect_rratio 0.25))
  (pad 13 smd roundrect (at -4.75 -0.65) (size 1.6 0.5) (layers F.Cu F.Mask F.Paste) (roundrect_rratio 0.25))
  (pad 14 smd roundrect (at -4.75 0) (size 1.6 0.5) (layers F.Cu F.Mask F.Paste) (roundrect_rratio 0.25))
  (pad 15 smd roundrect (at -4.75 0.65) (size 1.6 0.5) (layers F.Cu F.Mask F.Paste) (roundrect_rratio 0.25))
  (pad 16 smd roundrect (at -4.75 1.3) (size 1.6 0.5) (layers F.Cu F.Mask F.Paste) (roundrect_rratio 0.25))
  (pad 17 smd roundrect (at -4.75 1.95) (size 1.6 0.5) (layers F.Cu F.Mask F.Paste) (roundrect_rratio 0.25))
  (pad 18 smd roundrect (at -4.75 2.6) (size 1.6 0.5) (layers F.Cu F.Mask F.Paste) (roundrect_rratio 0.25))
  (pad 19 smd roundrect (at -4.75 3.25) (size 1.6 0.5) (layers F.Cu F.Mask F.Paste) (roundrect_rratio 0.25))
  (pad 20 smd roundrect (at -4.75 3.9) (size 1.6 0.5) (layers F.Cu F.Mask F.Paste) (roundrect_rratio 0.25))
  (pad 21 smd roundrect (at -4.75 4.55) (size 1.6 0.5) (layers F.Cu F.Mask F.Paste) (roundrect_rratio 0.25))
  (pad 22 smd roundrect (at -4.75 5.2) (size 1.6 0.5) (layers F.Cu F.Mask F.Paste) (roundrect_rratio 0.25))
  (pad 23 smd roundrect (at -4.75 5.85) (size 1.6 0.5) (layers F.Cu F.Mask F.Paste) (roundrect_rratio 0.25))
  (pad 24 smd roundrect (at -4.75 6.5) (size 1.6 0.5) (layers F.Cu F.Mask F.Paste) (roundrect_rratio 0.25))
  (pad 25 smd roundrect (at -4.75 7.15) (size 1.6 0.5) (layers F.Cu F.Mask F.Paste) (roundrect_rratio 0.25))
  (pad 26 smd roundrect (at -4.75 7.8) (size 1.6 0.5) (layers F.Cu F.Mask F.Paste) (roundrect_rratio 0.25))
  (pad 27 smd roundrect (at -4.75 8.45) (size 1.6 0.5) (layers F.Cu F.Mask F.Paste) (roundrect_rratio 0.25))
  (pad 28 smd roundrect (at 4.75 8.45) (size 1.6 0.5) (layers F.Cu F.Mask F.Paste) (roundrect_rratio 0.25))
  (pad 29 smd roundrect (at 4.75 7.8) (size 1.6 0.5) (layers F.Cu F.Mask F.Paste) (roundrect_rratio 0.25))
  (pad 30 smd roundrect (at 4.75 7.15) (size 1.6 0.5) (layers F.Cu F.Mask F.Paste) (roundrect_rratio 0.25))
  (pad 31 smd roundrect (at 4.75 6.5) (size 1.6 0.5) (layers F.Cu F.Mask F.Paste) (roundrect_rratio 0.25))
  (pad 32 smd roundrect (at 4.75 5.85) (size 1.6 0.5) (layers F.Cu F.Mask F.Paste) (roundrect_rratio 0.25))
  (pad 33 smd roundrect (at 4.75 5.2) (size 1.6 0.5) (layers F.Cu F.Mask F.Paste) (roundrect_rratio 0.25))
  (pad 34 smd roundrect (at 4.75 4.55) (size 1.6 0.5) (layers F.Cu F.Mask F.Paste) (roundrect_rratio 0.25))
  (pad 35 smd roundrect (at 4.75 3.9) (size 1.6 0.5) (layers F.Cu F.Mask F.Paste) (roundrect_rratio 0.25))
  (pad 36 smd roundrect (at 4.75 3.25) (size 1.6 0.5) (layers F.Cu F.Mask F.Paste) (roundrect_rratio 0.25))
  (pad 37 smd roundrect (at 4.75 2.6) (size 1.6 0.5) (layers F.Cu F.Mask F.Paste) (roundrect_rratio 0.25))
  (pad 38 smd roundrect (at 4.75 1.95) (size 1.6 0.5) (layers F.Cu F.Mask F.Paste) (roundrect_rratio 0.25))
  (pad 39 smd roundrect (at 4.75 1.3) (size 1.6 0.5) (layers F.Cu F.Mask F.Paste) (roundrect_rratio 0.25))
  (pad 40 smd roundrect (at 4.75 0.65) (size 1.6 0.5) (layers F.Cu F.Mask F.Paste) (roundrect_rratio 0.25))
  (pad 41 smd roundrect (at 4.75 0) (size 1.6 0.5) (layers F.Cu F.Mask F.Paste) (roundrect_rratio 0.25))
  (pad 42 smd roundrect (at 4.75 -0.65) (size 1.6 0.5) (layers F.Cu F.Mask F.Paste) (roundrect_rratio 0.25))
  (pad 43 smd roundrect (at 4.75 -1.3) (size 1.6 0.5) (layers F.Cu F.Mask F.Paste) (roundrect_rratio 0.25))
  (pad 44 smd roundrect (at 4.75 -1.95) (size 1.6 0.5) (layers F.Cu F.Mask F.Paste) (roundrect_rratio 0.25))
  (pad 45 smd roundrect (at 4.75 -2.6) (size 1.6 0.5) (layers F.Cu F.Mask F.Paste) (roundrect_rratio 0.25))
  (pad 46 smd roundrect (at 4.75 -3.25) (size 1.6 0.5) (layers F.Cu F.Mask F.Paste) (roundrect_rratio 0.25))
  (pad 47 smd roundrect (at 4.75 -3.9) (size 1.6 0.5) (layers F.Cu F.Mask F.Paste) (roundrect_rratio 0.25))
  (pad 48 smd roundrect (at 4.75 -4.55) (size 1.6 0.5) (layers F.Cu F.Mask F.Paste) (roundrect_rratio 0.25))
  (pad 49 smd roundrect (at 4.75 -5.2) (size 1.6 0.5) (layers F.Cu F.Mask F.Paste) (roundrect_rratio 0.25))
  (pad 50 smd roundrect (at 4.75 -5.85) (size 1.6 0.5) (layers F.Cu F.Mask F.Paste) (roundrect_rratio 0.25))
  (pad 51 smd roundrect (at 4.75 -6.5) (size 1.6 0.5) (layers F.Cu F.Mask F.Paste) (roundrect_rratio 0.25))
  (pad 52 smd roundrect (at 4.75 -7.15) (size 1.6 0.5) (layers F.Cu F.Mask F.Paste) (roundrect_rratio 0.25))
  (pad 53 smd roundrect (at 4.75 -7.8) (size 1.6 0.5) (layers F.Cu F.Mask F.Paste) (roundrect_rratio 0.25))
  (pad 54 smd roundrect (at 4.75 -8.45) (size 1.6 0.5) (layers F.Cu F.Mask F.Paste) (roundrect_rratio 0.25))
  (pad 55 smd rect (at 0 0) (size 4.6 4.6) (property pad_prop_heatsink) (layers F.Cu F.Mask)
    (zone_connect 2))
  (pad "" smd roundrect (at -1.15 -1.15) (size 1.85 1.85) (layers F.Paste) (roundrect_rratio 0.135135))
  (pad "" smd roundrect (at -1.15 1.15) (size 1.85 1.85) (layers F.Paste) (roundrect_rratio 0.135135))
  (pad "" smd roundrect (at 1.15 -1.15) (size 1.85 1.85) (layers F.Paste) (roundrect_rratio 0.135135))
  (pad "" smd roundrect (at 1.15 1.15) (size 1.85 1.85) (layers F.Paste) (roundrect_rratio 0.135135))
  (fp_poly (pts (xy -4.65 -8.96) (xy -4.84 -9.226) (xy -4.46 -9.226) (xy -4.65 -8.96))
    (stroke (width 0.12) (type solid)) (fill solid) (layer F.SilkS))
  (fp_text user ${REFERENCE} (at 0 0) (layer F.Fab)
    (effects (font (size 1 1) (thickness 0.15)))
  )
  (model ${KICAD7_3DMODEL_DIR}/Package_SO.3dshapes/HSOP-54-1EP_7.5x17.9mm_P0.65mm_EP4.6x4.6mm.wrl
    (offset (xyz 0 0 0))
    (scale (xyz 1 1 1))
    (rotate (xyz 0 0 0))
  )
)
