(footprint HTSSOP-28-1EP_4.4x9.7mm_P0.65mm_EP2.85x5.4mm_ThermalVias (version 20221018) (generator kicad-footprint-generator)
  (layer F.Cu)
  (descr "HTSSOP, 28 Pin (https://pdfserv.maximintegrated.com/package_dwgs/21-0108.PDF), generated with kicad-footprint-generator ipc_gullwing_generator.py")
  (tags "HTSSOP SO")
  (attr smd)
  (fp_text reference REF** (at 0 -5.8) (layer F.SilkS)
    (effects (font (size 1 1) (thickness 0.15)))
  )
  (fp_text value HTSSOP-28-1EP_4.4x9.7mm_P0.65mm_EP2.85x5.4mm_ThermalVias (at 0 5.8) (layer F.Fab)
    (effects (font (size 1 1) (thickness 0.15)))
  )
  (fp_line (start -3.85 -5.1) (end -3.85 5.1)
    (stroke (width 0.05) (type solid)) (layer F.CrtYd))
  (fp_line (start -3.85 5.1) (end 3.85 5.1)
    (stroke (width 0.05) (type solid)) (layer F.CrtYd))
  (fp_line (start 3.85 5.1) (end 3.85 -5.1)
    (stroke (width 0.05) (type solid)) (layer F.CrtYd))
  (fp_line (start 3.85 -5.1) (end -3.85 -5.1)
    (stroke (width 0.05) (type solid)) (layer F.CrtYd))
  (fp_line (start 0 4.96) (end 2.31 4.96)
    (stroke (width 0.12) (type solid)) (layer F.SilkS))
  (fp_line (start 2.31 4.96) (end 2.31 4.685)
    (stroke (width 0.12) (type solid)) (layer F.SilkS))
  (fp_line (start 0 4.96) (end -2.31 4.96)
    (stroke (width 0.12) (type solid)) (layer F.SilkS))
  (fp_line (start -2.31 4.96) (end -2.31 4.685)
    (stroke (width 0.12) (type solid)) (layer F.SilkS))
  (fp_line (start 0 -4.96) (end 2.31 -4.96)
    (stroke (width 0.12) (type solid)) (layer F.SilkS))
  (fp_line (start 2.31 -4.96) (end 2.31 -4.685)
    (stroke (width 0.12) (type solid)) (layer F.SilkS))
  (fp_line (start 0 -4.96) (end -2.31 -4.96)
    (stroke (width 0.12) (type solid)) (layer F.SilkS))
  (fp_line (start -2.31 -4.96) (end -2.31 -4.685)
    (stroke (width 0.12) (type solid)) (layer F.SilkS))
  (fp_line (start -1.2 -4.85) (end 2.2 -4.85)
    (stroke (width 0.1) (type solid)) (layer F.Fab))
  (fp_line (start 2.2 -4.85) (end 2.2 4.85)
    (stroke (width 0.1) (type solid)) (layer F.Fab))
  (fp_line (start 2.2 4.85) (end -2.2 4.85)
    (stroke (width 0.1) (type solid)) (layer F.Fab))
  (fp_line (start -2.2 4.85) (end -2.2 -3.85)
    (stroke (width 0.1) (type solid)) (layer F.Fab))
  (fp_line (start -2.2 -3.85) (end -1.2 -4.85)
    (stroke (width 0.1) (type solid)) (layer F.Fab))
  (pad 1 smd roundrect (at -2.8625 -4.225) (size 1.475 0.4) (layers F.Cu F.Mask F.Paste) (roundrect_rratio 0.25))
  (pad 2 smd roundrect (at -2.8625 -3.575) (size 1.475 0.4) (layers F.Cu F.Mask F.Paste) (roundrect_rratio 0.25))
  (pad 3 smd roundrect (at -2.8625 -2.925) (size 1.475 0.4) (layers F.Cu F.Mask F.Paste) (roundrect_rratio 0.25))
  (pad 4 smd roundrect (at -2.8625 -2.275) (size 1.475 0.4) (layers F.Cu F.Mask F.Paste) (roundrect_rratio 0.25))
  (pad 5 smd roundrect (at -2.8625 -1.625) (size 1.475 0.4) (layers F.Cu F.Mask F.Paste) (roundrect_rratio 0.25))
  (pad 6 smd roundrect (at -2.8625 -0.975) (size 1.475 0.4) (layers F.Cu F.Mask F.Paste) (roundrect_rratio 0.25))
  (pad 7 smd roundrect (at -2.8625 -0.325) (size 1.475 0.4) (layers F.Cu F.Mask F.Paste) (roundrect_rratio 0.25))
  (pad 8 smd roundrect (at -2.8625 0.325) (size 1.475 0.4) (layers F.Cu F.Mask F.Paste) (roundrect_rratio 0.25))
  (pad 9 smd roundrect (at -2.8625 0.975) (size 1.475 0.4) (layers F.Cu F.Mask F.Paste) (roundrect_rratio 0.25))
  (pad 10 smd roundrect (at -2.8625 1.625) (size 1.475 0.4) (layers F.Cu F.Mask F.Paste) (roundrect_rratio 0.25))
  (pad 11 smd roundrect (at -2.8625 2.275) (size 1.475 0.4) (layers F.Cu F.Mask F.Paste) (roundrect_rratio 0.25))
  (pad 12 smd roundrect (at -2.8625 2.925) (size 1.475 0.4) (layers F.Cu F.Mask F.Paste) (roundrect_rratio 0.25))
  (pad 13 smd roundrect (at -2.8625 3.575) (size 1.475 0.4) (layers F.Cu F.Mask F.Paste) (roundrect_rratio 0.25))
  (pad 14 smd roundrect (at -2.8625 4.225) (size 1.475 0.4) (layers F.Cu F.Mask F.Paste) (roundrect_rratio 0.25))
  (pad 15 smd roundrect (at 2.8625 4.225) (size 1.475 0.4) (layers F.Cu F.Mask F.Paste) (roundrect_rratio 0.25))
  (pad 16 smd roundrect (at 2.8625 3.575) (size 1.475 0.4) (layers F.Cu F.Mask F.Paste) (roundrect_rratio 0.25))
  (pad 17 smd roundrect (at 2.8625 2.925) (size 1.475 0.4) (layers F.Cu F.Mask F.Paste) (roundrect_rratio 0.25))
  (pad 18 smd roundrect (at 2.8625 2.275) (size 1.475 0.4) (layers F.Cu F.Mask F.Paste) (roundrect_rratio 0.25))
  (pad 19 smd roundrect (at 2.8625 1.625) (size 1.475 0.4) (layers F.Cu F.Mask F.Paste) (roundrect_rratio 0.25))
  (pad 20 smd roundrect (at 2.8625 0.975) (size 1.475 0.4) (layers F.Cu F.Mask F.Paste) (roundrect_rratio 0.25))
  (pad 21 smd roundrect (at 2.8625 0.325) (size 1.475 0.4) (layers F.Cu F.Mask F.Paste) (roundrect_rratio 0.25))
  (pad 22 smd roundrect (at 2.8625 -0.325) (size 1.475 0.4) (layers F.Cu F.Mask F.Paste) (roundrect_rratio 0.25))
  (pad 23 smd roundrect (at 2.8625 -0.975) (size 1.475 0.4) (layers F.Cu F.Mask F.Paste) (roundrect_rratio 0.25))
  (pad 24 smd roundrect (at 2.8625 -1.625) (size 1.475 0.4) (layers F.Cu F.Mask F.Paste) (roundrect_rratio 0.25))
  (pad 25 smd roundrect (at 2.8625 -2.275) (size 1.475 0.4) (layers F.Cu F.Mask F.Paste) (roundrect_rratio 0.25))
  (pad 26 smd roundrect (at 2.8625 -2.925) (size 1.475 0.4) (layers F.Cu F.Mask F.Paste) (roundrect_rratio 0.25))
  (pad 27 smd roundrect (at 2.8625 -3.575) (size 1.475 0.4) (layers F.Cu F.Mask F.Paste) (roundrect_rratio 0.25))
  (pad 28 smd roundrect (at 2.8625 -4.225) (size 1.475 0.4) (layers F.Cu F.Mask F.Paste) (roundrect_rratio 0.25))
  (pad 29 smd rect (at 0 0) (size 2.85 5.4) (property pad_prop_heatsink) (layers F.Cu F.Mask)
    (zone_connect 2))
  (pad 29 thru_hole circle (at -1.125 -2.4) (size 0.6 0.6) (drill 0.3) (property pad_prop_heatsink) (layers *.Cu))
  (pad 29 thru_hole circle (at 1.125 -2.4) (size 0.6 0.6) (drill 0.3) (property pad_prop_heatsink) (layers *.Cu))
  (pad 29 thru_hole circle (at -1.125 -0.8) (size 0.6 0.6) (drill 0.3) (property pad_prop_heatsink) (layers *.Cu))
  (pad 29 thru_hole circle (at 1.125 -0.8) (size 0.6 0.6) (drill 0.3) (property pad_prop_heatsink) (layers *.Cu))
  (pad 29 thru_hole circle (at -1.125 0.8) (size 0.6 0.6) (drill 0.3) (property pad_prop_heatsink) (layers *.Cu))
  (pad 29 thru_hole circle (at 1.125 0.8) (size 0.6 0.6) (drill 0.3) (property pad_prop_heatsink) (layers *.Cu))
  (pad 29 thru_hole circle (at -1.125 2.4) (size 0.6 0.6) (drill 0.3) (property pad_prop_heatsink) (layers *.Cu))
  (pad 29 thru_hole circle (at 1.125 2.4) (size 0.6 0.6) (drill 0.3) (property pad_prop_heatsink) (layers *.Cu))
  (pad 29 smd rect (at 0 0) (size 2.85 5.4) (property pad_prop_heatsink) (layers B.Cu)
    (zone_connect 2))
  (pad "" smd roundrect (at 0 -1.8) (size 2.3 1.45) (layers F.Paste) (roundrect_rratio 0.172414))
  (pad "" smd roundrect (at 0 0) (size 2.3 1.45) (layers F.Paste) (roundrect_rratio 0.172414))
  (pad "" smd roundrect (at 0 1.8) (size 2.3 1.45) (layers F.Paste) (roundrect_rratio 0.172414))
  (fp_poly (pts (xy -2.9 -4.685) (xy -3.08 -4.937) (xy -2.72 -4.937) (xy -2.9 -4.685))
    (stroke (width 0.12) (type solid)) (fill solid) (layer F.SilkS))
  (fp_text user ${REFERENCE} (at 0 0) (layer F.Fab)
    (effects (font (size 1 1) (thickness 0.15)))
  )
  (model ${KICAD7_3DMODEL_DIR}/Package_SO.3dshapes/HTSSOP-28-1EP_4.4x9.7mm_P0.65mm_EP2.85x5.4mm.wrl
    (offset (xyz 0 0 0))
    (scale (xyz 1 1 1))
    (rotate (xyz 0 0 0))
  )
)
