(footprint HTSSOP-38-1EP_6.1x12.5mm_P0.65mm_EP5.2x12.5mm_Mask3.39x6.35mm (version 20221018) (generator kicad-footprint-generator)
  (layer F.Cu)
  (descr "HTSSOP, 38 Pin (http://www.ti.com/lit/ds/symlink/tlc5951.pdf#page=47&zoom=140,-67,15), generated with kicad-footprint-generator ipc_gullwing_generator.py")
  (tags "HTSSOP SO")
  (attr smd)
  (fp_text reference REF** (at 0 -7.2) (layer F.SilkS)
    (effects (font (size 1 1) (thickness 0.15)))
  )
  (fp_text value HTSSOP-38-1EP_6.1x12.5mm_P0.65mm_EP5.2x12.5mm_Mask3.39x6.35mm (at 0 7.2) (layer F.Fab)
    (effects (font (size 1 1) (thickness 0.15)))
  )
  (fp_line (start -4.75 -6.5) (end -4.75 6.5)
    (stroke (width 0.05) (type solid)) (layer F.CrtYd))
  (fp_line (start -4.75 6.5) (end 4.75 6.5)
    (stroke (width 0.05) (type solid)) (layer F.CrtYd))
  (fp_line (start 4.75 6.5) (end 4.75 -6.5)
    (stroke (width 0.05) (type solid)) (layer F.CrtYd))
  (fp_line (start 4.75 -6.5) (end -4.75 -6.5)
    (stroke (width 0.05) (type solid)) (layer F.CrtYd))
  (fp_line (start 2.835584 6.36) (end 3.05 6.36)
    (stroke (width 0.12) (type solid)) (layer F.SilkS))
  (fp_line (start -2.835584 6.36) (end -3.05 6.36)
    (stroke (width 0.12) (type solid)) (layer F.SilkS))
  (fp_line (start 2.835584 -6.36) (end 3.05 -6.36)
    (stroke (width 0.12) (type solid)) (layer F.SilkS))
  (fp_line (start -2.835584 -6.36) (end -3.05 -6.36)
    (stroke (width 0.12) (type solid)) (layer F.SilkS))
  (fp_line (start -2.05 -6.25) (end 3.05 -6.25)
    (stroke (width 0.1) (type solid)) (layer F.Fab))
  (fp_line (start 3.05 -6.25) (end 3.05 6.25)
    (stroke (width 0.1) (type solid)) (layer F.Fab))
  (fp_line (start 3.05 6.25) (end -3.05 6.25)
    (stroke (width 0.1) (type solid)) (layer F.Fab))
  (fp_line (start -3.05 6.25) (end -3.05 -5.25)
    (stroke (width 0.1) (type solid)) (layer F.Fab))
  (fp_line (start -3.05 -5.25) (end -2.05 -6.25)
    (stroke (width 0.1) (type solid)) (layer F.Fab))
  (pad 1 smd roundrect (at -3.7125 -5.85) (size 1.575 0.4) (layers F.Cu F.Mask F.Paste) (roundrect_rratio 0.25))
  (pad 2 smd roundrect (at -3.7125 -5.2) (size 1.575 0.4) (layers F.Cu F.Mask F.Paste) (roundrect_rratio 0.25))
  (pad 3 smd roundrect (at -3.7125 -4.55) (size 1.575 0.4) (layers F.Cu F.Mask F.Paste) (roundrect_rratio 0.25))
  (pad 4 smd roundrect (at -3.7125 -3.9) (size 1.575 0.4) (layers F.Cu F.Mask F.Paste) (roundrect_rratio 0.25))
  (pad 5 smd roundrect (at -3.7125 -3.25) (size 1.575 0.4) (layers F.Cu F.Mask F.Paste) (roundrect_rratio 0.25))
  (pad 6 smd roundrect (at -3.7125 -2.6) (size 1.575 0.4) (layers F.Cu F.Mask F.Paste) (roundrect_rratio 0.25))
  (pad 7 smd roundrect (at -3.7125 -1.95) (size 1.575 0.4) (layers F.Cu F.Mask F.Paste) (roundrect_rratio 0.25))
  (pad 8 smd roundrect (at -3.7125 -1.3) (size 1.575 0.4) (layers F.Cu F.Mask F.Paste) (roundrect_rratio 0.25))
  (pad 9 smd roundrect (at -3.7125 -0.65) (size 1.575 0.4) (layers F.Cu F.Mask F.Paste) (roundrect_rratio 0.25))
  (pad 10 smd roundrect (at -3.7125 0) (size 1.575 0.4) (layers F.Cu F.Mask F.Paste) (roundrect_rratio 0.25))
  (pad 11 smd roundrect (at -3.7125 0.65) (size 1.575 0.4) (layers F.Cu F.Mask F.Paste) (roundrect_rratio 0.25))
  (pad 12 smd roundrect (at -3.7125 1.3) (size 1.575 0.4) (layers F.Cu F.Mask F.Paste) (roundrect_rratio 0.25))
  (pad 13 smd roundrect (at -3.7125 1.95) (size 1.575 0.4) (layers F.Cu F.Mask F.Paste) (roundrect_rratio 0.25))
  (pad 14 smd roundrect (at -3.7125 2.6) (size 1.575 0.4) (layers F.Cu F.Mask F.Paste) (roundrect_rratio 0.25))
  (pad 15 smd roundrect (at -3.7125 3.25) (size 1.575 0.4) (layers F.Cu F.Mask F.Paste) (roundrect_rratio 0.25))
  (pad 16 smd roundrect (at -3.7125 3.9) (size 1.575 0.4) (layers F.Cu F.Mask F.Paste) (roundrect_rratio 0.25))
  (pad 17 smd roundrect (at -3.7125 4.55) (size 1.575 0.4) (layers F.Cu F.Mask F.Paste) (roundrect_rratio 0.25))
  (pad 18 smd roundrect (at -3.7125 5.2) (size 1.575 0.4) (layers F.Cu F.Mask F.Paste) (roundrect_rratio 0.25))
  (pad 19 smd roundrect (at -3.7125 5.85) (size 1.575 0.4) (layers F.Cu F.Mask F.Paste) (roundrect_rratio 0.25))
  (pad 20 smd roundrect (at 3.7125 5.85) (size 1.575 0.4) (layers F.Cu F.Mask F.Paste) (roundrect_rratio 0.25))
  (pad 21 smd roundrect (at 3.7125 5.2) (size 1.575 0.4) (layers F.Cu F.Mask F.Paste) (roundrect_rratio 0.25))
  (pad 22 smd roundrect (at 3.7125 4.55) (size 1.575 0.4) (layers F.Cu F.Mask F.Paste) (roundrect_rratio 0.25))
  (pad 23 smd roundrect (at 3.7125 3.9) (size 1.575 0.4) (layers F.Cu F.Mask F.Paste) (roundrect_rratio 0.25))
  (pad 24 smd roundrect (at 3.7125 3.25) (size 1.575 0.4) (layers F.Cu F.Mask F.Paste) (roundrect_rratio 0.25))
  (pad 25 smd roundrect (at 3.7125 2.6) (size 1.575 0.4) (layers F.Cu F.Mask F.Paste) (roundrect_rratio 0.25))
  (pad 26 smd roundrect (at 3.7125 1.95) (size 1.575 0.4) (layers F.Cu F.Mask F.Paste) (roundrect_rratio 0.25))
  (pad 27 smd roundrect (at 3.7125 1.3) (size 1.575 0.4) (layers F.Cu F.Mask F.Paste) (roundrect_rratio 0.25))
  (pad 28 smd roundrect (at 3.7125 0.65) (size 1.575 0.4) (layers F.Cu F.Mask F.Paste) (roundrect_rratio 0.25))
  (pad 29 smd roundrect (at 3.7125 0) (size 1.575 0.4) (layers F.Cu F.Mask F.Paste) (roundrect_rratio 0.25))
  (pad 30 smd roundrect (at 3.7125 -0.65) (size 1.575 0.4) (layers F.Cu F.Mask F.Paste) (roundrect_rratio 0.25))
  (pad 31 smd roundrect (at 3.7125 -1.3) (size 1.575 0.4) (layers F.Cu F.Mask F.Paste) (roundrect_rratio 0.25))
  (pad 32 smd roundrect (at 3.7125 -1.95) (size 1.575 0.4) (layers F.Cu F.Mask F.Paste) (roundrect_rratio 0.25))
  (pad 33 smd roundrect (at 3.7125 -2.6) (size 1.575 0.4) (layers F.Cu F.Mask F.Paste) (roundrect_rratio 0.25))
  (pad 34 smd roundrect (at 3.7125 -3.25) (size 1.575 0.4) (layers F.Cu F.Mask F.Paste) (roundrect_rratio 0.25))
  (pad 35 smd roundrect (at 3.7125 -3.9) (size 1.575 0.4) (layers F.Cu F.Mask F.Paste) (roundrect_rratio 0.25))
  (pad 36 smd roundrect (at 3.7125 -4.55) (size 1.575 0.4) (layers F.Cu F.Mask F.Paste) (roundrect_rratio 0.25))
  (pad 37 smd roundrect (at 3.7125 -5.2) (size 1.575 0.4) (layers F.Cu F.Mask F.Paste) (roundrect_rratio 0.25))
  (pad 38 smd roundrect (at 3.7125 -5.85) (size 1.575 0.4) (layers F.Cu F.Mask F.Paste) (roundrect_rratio 0.25))
  (pad "" smd rect (at 0 0) (size 3.39 6.35) (layers F.Mask))
  (pad 39 smd rect (at 0 0) (size 5.2 12.5) (property pad_prop_heatsink) (layers F.Cu)
    (zone_connect 2))
  (pad "" smd roundrect (at -0.85 -2.12) (size 1.37 1.71) (layers F.Paste) (roundrect_rratio 0.182482))
  (pad "" smd roundrect (at -0.85 0) (size 1.37 1.71) (layers F.Paste) (roundrect_rratio 0.182482))
  (pad "" smd roundrect (at -0.85 2.12) (size 1.37 1.71) (layers F.Paste) (roundrect_rratio 0.182482))
  (pad "" smd roundrect (at 0.85 -2.12) (size 1.37 1.71) (layers F.Paste) (roundrect_rratio 0.182482))
  (pad "" smd roundrect (at 0.85 0) (size 1.37 1.71) (layers F.Paste) (roundrect_rratio 0.182482))
  (pad "" smd roundrect (at 0.85 2.12) (size 1.37 1.71) (layers F.Paste) (roundrect_rratio 0.182482))
  (fp_poly (pts (xy -3.775 -6.31) (xy -3.955 -6.562) (xy -3.595 -6.562) (xy -3.775 -6.31))
    (stroke (width 0.12) (type solid)) (fill solid) (layer F.SilkS))
  (fp_text user ${REFERENCE} (at 0 0) (layer F.Fab)
    (effects (font (size 1 1) (thickness 0.15)))
  )
  (model ${KICAD7_3DMODEL_DIR}/Package_SO.3dshapes/HTSSOP-38-1EP_6.1x12.5mm_P0.65mm_EP5.2x12.5mm_Mask3.39x6.35mm.wrl
    (offset (xyz 0 0 0))
    (scale (xyz 1 1 1))
    (rotate (xyz 0 0 0))
  )
)
