(footprint HVSSOP-10-1EP_3x3mm_P0.5mm_EP1.57x1.88mm (version 20221018) (generator kicad-footprint-generator)
  (layer F.Cu)
  (descr "HVSSOP, 10 Pin (https://www.ti.com/lit/ds/symlink/bq24090.pdf), generated with kicad-footprint-generator ipc_gullwing_generator.py")
  (tags "HVSSOP SO")
  (attr smd)
  (fp_text reference REF** (at 0 -2.45) (layer F.SilkS)
    (effects (font (size 1 1) (thickness 0.15)))
  )
  (fp_text value HVSSOP-10-1EP_3x3mm_P0.5mm_EP1.57x1.88mm (at 0 2.45) (layer F.Fab)
    (effects (font (size 1 1) (thickness 0.15)))
  )
  (fp_line (start -3.12 -1.75) (end -3.12 1.75)
    (stroke (width 0.05) (type solid)) (layer F.CrtYd))
  (fp_line (start -3.12 1.75) (end 3.12 1.75)
    (stroke (width 0.05) (type solid)) (layer F.CrtYd))
  (fp_line (start 3.12 1.75) (end 3.12 -1.75)
    (stroke (width 0.05) (type solid)) (layer F.CrtYd))
  (fp_line (start 3.12 -1.75) (end -3.12 -1.75)
    (stroke (width 0.05) (type solid)) (layer F.CrtYd))
  (fp_line (start 0 1.61) (end 1.5 1.61)
    (stroke (width 0.12) (type solid)) (layer F.SilkS))
  (fp_line (start 0 1.61) (end -1.5 1.61)
    (stroke (width 0.12) (type solid)) (layer F.SilkS))
  (fp_line (start 0 -1.61) (end 1.5 -1.61)
    (stroke (width 0.12) (type solid)) (layer F.SilkS))
  (fp_line (start 0 -1.61) (end -1.5 -1.61)
    (stroke (width 0.12) (type solid)) (layer F.SilkS))
  (fp_line (start -0.75 -1.5) (end 1.5 -1.5)
    (stroke (width 0.1) (type solid)) (layer F.Fab))
  (fp_line (start 1.5 -1.5) (end 1.5 1.5)
    (stroke (width 0.1) (type solid)) (layer F.Fab))
  (fp_line (start 1.5 1.5) (end -1.5 1.5)
    (stroke (width 0.1) (type solid)) (layer F.Fab))
  (fp_line (start -1.5 1.5) (end -1.5 -0.75)
    (stroke (width 0.1) (type solid)) (layer F.Fab))
  (fp_line (start -1.5 -0.75) (end -0.75 -1.5)
    (stroke (width 0.1) (type solid)) (layer F.Fab))
  (pad 1 smd roundrect (at -2.15 -1) (size 1.45 0.3) (layers F.Cu F.Mask F.Paste) (roundrect_rratio 0.25))
  (pad 2 smd roundrect (at -2.15 -0.5) (size 1.45 0.3) (layers F.Cu F.Mask F.Paste) (roundrect_rratio 0.25))
  (pad 3 smd roundrect (at -2.15 0) (size 1.45 0.3) (layers F.Cu F.Mask F.Paste) (roundrect_rratio 0.25))
  (pad 4 smd roundrect (at -2.15 0.5) (size 1.45 0.3) (layers F.Cu F.Mask F.Paste) (roundrect_rratio 0.25))
  (pad 5 smd roundrect (at -2.15 1) (size 1.45 0.3) (layers F.Cu F.Mask F.Paste) (roundrect_rratio 0.25))
  (pad 6 smd roundrect (at 2.15 1) (size 1.45 0.3) (layers F.Cu F.Mask F.Paste) (roundrect_rratio 0.25))
  (pad 7 smd roundrect (at 2.15 0.5) (size 1.45 0.3) (layers F.Cu F.Mask F.Paste) (roundrect_rratio 0.25))
  (pad 8 smd roundrect (at 2.15 0) (size 1.45 0.3) (layers F.Cu F.Mask F.Paste) (roundrect_rratio 0.25))
  (pad 9 smd roundrect (at 2.15 -0.5) (size 1.45 0.3) (layers F.Cu F.Mask F.Paste) (roundrect_rratio 0.25))
  (pad 10 smd roundrect (at 2.15 -1) (size 1.45 0.3) (layers F.Cu F.Mask F.Paste) (roundrect_rratio 0.25))
  (pad 11 smd rect (at 0 0) (size 1.57 1.88) (property pad_prop_heatsink) (layers F.Cu F.Mask)
    (zone_connect 2))
  (pad "" smd roundrect (at -0.39 -0.47) (size 0.63 0.76) (layers F.Paste) (roundrect_rratio 0.25))
  (pad "" smd roundrect (at -0.39 0.47) (size 0.63 0.76) (layers F.Paste) (roundrect_rratio 0.25))
  (pad "" smd roundrect (at 0.39 -0.47) (size 0.63 0.76) (layers F.Paste) (roundrect_rratio 0.25))
  (pad "" smd roundrect (at 0.39 0.47) (size 0.63 0.76) (layers F.Paste) (roundrect_rratio 0.25))
  (fp_poly (pts (xy -2.1875 -1.41) (xy -2.3675 -1.662) (xy -2.0075 -1.662) (xy -2.1875 -1.41))
    (stroke (width 0.12) (type solid)) (fill solid) (layer F.SilkS))
  (fp_text user ${REFERENCE} (at 0 0) (layer F.Fab)
    (effects (font (size 0.75 0.75) (thickness 0.11)))
  )
  (model ${KICAD7_3DMODEL_DIR}/Package_SO.3dshapes/HVSSOP-10-1EP_3x3mm_P0.5mm_EP1.57x1.88mm.wrl
    (offset (xyz 0 0 0))
    (scale (xyz 1 1 1))
    (rotate (xyz 0 0 0))
  )
)
