(footprint Infineon_PG-DSO-8-27_3.9x4.9mm_EP2.65x3mm_ThermalVias (version 20221018) (generator kicad-footprint-generator)
  (layer F.Cu)
  (descr "Infineon  PG-DSO, 8 Pin (https://www.infineon.com/cms/en/product/packages/PG-DSO/PG-DSO-8-27), generated with kicad-footprint-generator ipc_gullwing_generator.py")
  (tags "Infineon PG-DSO SO")
  (attr smd)
  (fp_text reference REF** (at 0 -3.4) (layer F.SilkS)
    (effects (font (size 1 1) (thickness 0.15)))
  )
  (fp_text value Infineon_PG-DSO-8-27_3.9x4.9mm_EP2.65x3mm_ThermalVias (at 0 3.4) (layer F.Fab)
    (effects (font (size 1 1) (thickness 0.15)))
  )
  (fp_line (start -3.7 -2.7) (end -3.7 2.7)
    (stroke (width 0.05) (type solid)) (layer F.CrtYd))
  (fp_line (start -3.7 2.7) (end 3.7 2.7)
    (stroke (width 0.05) (type solid)) (layer F.CrtYd))
  (fp_line (start 3.7 2.7) (end 3.7 -2.7)
    (stroke (width 0.05) (type solid)) (layer F.CrtYd))
  (fp_line (start 3.7 -2.7) (end -3.7 -2.7)
    (stroke (width 0.05) (type solid)) (layer F.CrtYd))
  (fp_line (start 0 2.56) (end 1.95 2.56)
    (stroke (width 0.12) (type solid)) (layer F.SilkS))
  (fp_line (start 0 2.56) (end -1.95 2.56)
    (stroke (width 0.12) (type solid)) (layer F.SilkS))
  (fp_line (start 0 -2.56) (end 1.95 -2.56)
    (stroke (width 0.12) (type solid)) (layer F.SilkS))
  (fp_line (start 0 -2.56) (end -1.95 -2.56)
    (stroke (width 0.12) (type solid)) (layer F.SilkS))
  (fp_line (start -0.975 -2.45) (end 1.95 -2.45)
    (stroke (width 0.1) (type solid)) (layer F.Fab))
  (fp_line (start 1.95 -2.45) (end 1.95 2.45)
    (stroke (width 0.1) (type solid)) (layer F.Fab))
  (fp_line (start 1.95 2.45) (end -1.95 2.45)
    (stroke (width 0.1) (type solid)) (layer F.Fab))
  (fp_line (start -1.95 2.45) (end -1.95 -1.475)
    (stroke (width 0.1) (type solid)) (layer F.Fab))
  (fp_line (start -1.95 -1.475) (end -0.975 -2.45)
    (stroke (width 0.1) (type solid)) (layer F.Fab))
  (pad 1 smd roundrect (at -2.625 -1.905) (size 1.65 0.6) (layers F.Cu F.Mask F.Paste) (roundrect_rratio 0.25))
  (pad 2 smd roundrect (at -2.625 -0.635) (size 1.65 0.6) (layers F.Cu F.Mask F.Paste) (roundrect_rratio 0.25))
  (pad 3 smd roundrect (at -2.625 0.635) (size 1.65 0.6) (layers F.Cu F.Mask F.Paste) (roundrect_rratio 0.25))
  (pad 4 smd roundrect (at -2.625 1.905) (size 1.65 0.6) (layers F.Cu F.Mask F.Paste) (roundrect_rratio 0.25))
  (pad 5 smd roundrect (at 2.625 1.905) (size 1.65 0.6) (layers F.Cu F.Mask F.Paste) (roundrect_rratio 0.25))
  (pad 6 smd roundrect (at 2.625 0.635) (size 1.65 0.6) (layers F.Cu F.Mask F.Paste) (roundrect_rratio 0.25))
  (pad 7 smd roundrect (at 2.625 -0.635) (size 1.65 0.6) (layers F.Cu F.Mask F.Paste) (roundrect_rratio 0.25))
  (pad 8 smd roundrect (at 2.625 -1.905) (size 1.65 0.6) (layers F.Cu F.Mask F.Paste) (roundrect_rratio 0.25))
  (pad 9 smd rect (at 0 0) (size 2.65 3) (property pad_prop_heatsink) (layers F.Cu F.Mask)
    (zone_connect 2))
  (pad 9 thru_hole circle (at -1.075 -1.25) (size 0.5 0.5) (drill 0.2) (property pad_prop_heatsink) (layers *.Cu))
  (pad 9 thru_hole circle (at 0 -1.25) (size 0.5 0.5) (drill 0.2) (property pad_prop_heatsink) (layers *.Cu))
  (pad 9 thru_hole circle (at 1.075 -1.25) (size 0.5 0.5) (drill 0.2) (property pad_prop_heatsink) (layers *.Cu))
  (pad 9 thru_hole circle (at -1.075 0) (size 0.5 0.5) (drill 0.2) (property pad_prop_heatsink) (layers *.Cu))
  (pad 9 thru_hole circle (at 0 0) (size 0.5 0.5) (drill 0.2) (property pad_prop_heatsink) (layers *.Cu))
  (pad 9 thru_hole circle (at 1.075 0) (size 0.5 0.5) (drill 0.2) (property pad_prop_heatsink) (layers *.Cu))
  (pad 9 thru_hole circle (at -1.075 1.25) (size 0.5 0.5) (drill 0.2) (property pad_prop_heatsink) (layers *.Cu))
  (pad 9 thru_hole circle (at 0 1.25) (size 0.5 0.5) (drill 0.2) (property pad_prop_heatsink) (layers *.Cu))
  (pad 9 thru_hole circle (at 1.075 1.25) (size 0.5 0.5) (drill 0.2) (property pad_prop_heatsink) (layers *.Cu))
  (pad 9 smd rect (at 0 0) (size 2.65 3) (property pad_prop_heatsink) (layers B.Cu)
    (zone_connect 2))
  (pad "" smd roundrect (at -0.66 -0.75) (size 1.11 1.25) (layers F.Paste) (roundrect_rratio 0.225225))
  (pad "" smd roundrect (at -0.66 0.75) (size 1.11 1.25) (layers F.Paste) (roundrect_rratio 0.225225))
  (pad "" smd roundrect (at 0.66 -0.75) (size 1.11 1.25) (layers F.Paste) (roundrect_rratio 0.225225))
  (pad "" smd roundrect (at 0.66 0.75) (size 1.11 1.25) (layers F.Paste) (roundrect_rratio 0.225225))
  (fp_poly (pts (xy -2.7 -2.465) (xy -2.94 -2.801) (xy -2.46 -2.801) (xy -2.7 -2.465))
    (stroke (width 0.12) (type solid)) (fill solid) (layer F.SilkS))
  (fp_text user ${REFERENCE} (at 0 0) (layer F.Fab)
    (effects (font (size 0.98 0.98) (thickness 0.15)))
  )
  (model ${KICAD7_3DMODEL_DIR}/Package_SO.3dshapes/Infineon_PG-DSO-8-27_3.9x4.9mm_EP2.65x3mm.wrl
    (offset (xyz 0 0 0))
    (scale (xyz 1 1 1))
    (rotate (xyz 0 0 0))
  )
)
