(footprint MSOP-8-1EP_3x3mm_P0.65mm_EP1.68x1.88mm_ThermalVias (version 20221018) (generator kicad-footprint-generator)
  (layer F.Cu)
  (descr "MSOP, 8 Pin (https://www.analog.com/media/en/technical-documentation/data-sheets/4440fb.pdf#page=13), generated with kicad-footprint-generator ipc_gullwing_generator.py")
  (tags "MSOP SO")
  (attr smd)
  (fp_text reference REF** (at 0 -2.45) (layer F.SilkS)
    (effects (font (size 1 1) (thickness 0.15)))
  )
  (fp_text value MSOP-8-1EP_3x3mm_P0.65mm_EP1.68x1.88mm_ThermalVias (at 0 2.45) (layer F.Fab)
    (effects (font (size 1 1) (thickness 0.15)))
  )
  (fp_line (start -3.12 -1.75) (end -3.12 1.75)
    (stroke (width 0.05) (type solid)) (layer F.CrtYd))
  (fp_line (start -3.12 1.75) (end 3.12 1.75)
    (stroke (width 0.05) (type solid)) (layer F.CrtYd))
  (fp_line (start 3.12 1.75) (end 3.12 -1.75)
    (stroke (width 0.05) (type solid)) (layer F.CrtYd))
  (fp_line (start 3.12 -1.75) (end -3.12 -1.75)
    (stroke (width 0.05) (type solid)) (layer F.CrtYd))
  (fp_line (start 0 1.61) (end 1.5 1.61)
    (stroke (width 0.12) (type solid)) (layer F.SilkS))
  (fp_line (start 0 1.61) (end -1.5 1.61)
    (stroke (width 0.12) (type solid)) (layer F.SilkS))
  (fp_line (start 0 -1.61) (end 1.5 -1.61)
    (stroke (width 0.12) (type solid)) (layer F.SilkS))
  (fp_line (start 0 -1.61) (end -1.5 -1.61)
    (stroke (width 0.12) (type solid)) (layer F.SilkS))
  (fp_line (start -0.75 -1.5) (end 1.5 -1.5)
    (stroke (width 0.1) (type solid)) (layer F.Fab))
  (fp_line (start 1.5 -1.5) (end 1.5 1.5)
    (stroke (width 0.1) (type solid)) (layer F.Fab))
  (fp_line (start 1.5 1.5) (end -1.5 1.5)
    (stroke (width 0.1) (type solid)) (layer F.Fab))
  (fp_line (start -1.5 1.5) (end -1.5 -0.75)
    (stroke (width 0.1) (type solid)) (layer F.Fab))
  (fp_line (start -1.5 -0.75) (end -0.75 -1.5)
    (stroke (width 0.1) (type solid)) (layer F.Fab))
  (pad 1 smd roundrect (at -2.15 -0.975) (size 1.45 0.4) (layers F.Cu F.Mask F.Paste) (roundrect_rratio 0.25))
  (pad 2 smd roundrect (at -2.15 -0.325) (size 1.45 0.4) (layers F.Cu F.Mask F.Paste) (roundrect_rratio 0.25))
  (pad 3 smd roundrect (at -2.15 0.325) (size 1.45 0.4) (layers F.Cu F.Mask F.Paste) (roundrect_rratio 0.25))
  (pad 4 smd roundrect (at -2.15 0.975) (size 1.45 0.4) (layers F.Cu F.Mask F.Paste) (roundrect_rratio 0.25))
  (pad 5 smd roundrect (at 2.15 0.975) (size 1.45 0.4) (layers F.Cu F.Mask F.Paste) (roundrect_rratio 0.25))
  (pad 6 smd roundrect (at 2.15 0.325) (size 1.45 0.4) (layers F.Cu F.Mask F.Paste) (roundrect_rratio 0.25))
  (pad 7 smd roundrect (at 2.15 -0.325) (size 1.45 0.4) (layers F.Cu F.Mask F.Paste) (roundrect_rratio 0.25))
  (pad 8 smd roundrect (at 2.15 -0.975) (size 1.45 0.4) (layers F.Cu F.Mask F.Paste) (roundrect_rratio 0.25))
  (pad 9 smd rect (at 0 0) (size 1.68 1.88) (property pad_prop_heatsink) (layers F.Cu F.Mask)
    (zone_connect 2))
  (pad 9 thru_hole circle (at -0.55 -0.65) (size 0.5 0.5) (drill 0.2) (property pad_prop_heatsink) (layers *.Cu))
  (pad 9 thru_hole circle (at 0.55 -0.65) (size 0.5 0.5) (drill 0.2) (property pad_prop_heatsink) (layers *.Cu))
  (pad 9 thru_hole circle (at -0.55 0.65) (size 0.5 0.5) (drill 0.2) (property pad_prop_heatsink) (layers *.Cu))
  (pad 9 thru_hole circle (at 0.55 0.65) (size 0.5 0.5) (drill 0.2) (property pad_prop_heatsink) (layers *.Cu))
  (pad 9 smd rect (at 0 0) (size 1.6 1.8) (property pad_prop_heatsink) (layers B.Cu)
    (zone_connect 2))
  (pad "" smd roundrect (at -0.42 -0.47) (size 0.7 0.79) (layers F.Paste) (roundrect_rratio 0.25))
  (pad "" smd roundrect (at -0.42 0.47) (size 0.7 0.79) (layers F.Paste) (roundrect_rratio 0.25))
  (pad "" smd roundrect (at 0.42 -0.47) (size 0.7 0.79) (layers F.Paste) (roundrect_rratio 0.25))
  (pad "" smd roundrect (at 0.42 0.47) (size 0.7 0.79) (layers F.Paste) (roundrect_rratio 0.25))
  (fp_poly (pts (xy -2.1875 -1.435) (xy -2.3675 -1.687) (xy -2.0075 -1.687) (xy -2.1875 -1.435))
    (stroke (width 0.12) (type solid)) (fill solid) (layer F.SilkS))
  (fp_text user ${REFERENCE} (at 0 0) (layer F.Fab)
    (effects (font (size 0.75 0.75) (thickness 0.11)))
  )
  (model ${KICAD7_3DMODEL_DIR}/Package_SO.3dshapes/MSOP-8-1EP_3x3mm_P0.65mm_EP1.68x1.88mm.wrl
    (offset (xyz 0 0 0))
    (scale (xyz 1 1 1))
    (rotate (xyz 0 0 0))
  )
)
