(footprint MSOP-12_3x4mm_P0.65mm (version 20221018) (generator kicad-footprint-generator)
  (layer F.Cu)
  (descr "MSOP, 12 Pin (https://www.analog.com/media/en/technical-documentation/data-sheets/6957fb.pdf#page=36), generated with kicad-footprint-generator ipc_gullwing_generator.py")
  (tags "MSOP SO")
  (attr smd)
  (fp_text reference REF** (at 0 -2.95) (layer F.SilkS)
    (effects (font (size 1 1) (thickness 0.15)))
  )
  (fp_text value MSOP-12_3x4mm_P0.65mm (at 0 2.95) (layer F.Fab)
    (effects (font (size 1 1) (thickness 0.15)))
  )
  (fp_line (start -3.12 -2.25) (end -3.12 2.25)
    (stroke (width 0.05) (type solid)) (layer F.CrtYd))
  (fp_line (start -3.12 2.25) (end 3.12 2.25)
    (stroke (width 0.05) (type solid)) (layer F.CrtYd))
  (fp_line (start 3.12 2.25) (end 3.12 -2.25)
    (stroke (width 0.05) (type solid)) (layer F.CrtYd))
  (fp_line (start 3.12 -2.25) (end -3.12 -2.25)
    (stroke (width 0.05) (type solid)) (layer F.CrtYd))
  (fp_line (start 0 2.11) (end 1.5 2.11)
    (stroke (width 0.12) (type solid)) (layer F.SilkS))
  (fp_line (start 0 2.11) (end -1.5 2.11)
    (stroke (width 0.12) (type solid)) (layer F.SilkS))
  (fp_line (start 0 -2.11) (end 1.5 -2.11)
    (stroke (width 0.12) (type solid)) (layer F.SilkS))
  (fp_line (start 0 -2.11) (end -1.5 -2.11)
    (stroke (width 0.12) (type solid)) (layer F.SilkS))
  (fp_line (start -0.75 -2) (end 1.5 -2)
    (stroke (width 0.1) (type solid)) (layer F.Fab))
  (fp_line (start 1.5 -2) (end 1.5 2)
    (stroke (width 0.1) (type solid)) (layer F.Fab))
  (fp_line (start 1.5 2) (end -1.5 2)
    (stroke (width 0.1) (type solid)) (layer F.Fab))
  (fp_line (start -1.5 2) (end -1.5 -1.25)
    (stroke (width 0.1) (type solid)) (layer F.Fab))
  (fp_line (start -1.5 -1.25) (end -0.75 -2)
    (stroke (width 0.1) (type solid)) (layer F.Fab))
  (pad 1 smd roundrect (at -2.15 -1.625) (size 1.45 0.4) (layers F.Cu F.Mask F.Paste) (roundrect_rratio 0.25))
  (pad 2 smd roundrect (at -2.15 -0.975) (size 1.45 0.4) (layers F.Cu F.Mask F.Paste) (roundrect_rratio 0.25))
  (pad 3 smd roundrect (at -2.15 -0.325) (size 1.45 0.4) (layers F.Cu F.Mask F.Paste) (roundrect_rratio 0.25))
  (pad 4 smd roundrect (at -2.15 0.325) (size 1.45 0.4) (layers F.Cu F.Mask F.Paste) (roundrect_rratio 0.25))
  (pad 5 smd roundrect (at -2.15 0.975) (size 1.45 0.4) (layers F.Cu F.Mask F.Paste) (roundrect_rratio 0.25))
  (pad 6 smd roundrect (at -2.15 1.625) (size 1.45 0.4) (layers F.Cu F.Mask F.Paste) (roundrect_rratio 0.25))
  (pad 7 smd roundrect (at 2.15 1.625) (size 1.45 0.4) (layers F.Cu F.Mask F.Paste) (roundrect_rratio 0.25))
  (pad 8 smd roundrect (at 2.15 0.975) (size 1.45 0.4) (layers F.Cu F.Mask F.Paste) (roundrect_rratio 0.25))
  (pad 9 smd roundrect (at 2.15 0.325) (size 1.45 0.4) (layers F.Cu F.Mask F.Paste) (roundrect_rratio 0.25))
  (pad 10 smd roundrect (at 2.15 -0.325) (size 1.45 0.4) (layers F.Cu F.Mask F.Paste) (roundrect_rratio 0.25))
  (pad 11 smd roundrect (at 2.15 -0.975) (size 1.45 0.4) (layers F.Cu F.Mask F.Paste) (roundrect_rratio 0.25))
  (pad 12 smd roundrect (at 2.15 -1.625) (size 1.45 0.4) (layers F.Cu F.Mask F.Paste) (roundrect_rratio 0.25))
  (fp_poly (pts (xy -2.1875 -2.085) (xy -2.3675 -2.337) (xy -2.0075 -2.337) (xy -2.1875 -2.085))
    (stroke (width 0.12) (type solid)) (fill solid) (layer F.SilkS))
  (fp_text user ${REFERENCE} (at 0 0) (layer F.Fab)
    (effects (font (size 0.75 0.75) (thickness 0.11)))
  )
  (model ${KICAD7_3DMODEL_DIR}/Package_SO.3dshapes/MSOP-12_3x4mm_P0.65mm.wrl
    (offset (xyz 0 0 0))
    (scale (xyz 1 1 1))
    (rotate (xyz 0 0 0))
  )
)
