(footprint MSOP-8-1EP_3x3mm_P0.65mm_EP2.5x3mm_Mask1.73x2.36mm_ThermalVias (version 20221018) (generator kicad-footprint-generator)
  (layer F.Cu)
  (descr "MSOP, 8 Pin (http://ww1.microchip.com/downloads/en/DeviceDoc/mic5355_6.pdf#page=15), generated with kicad-footprint-generator ipc_gullwing_generator.py")
  (tags "MSOP SO")
  (attr smd)
  (fp_text reference REF** (at 0 -2.45) (layer F.SilkS)
    (effects (font (size 1 1) (thickness 0.15)))
  )
  (fp_text value MSOP-8-1EP_3x3mm_P0.65mm_EP2.5x3mm_Mask1.73x2.36mm_ThermalVias (at 0 2.45) (layer F.Fab)
    (effects (font (size 1 1) (thickness 0.15)))
  )
  (fp_line (start -3.1 -1.75) (end -3.1 1.75)
    (stroke (width 0.05) (type solid)) (layer F.CrtYd))
  (fp_line (start -3.1 1.75) (end 3.1 1.75)
    (stroke (width 0.05) (type solid)) (layer F.CrtYd))
  (fp_line (start 3.1 1.75) (end 3.1 -1.75)
    (stroke (width 0.05) (type solid)) (layer F.CrtYd))
  (fp_line (start 3.1 -1.75) (end -3.1 -1.75)
    (stroke (width 0.05) (type solid)) (layer F.CrtYd))
  (fp_line (start -0.75 -1.5) (end 1.5 -1.5)
    (stroke (width 0.1) (type solid)) (layer F.Fab))
  (fp_line (start 1.5 -1.5) (end 1.5 1.5)
    (stroke (width 0.1) (type solid)) (layer F.Fab))
  (fp_line (start 1.5 1.5) (end -1.5 1.5)
    (stroke (width 0.1) (type solid)) (layer F.Fab))
  (fp_line (start -1.5 1.5) (end -1.5 -0.75)
    (stroke (width 0.1) (type solid)) (layer F.Fab))
  (fp_line (start -1.5 -0.75) (end -0.75 -1.5)
    (stroke (width 0.1) (type solid)) (layer F.Fab))
  (pad 1 smd roundrect (at -2.175 -0.975) (size 1.35 0.35) (layers F.Cu F.Mask F.Paste) (roundrect_rratio 0.25))
  (pad 2 smd roundrect (at -2.175 -0.325) (size 1.35 0.35) (layers F.Cu F.Mask F.Paste) (roundrect_rratio 0.25))
  (pad 3 smd roundrect (at -2.175 0.325) (size 1.35 0.35) (layers F.Cu F.Mask F.Paste) (roundrect_rratio 0.25))
  (pad 4 smd roundrect (at -2.175 0.975) (size 1.35 0.35) (layers F.Cu F.Mask F.Paste) (roundrect_rratio 0.25))
  (pad 5 smd roundrect (at 2.175 0.975) (size 1.35 0.35) (layers F.Cu F.Mask F.Paste) (roundrect_rratio 0.25))
  (pad 6 smd roundrect (at 2.175 0.325) (size 1.35 0.35) (layers F.Cu F.Mask F.Paste) (roundrect_rratio 0.25))
  (pad 7 smd roundrect (at 2.175 -0.325) (size 1.35 0.35) (layers F.Cu F.Mask F.Paste) (roundrect_rratio 0.25))
  (pad 8 smd roundrect (at 2.175 -0.975) (size 1.35 0.35) (layers F.Cu F.Mask F.Paste) (roundrect_rratio 0.25))
  (pad "" smd rect (at 0 0) (size 1.73 2.36) (layers F.Mask))
  (pad 9 smd rect (at 0 0) (size 2.5 3) (property pad_prop_heatsink) (layers F.Cu)
    (zone_connect 2))
  (pad 9 thru_hole circle (at -0.5 -0.5) (size 0.5 0.5) (drill 0.2) (property pad_prop_heatsink) (layers *.Cu))
  (pad 9 thru_hole circle (at 0.5 -0.5) (size 0.5 0.5) (drill 0.2) (property pad_prop_heatsink) (layers *.Cu))
  (pad 9 thru_hole circle (at -0.5 0.5) (size 0.5 0.5) (drill 0.2) (property pad_prop_heatsink) (layers *.Cu))
  (pad 9 thru_hole circle (at 0.5 0.5) (size 0.5 0.5) (drill 0.2) (property pad_prop_heatsink) (layers *.Cu))
  (pad 9 smd rect (at 0 0) (size 1.5 1.5) (property pad_prop_heatsink) (layers B.Cu)
    (zone_connect 2))
  (pad "" smd roundrect (at -0.43 -0.59) (size 0.72 0.99) (layers F.Paste) (roundrect_rratio 0.25))
  (pad "" smd roundrect (at -0.43 0.59) (size 0.72 0.99) (layers F.Paste) (roundrect_rratio 0.25))
  (pad "" smd roundrect (at 0.43 -0.59) (size 0.72 0.99) (layers F.Paste) (roundrect_rratio 0.25))
  (pad "" smd roundrect (at 0.43 0.59) (size 0.72 0.99) (layers F.Paste) (roundrect_rratio 0.25))
  (fp_text user ${REFERENCE} (at 0 0) (layer F.Fab)
    (effects (font (size 0.75 0.75) (thickness 0.11)))
  )
  (model ${KICAD7_3DMODEL_DIR}/Package_SO.3dshapes/MSOP-8-1EP_3x3mm_P0.65mm_EP2.5x3mm_Mask1.73x2.36mm.wrl
    (offset (xyz 0 0 0))
    (scale (xyz 1 1 1))
    (rotate (xyz 0 0 0))
  )
)
