(footprint SO-16_3.9x9.9mm_P1.27mm (version 20221018) (generator kicad-footprint-generator)
  (layer F.Cu)
  (descr "SO, 16 Pin (https://www.nxp.com/docs/en/package-information/SOT109-1.pdf), generated with kicad-footprint-generator ipc_gullwing_generator.py")
  (tags "SO SO")
  (attr smd)
  (fp_text reference REF** (at 0 -5.9) (layer F.SilkS)
    (effects (font (size 1 1) (thickness 0.15)))
  )
  (fp_text value SO-16_3.9x9.9mm_P1.27mm (at 0 5.9) (layer F.Fab)
    (effects (font (size 1 1) (thickness 0.15)))
  )
  (fp_line (start -3.7 -5.2) (end -3.7 5.2)
    (stroke (width 0.05) (type solid)) (layer F.CrtYd))
  (fp_line (start -3.7 5.2) (end 3.7 5.2)
    (stroke (width 0.05) (type solid)) (layer F.CrtYd))
  (fp_line (start 3.7 5.2) (end 3.7 -5.2)
    (stroke (width 0.05) (type solid)) (layer F.CrtYd))
  (fp_line (start 3.7 -5.2) (end -3.7 -5.2)
    (stroke (width 0.05) (type solid)) (layer F.CrtYd))
  (fp_line (start 0 5.06) (end 1.95 5.06)
    (stroke (width 0.12) (type solid)) (layer F.SilkS))
  (fp_line (start 0 5.06) (end -1.95 5.06)
    (stroke (width 0.12) (type solid)) (layer F.SilkS))
  (fp_line (start 0 -5.06) (end 1.95 -5.06)
    (stroke (width 0.12) (type solid)) (layer F.SilkS))
  (fp_line (start 0 -5.06) (end -1.95 -5.06)
    (stroke (width 0.12) (type solid)) (layer F.SilkS))
  (fp_line (start -0.975 -4.95) (end 1.95 -4.95)
    (stroke (width 0.1) (type solid)) (layer F.Fab))
  (fp_line (start 1.95 -4.95) (end 1.95 4.95)
    (stroke (width 0.1) (type solid)) (layer F.Fab))
  (fp_line (start 1.95 4.95) (end -1.95 4.95)
    (stroke (width 0.1) (type solid)) (layer F.Fab))
  (fp_line (start -1.95 4.95) (end -1.95 -3.975)
    (stroke (width 0.1) (type solid)) (layer F.Fab))
  (fp_line (start -1.95 -3.975) (end -0.975 -4.95)
    (stroke (width 0.1) (type solid)) (layer F.Fab))
  (pad 1 smd roundrect (at -2.575 -4.445) (size 1.75 0.6) (layers F.Cu F.Mask F.Paste) (roundrect_rratio 0.25))
  (pad 2 smd roundrect (at -2.575 -3.175) (size 1.75 0.6) (layers F.Cu F.Mask F.Paste) (roundrect_rratio 0.25))
  (pad 3 smd roundrect (at -2.575 -1.905) (size 1.75 0.6) (layers F.Cu F.Mask F.Paste) (roundrect_rratio 0.25))
  (pad 4 smd roundrect (at -2.575 -0.635) (size 1.75 0.6) (layers F.Cu F.Mask F.Paste) (roundrect_rratio 0.25))
  (pad 5 smd roundrect (at -2.575 0.635) (size 1.75 0.6) (layers F.Cu F.Mask F.Paste) (roundrect_rratio 0.25))
  (pad 6 smd roundrect (at -2.575 1.905) (size 1.75 0.6) (layers F.Cu F.Mask F.Paste) (roundrect_rratio 0.25))
  (pad 7 smd roundrect (at -2.575 3.175) (size 1.75 0.6) (layers F.Cu F.Mask F.Paste) (roundrect_rratio 0.25))
  (pad 8 smd roundrect (at -2.575 4.445) (size 1.75 0.6) (layers F.Cu F.Mask F.Paste) (roundrect_rratio 0.25))
  (pad 9 smd roundrect (at 2.575 4.445) (size 1.75 0.6) (layers F.Cu F.Mask F.Paste) (roundrect_rratio 0.25))
  (pad 10 smd roundrect (at 2.575 3.175) (size 1.75 0.6) (layers F.Cu F.Mask F.Paste) (roundrect_rratio 0.25))
  (pad 11 smd roundrect (at 2.575 1.905) (size 1.75 0.6) (layers F.Cu F.Mask F.Paste) (roundrect_rratio 0.25))
  (pad 12 smd roundrect (at 2.575 0.635) (size 1.75 0.6) (layers F.Cu F.Mask F.Paste) (roundrect_rratio 0.25))
  (pad 13 smd roundrect (at 2.575 -0.635) (size 1.75 0.6) (layers F.Cu F.Mask F.Paste) (roundrect_rratio 0.25))
  (pad 14 smd roundrect (at 2.575 -1.905) (size 1.75 0.6) (layers F.Cu F.Mask F.Paste) (roundrect_rratio 0.25))
  (pad 15 smd roundrect (at 2.575 -3.175) (size 1.75 0.6) (layers F.Cu F.Mask F.Paste) (roundrect_rratio 0.25))
  (pad 16 smd roundrect (at 2.575 -4.445) (size 1.75 0.6) (layers F.Cu F.Mask F.Paste) (roundrect_rratio 0.25))
  (fp_poly (pts (xy -2.7 -5.005) (xy -2.94 -5.341) (xy -2.46 -5.341) (xy -2.7 -5.005))
    (stroke (width 0.12) (type solid)) (fill solid) (layer F.SilkS))
  (fp_text user ${REFERENCE} (at 0 0) (layer F.Fab)
    (effects (font (size 0.98 0.98) (thickness 0.15)))
  )
  (model ${KICAD7_3DMODEL_DIR}/Package_SO.3dshapes/SO-16_3.9x9.9mm_P1.27mm.wrl
    (offset (xyz 0 0 0))
    (scale (xyz 1 1 1))
    (rotate (xyz 0 0 0))
  )
)
