(footprint SO-4_4.4x3.9mm_P2.54mm (version 20221018) (generator kicad-footprint-generator)
  (layer F.Cu)
  (descr "SO, 4 Pin (https://toshiba.semicon-storage.com/info/docget.jsp?did=10047&prodName=TLP3123), generated with kicad-footprint-generator ipc_gullwing_generator.py")
  (tags "SO SO")
  (attr smd)
  (fp_text reference REF** (at 0 -2.9) (layer F.SilkS)
    (effects (font (size 1 1) (thickness 0.15)))
  )
  (fp_text value SO-4_4.4x3.9mm_P2.54mm (at 0 2.9) (layer F.Fab)
    (effects (font (size 1 1) (thickness 0.15)))
  )
  (fp_line (start -4.3 -2.2) (end -4.3 2.2)
    (stroke (width 0.05) (type solid)) (layer F.CrtYd))
  (fp_line (start -4.3 2.2) (end 4.3 2.2)
    (stroke (width 0.05) (type solid)) (layer F.CrtYd))
  (fp_line (start 4.3 2.2) (end 4.3 -2.2)
    (stroke (width 0.05) (type solid)) (layer F.CrtYd))
  (fp_line (start 4.3 -2.2) (end -4.3 -2.2)
    (stroke (width 0.05) (type solid)) (layer F.CrtYd))
  (fp_line (start 0 2.06) (end 2.31 2.06)
    (stroke (width 0.12) (type solid)) (layer F.SilkS))
  (fp_line (start 2.31 2.06) (end 2.31 1.83)
    (stroke (width 0.12) (type solid)) (layer F.SilkS))
  (fp_line (start 0 2.06) (end -2.31 2.06)
    (stroke (width 0.12) (type solid)) (layer F.SilkS))
  (fp_line (start -2.31 2.06) (end -2.31 1.83)
    (stroke (width 0.12) (type solid)) (layer F.SilkS))
  (fp_line (start 0 -2.06) (end 2.31 -2.06)
    (stroke (width 0.12) (type solid)) (layer F.SilkS))
  (fp_line (start 2.31 -2.06) (end 2.31 -1.83)
    (stroke (width 0.12) (type solid)) (layer F.SilkS))
  (fp_line (start 0 -2.06) (end -2.31 -2.06)
    (stroke (width 0.12) (type solid)) (layer F.SilkS))
  (fp_line (start -2.31 -2.06) (end -2.31 -1.83)
    (stroke (width 0.12) (type solid)) (layer F.SilkS))
  (fp_line (start -1.225 -1.95) (end 2.2 -1.95)
    (stroke (width 0.1) (type solid)) (layer F.Fab))
  (fp_line (start 2.2 -1.95) (end 2.2 1.95)
    (stroke (width 0.1) (type solid)) (layer F.Fab))
  (fp_line (start 2.2 1.95) (end -2.2 1.95)
    (stroke (width 0.1) (type solid)) (layer F.Fab))
  (fp_line (start -2.2 1.95) (end -2.2 -0.975)
    (stroke (width 0.1) (type solid)) (layer F.Fab))
  (fp_line (start -2.2 -0.975) (end -1.225 -1.95)
    (stroke (width 0.1) (type solid)) (layer F.Fab))
  (pad 1 smd roundrect (at -3.15 -1.27) (size 1.8 0.6) (layers F.Cu F.Mask F.Paste) (roundrect_rratio 0.25))
  (pad 2 smd roundrect (at -3.15 1.27) (size 1.8 0.6) (layers F.Cu F.Mask F.Paste) (roundrect_rratio 0.25))
  (pad 3 smd roundrect (at 3.15 1.27) (size 1.8 0.6) (layers F.Cu F.Mask F.Paste) (roundrect_rratio 0.25))
  (pad 4 smd roundrect (at 3.15 -1.27) (size 1.8 0.6) (layers F.Cu F.Mask F.Paste) (roundrect_rratio 0.25))
  (fp_poly (pts (xy -3.125 -1.83) (xy -3.365 -2.166) (xy -2.885 -2.166) (xy -3.125 -1.83))
    (stroke (width 0.12) (type solid)) (fill solid) (layer F.SilkS))
  (fp_text user ${REFERENCE} (at 0 0) (layer F.Fab)
    (effects (font (size 1 1) (thickness 0.15)))
  )
  (model ${KICAD7_3DMODEL_DIR}/Package_SO.3dshapes/SO-4_4.4x3.9mm_P2.54mm.wrl
    (offset (xyz 0 0 0))
    (scale (xyz 1 1 1))
    (rotate (xyz 0 0 0))
  )
)
