(footprint SOIC-28W_7.5x18.7mm_P1.27mm (version 20221018) (generator kicad-footprint-generator)
  (layer F.Cu)
  (descr "SOIC, 28 Pin (https://www.akm.com/akm/en/file/datasheet/AK5394AVS.pdf#page=23), generated with kicad-footprint-generator ipc_gullwing_generator.py")
  (tags "SOIC SO")
  (attr smd)
  (fp_text reference REF** (at 0 -10.3) (layer F.SilkS)
    (effects (font (size 1 1) (thickness 0.15)))
  )
  (fp_text value SOIC-28W_7.5x18.7mm_P1.27mm (at 0 10.3) (layer F.Fab)
    (effects (font (size 1 1) (thickness 0.15)))
  )
  (fp_line (start -5.95 -9.6) (end -5.95 9.6)
    (stroke (width 0.05) (type solid)) (layer F.CrtYd))
  (fp_line (start -5.95 9.6) (end 5.95 9.6)
    (stroke (width 0.05) (type solid)) (layer F.CrtYd))
  (fp_line (start 5.95 9.6) (end 5.95 -9.6)
    (stroke (width 0.05) (type solid)) (layer F.CrtYd))
  (fp_line (start 5.95 -9.6) (end -5.95 -9.6)
    (stroke (width 0.05) (type solid)) (layer F.CrtYd))
  (fp_line (start 0 9.46) (end 3.86 9.46)
    (stroke (width 0.12) (type solid)) (layer F.SilkS))
  (fp_line (start 3.86 9.46) (end 3.86 8.815)
    (stroke (width 0.12) (type solid)) (layer F.SilkS))
  (fp_line (start 0 9.46) (end -3.86 9.46)
    (stroke (width 0.12) (type solid)) (layer F.SilkS))
  (fp_line (start -3.86 9.46) (end -3.86 8.815)
    (stroke (width 0.12) (type solid)) (layer F.SilkS))
  (fp_line (start 0 -9.46) (end 3.86 -9.46)
    (stroke (width 0.12) (type solid)) (layer F.SilkS))
  (fp_line (start 3.86 -9.46) (end 3.86 -8.815)
    (stroke (width 0.12) (type solid)) (layer F.SilkS))
  (fp_line (start 0 -9.46) (end -3.86 -9.46)
    (stroke (width 0.12) (type solid)) (layer F.SilkS))
  (fp_line (start -3.86 -9.46) (end -3.86 -8.815)
    (stroke (width 0.12) (type solid)) (layer F.SilkS))
  (fp_line (start -2.75 -9.35) (end 3.75 -9.35)
    (stroke (width 0.1) (type solid)) (layer F.Fab))
  (fp_line (start 3.75 -9.35) (end 3.75 9.35)
    (stroke (width 0.1) (type solid)) (layer F.Fab))
  (fp_line (start 3.75 9.35) (end -3.75 9.35)
    (stroke (width 0.1) (type solid)) (layer F.Fab))
  (fp_line (start -3.75 9.35) (end -3.75 -8.35)
    (stroke (width 0.1) (type solid)) (layer F.Fab))
  (fp_line (start -3.75 -8.35) (end -2.75 -9.35)
    (stroke (width 0.1) (type solid)) (layer F.Fab))
  (pad 1 smd roundrect (at -4.8 -8.255) (size 1.8 0.6) (layers F.Cu F.Mask F.Paste) (roundrect_rratio 0.25))
  (pad 2 smd roundrect (at -4.8 -6.985) (size 1.8 0.6) (layers F.Cu F.Mask F.Paste) (roundrect_rratio 0.25))
  (pad 3 smd roundrect (at -4.8 -5.715) (size 1.8 0.6) (layers F.Cu F.Mask F.Paste) (roundrect_rratio 0.25))
  (pad 4 smd roundrect (at -4.8 -4.445) (size 1.8 0.6) (layers F.Cu F.Mask F.Paste) (roundrect_rratio 0.25))
  (pad 5 smd roundrect (at -4.8 -3.175) (size 1.8 0.6) (layers F.Cu F.Mask F.Paste) (roundrect_rratio 0.25))
  (pad 6 smd roundrect (at -4.8 -1.905) (size 1.8 0.6) (layers F.Cu F.Mask F.Paste) (roundrect_rratio 0.25))
  (pad 7 smd roundrect (at -4.8 -0.635) (size 1.8 0.6) (layers F.Cu F.Mask F.Paste) (roundrect_rratio 0.25))
  (pad 8 smd roundrect (at -4.8 0.635) (size 1.8 0.6) (layers F.Cu F.Mask F.Paste) (roundrect_rratio 0.25))
  (pad 9 smd roundrect (at -4.8 1.905) (size 1.8 0.6) (layers F.Cu F.Mask F.Paste) (roundrect_rratio 0.25))
  (pad 10 smd roundrect (at -4.8 3.175) (size 1.8 0.6) (layers F.Cu F.Mask F.Paste) (roundrect_rratio 0.25))
  (pad 11 smd roundrect (at -4.8 4.445) (size 1.8 0.6) (layers F.Cu F.Mask F.Paste) (roundrect_rratio 0.25))
  (pad 12 smd roundrect (at -4.8 5.715) (size 1.8 0.6) (layers F.Cu F.Mask F.Paste) (roundrect_rratio 0.25))
  (pad 13 smd roundrect (at -4.8 6.985) (size 1.8 0.6) (layers F.Cu F.Mask F.Paste) (roundrect_rratio 0.25))
  (pad 14 smd roundrect (at -4.8 8.255) (size 1.8 0.6) (layers F.Cu F.Mask F.Paste) (roundrect_rratio 0.25))
  (pad 15 smd roundrect (at 4.8 8.255) (size 1.8 0.6) (layers F.Cu F.Mask F.Paste) (roundrect_rratio 0.25))
  (pad 16 smd roundrect (at 4.8 6.985) (size 1.8 0.6) (layers F.Cu F.Mask F.Paste) (roundrect_rratio 0.25))
  (pad 17 smd roundrect (at 4.8 5.715) (size 1.8 0.6) (layers F.Cu F.Mask F.Paste) (roundrect_rratio 0.25))
  (pad 18 smd roundrect (at 4.8 4.445) (size 1.8 0.6) (layers F.Cu F.Mask F.Paste) (roundrect_rratio 0.25))
  (pad 19 smd roundrect (at 4.8 3.175) (size 1.8 0.6) (layers F.Cu F.Mask F.Paste) (roundrect_rratio 0.25))
  (pad 20 smd roundrect (at 4.8 1.905) (size 1.8 0.6) (layers F.Cu F.Mask F.Paste) (roundrect_rratio 0.25))
  (pad 21 smd roundrect (at 4.8 0.635) (size 1.8 0.6) (layers F.Cu F.Mask F.Paste) (roundrect_rratio 0.25))
  (pad 22 smd roundrect (at 4.8 -0.635) (size 1.8 0.6) (layers F.Cu F.Mask F.Paste) (roundrect_rratio 0.25))
  (pad 23 smd roundrect (at 4.8 -1.905) (size 1.8 0.6) (layers F.Cu F.Mask F.Paste) (roundrect_rratio 0.25))
  (pad 24 smd roundrect (at 4.8 -3.175) (size 1.8 0.6) (layers F.Cu F.Mask F.Paste) (roundrect_rratio 0.25))
  (pad 25 smd roundrect (at 4.8 -4.445) (size 1.8 0.6) (layers F.Cu F.Mask F.Paste) (roundrect_rratio 0.25))
  (pad 26 smd roundrect (at 4.8 -5.715) (size 1.8 0.6) (layers F.Cu F.Mask F.Paste) (roundrect_rratio 0.25))
  (pad 27 smd roundrect (at 4.8 -6.985) (size 1.8 0.6) (layers F.Cu F.Mask F.Paste) (roundrect_rratio 0.25))
  (pad 28 smd roundrect (at 4.8 -8.255) (size 1.8 0.6) (layers F.Cu F.Mask F.Paste) (roundrect_rratio 0.25))
  (fp_poly (pts (xy -4.725 -8.815) (xy -4.965 -9.151) (xy -4.485 -9.151) (xy -4.725 -8.815))
    (stroke (width 0.12) (type solid)) (fill solid) (layer F.SilkS))
  (fp_text user ${REFERENCE} (at 0 0) (layer F.Fab)
    (effects (font (size 1 1) (thickness 0.15)))
  )
  (model ${KICAD7_3DMODEL_DIR}/Package_SO.3dshapes/SOIC-28W_7.5x18.7mm_P1.27mm.wrl
    (offset (xyz 0 0 0))
    (scale (xyz 1 1 1))
    (rotate (xyz 0 0 0))
  )
)
