(footprint SOIC-16W_7.5x12.8mm_P1.27mm (version 20221018) (generator kicad-footprint-generator)
  (layer F.Cu)
  (descr "SOIC, 16 Pin (https://www.analog.com/media/en/package-pcb-resources/package/pkg_pdf/ri_soic_ic/ri_16_1.pdf), generated with kicad-footprint-generator ipc_gullwing_generator.py")
  (tags "SOIC SO")
  (attr smd)
  (fp_text reference REF** (at 0 -7.35) (layer F.SilkS)
    (effects (font (size 1 1) (thickness 0.15)))
  )
  (fp_text value SOIC-16W_7.5x12.8mm_P1.27mm (at 0 7.35) (layer F.Fab)
    (effects (font (size 1 1) (thickness 0.15)))
  )
  (fp_line (start -5.93 -6.65) (end -5.93 6.65)
    (stroke (width 0.05) (type solid)) (layer F.CrtYd))
  (fp_line (start -5.93 6.65) (end 5.93 6.65)
    (stroke (width 0.05) (type solid)) (layer F.CrtYd))
  (fp_line (start 5.93 6.65) (end 5.93 -6.65)
    (stroke (width 0.05) (type solid)) (layer F.CrtYd))
  (fp_line (start 5.93 -6.65) (end -5.93 -6.65)
    (stroke (width 0.05) (type solid)) (layer F.CrtYd))
  (fp_line (start 0 6.51) (end 3.86 6.51)
    (stroke (width 0.12) (type solid)) (layer F.SilkS))
  (fp_line (start 3.86 6.51) (end 3.86 5.005)
    (stroke (width 0.12) (type solid)) (layer F.SilkS))
  (fp_line (start 0 6.51) (end -3.86 6.51)
    (stroke (width 0.12) (type solid)) (layer F.SilkS))
  (fp_line (start -3.86 6.51) (end -3.86 5.005)
    (stroke (width 0.12) (type solid)) (layer F.SilkS))
  (fp_line (start 0 -6.51) (end 3.86 -6.51)
    (stroke (width 0.12) (type solid)) (layer F.SilkS))
  (fp_line (start 3.86 -6.51) (end 3.86 -5.005)
    (stroke (width 0.12) (type solid)) (layer F.SilkS))
  (fp_line (start 0 -6.51) (end -3.86 -6.51)
    (stroke (width 0.12) (type solid)) (layer F.SilkS))
  (fp_line (start -3.86 -6.51) (end -3.86 -5.005)
    (stroke (width 0.12) (type solid)) (layer F.SilkS))
  (fp_line (start -2.75 -6.4) (end 3.75 -6.4)
    (stroke (width 0.1) (type solid)) (layer F.Fab))
  (fp_line (start 3.75 -6.4) (end 3.75 6.4)
    (stroke (width 0.1) (type solid)) (layer F.Fab))
  (fp_line (start 3.75 6.4) (end -3.75 6.4)
    (stroke (width 0.1) (type solid)) (layer F.Fab))
  (fp_line (start -3.75 6.4) (end -3.75 -5.4)
    (stroke (width 0.1) (type solid)) (layer F.Fab))
  (fp_line (start -3.75 -5.4) (end -2.75 -6.4)
    (stroke (width 0.1) (type solid)) (layer F.Fab))
  (pad 1 smd roundrect (at -4.65 -4.445) (size 2.05 0.6) (layers F.Cu F.Mask F.Paste) (roundrect_rratio 0.25))
  (pad 2 smd roundrect (at -4.65 -3.175) (size 2.05 0.6) (layers F.Cu F.Mask F.Paste) (roundrect_rratio 0.25))
  (pad 3 smd roundrect (at -4.65 -1.905) (size 2.05 0.6) (layers F.Cu F.Mask F.Paste) (roundrect_rratio 0.25))
  (pad 4 smd roundrect (at -4.65 -0.635) (size 2.05 0.6) (layers F.Cu F.Mask F.Paste) (roundrect_rratio 0.25))
  (pad 5 smd roundrect (at -4.65 0.635) (size 2.05 0.6) (layers F.Cu F.Mask F.Paste) (roundrect_rratio 0.25))
  (pad 6 smd roundrect (at -4.65 1.905) (size 2.05 0.6) (layers F.Cu F.Mask F.Paste) (roundrect_rratio 0.25))
  (pad 7 smd roundrect (at -4.65 3.175) (size 2.05 0.6) (layers F.Cu F.Mask F.Paste) (roundrect_rratio 0.25))
  (pad 8 smd roundrect (at -4.65 4.445) (size 2.05 0.6) (layers F.Cu F.Mask F.Paste) (roundrect_rratio 0.25))
  (pad 9 smd roundrect (at 4.65 4.445) (size 2.05 0.6) (layers F.Cu F.Mask F.Paste) (roundrect_rratio 0.25))
  (pad 10 smd roundrect (at 4.65 3.175) (size 2.05 0.6) (layers F.Cu F.Mask F.Paste) (roundrect_rratio 0.25))
  (pad 11 smd roundrect (at 4.65 1.905) (size 2.05 0.6) (layers F.Cu F.Mask F.Paste) (roundrect_rratio 0.25))
  (pad 12 smd roundrect (at 4.65 0.635) (size 2.05 0.6) (layers F.Cu F.Mask F.Paste) (roundrect_rratio 0.25))
  (pad 13 smd roundrect (at 4.65 -0.635) (size 2.05 0.6) (layers F.Cu F.Mask F.Paste) (roundrect_rratio 0.25))
  (pad 14 smd roundrect (at 4.65 -1.905) (size 2.05 0.6) (layers F.Cu F.Mask F.Paste) (roundrect_rratio 0.25))
  (pad 15 smd roundrect (at 4.65 -3.175) (size 2.05 0.6) (layers F.Cu F.Mask F.Paste) (roundrect_rratio 0.25))
  (pad 16 smd roundrect (at 4.65 -4.445) (size 2.05 0.6) (layers F.Cu F.Mask F.Paste) (roundrect_rratio 0.25))
  (fp_poly (pts (xy -4.7125 -5.005) (xy -4.9525 -5.341) (xy -4.4725 -5.341) (xy -4.7125 -5.005))
    (stroke (width 0.12) (type solid)) (fill solid) (layer F.SilkS))
  (fp_text user ${REFERENCE} (at 0 0) (layer F.Fab)
    (effects (font (size 1 1) (thickness 0.15)))
  )
  (model ${KICAD7_3DMODEL_DIR}/Package_SO.3dshapes/SOIC-16W_7.5x12.8mm_P1.27mm.wrl
    (offset (xyz 0 0 0))
    (scale (xyz 1 1 1))
    (rotate (xyz 0 0 0))
  )
)
