(footprint SOIC-14W_7.5x9mm_P1.27mm (version 20221018) (generator kicad-footprint-generator)
  (layer F.Cu)
  (descr "SOIC, 14 Pin (JEDEC MS-013AF, https://www.analog.com/media/en/package-pcb-resources/package/54614177245586rw_14.pdf), generated with kicad-footprint-generator ipc_gullwing_generator.py")
  (tags "SOIC SO")
  (attr smd)
  (fp_text reference REF** (at 0 -5.45) (layer F.SilkS)
    (effects (font (size 1 1) (thickness 0.15)))
  )
  (fp_text value SOIC-14W_7.5x9mm_P1.27mm (at 0 5.45) (layer F.Fab)
    (effects (font (size 1 1) (thickness 0.15)))
  )
  (fp_line (start -5.93 -4.75) (end -5.93 4.75)
    (stroke (width 0.05) (type solid)) (layer F.CrtYd))
  (fp_line (start -5.93 4.75) (end 5.93 4.75)
    (stroke (width 0.05) (type solid)) (layer F.CrtYd))
  (fp_line (start 5.93 4.75) (end 5.93 -4.75)
    (stroke (width 0.05) (type solid)) (layer F.CrtYd))
  (fp_line (start 5.93 -4.75) (end -5.93 -4.75)
    (stroke (width 0.05) (type solid)) (layer F.CrtYd))
  (fp_line (start 0 4.61) (end 3.86 4.61)
    (stroke (width 0.12) (type solid)) (layer F.SilkS))
  (fp_line (start 3.86 4.61) (end 3.86 4.37)
    (stroke (width 0.12) (type solid)) (layer F.SilkS))
  (fp_line (start 0 4.61) (end -3.86 4.61)
    (stroke (width 0.12) (type solid)) (layer F.SilkS))
  (fp_line (start -3.86 4.61) (end -3.86 4.37)
    (stroke (width 0.12) (type solid)) (layer F.SilkS))
  (fp_line (start 0 -4.61) (end 3.86 -4.61)
    (stroke (width 0.12) (type solid)) (layer F.SilkS))
  (fp_line (start 3.86 -4.61) (end 3.86 -4.37)
    (stroke (width 0.12) (type solid)) (layer F.SilkS))
  (fp_line (start 0 -4.61) (end -3.86 -4.61)
    (stroke (width 0.12) (type solid)) (layer F.SilkS))
  (fp_line (start -3.86 -4.61) (end -3.86 -4.37)
    (stroke (width 0.12) (type solid)) (layer F.SilkS))
  (fp_line (start -2.75 -4.5) (end 3.75 -4.5)
    (stroke (width 0.1) (type solid)) (layer F.Fab))
  (fp_line (start 3.75 -4.5) (end 3.75 4.5)
    (stroke (width 0.1) (type solid)) (layer F.Fab))
  (fp_line (start 3.75 4.5) (end -3.75 4.5)
    (stroke (width 0.1) (type solid)) (layer F.Fab))
  (fp_line (start -3.75 4.5) (end -3.75 -3.5)
    (stroke (width 0.1) (type solid)) (layer F.Fab))
  (fp_line (start -3.75 -3.5) (end -2.75 -4.5)
    (stroke (width 0.1) (type solid)) (layer F.Fab))
  (pad 1 smd roundrect (at -4.65 -3.81) (size 2.05 0.6) (layers F.Cu F.Mask F.Paste) (roundrect_rratio 0.25))
  (pad 2 smd roundrect (at -4.65 -2.54) (size 2.05 0.6) (layers F.Cu F.Mask F.Paste) (roundrect_rratio 0.25))
  (pad 3 smd roundrect (at -4.65 -1.27) (size 2.05 0.6) (layers F.Cu F.Mask F.Paste) (roundrect_rratio 0.25))
  (pad 4 smd roundrect (at -4.65 0) (size 2.05 0.6) (layers F.Cu F.Mask F.Paste) (roundrect_rratio 0.25))
  (pad 5 smd roundrect (at -4.65 1.27) (size 2.05 0.6) (layers F.Cu F.Mask F.Paste) (roundrect_rratio 0.25))
  (pad 6 smd roundrect (at -4.65 2.54) (size 2.05 0.6) (layers F.Cu F.Mask F.Paste) (roundrect_rratio 0.25))
  (pad 7 smd roundrect (at -4.65 3.81) (size 2.05 0.6) (layers F.Cu F.Mask F.Paste) (roundrect_rratio 0.25))
  (pad 8 smd roundrect (at 4.65 3.81) (size 2.05 0.6) (layers F.Cu F.Mask F.Paste) (roundrect_rratio 0.25))
  (pad 9 smd roundrect (at 4.65 2.54) (size 2.05 0.6) (layers F.Cu F.Mask F.Paste) (roundrect_rratio 0.25))
  (pad 10 smd roundrect (at 4.65 1.27) (size 2.05 0.6) (layers F.Cu F.Mask F.Paste) (roundrect_rratio 0.25))
  (pad 11 smd roundrect (at 4.65 0) (size 2.05 0.6) (layers F.Cu F.Mask F.Paste) (roundrect_rratio 0.25))
  (pad 12 smd roundrect (at 4.65 -1.27) (size 2.05 0.6) (layers F.Cu F.Mask F.Paste) (roundrect_rratio 0.25))
  (pad 13 smd roundrect (at 4.65 -2.54) (size 2.05 0.6) (layers F.Cu F.Mask F.Paste) (roundrect_rratio 0.25))
  (pad 14 smd roundrect (at 4.65 -3.81) (size 2.05 0.6) (layers F.Cu F.Mask F.Paste) (roundrect_rratio 0.25))
  (fp_poly (pts (xy -4.7125 -4.37) (xy -4.9525 -4.706) (xy -4.4725 -4.706) (xy -4.7125 -4.37))
    (stroke (width 0.12) (type solid)) (fill solid) (layer F.SilkS))
  (fp_text user ${REFERENCE} (at 0 0) (layer F.Fab)
    (effects (font (size 1 1) (thickness 0.15)))
  )
  (model ${KICAD7_3DMODEL_DIR}/Package_SO.3dshapes/SOIC-14W_7.5x9mm_P1.27mm.wrl
    (offset (xyz 0 0 0))
    (scale (xyz 1 1 1))
    (rotate (xyz 0 0 0))
  )
)
