(footprint SOIC-4_4.55x2.6mm_P1.27mm (version 20221018) (generator kicad-footprint-generator)
  (layer F.Cu)
  (descr "SOIC, 4 Pin (https://toshiba.semicon-storage.com/info/docget.jsp?did=12884&prodName=TLP291), generated with kicad-footprint-generator ipc_gullwing_generator.py")
  (tags "SOIC SO")
  (attr smd)
  (fp_text reference REF** (at 0 -2.25) (layer F.SilkS)
    (effects (font (size 1 1) (thickness 0.15)))
  )
  (fp_text value SOIC-4_4.55x2.6mm_P1.27mm (at 0 2.25) (layer F.Fab)
    (effects (font (size 1 1) (thickness 0.15)))
  )
  (fp_line (start -4.3 -1.55) (end -4.3 1.55)
    (stroke (width 0.05) (type solid)) (layer F.CrtYd))
  (fp_line (start -4.3 1.55) (end 4.3 1.55)
    (stroke (width 0.05) (type solid)) (layer F.CrtYd))
  (fp_line (start 4.3 1.55) (end 4.3 -1.55)
    (stroke (width 0.05) (type solid)) (layer F.CrtYd))
  (fp_line (start 4.3 -1.55) (end -4.3 -1.55)
    (stroke (width 0.05) (type solid)) (layer F.CrtYd))
  (fp_line (start 0 1.41) (end 2.385 1.41)
    (stroke (width 0.12) (type solid)) (layer F.SilkS))
  (fp_line (start 2.385 1.41) (end 2.385 1.17)
    (stroke (width 0.12) (type solid)) (layer F.SilkS))
  (fp_line (start 0 1.41) (end -2.385 1.41)
    (stroke (width 0.12) (type solid)) (layer F.SilkS))
  (fp_line (start -2.385 1.41) (end -2.385 1.17)
    (stroke (width 0.12) (type solid)) (layer F.SilkS))
  (fp_line (start 0 -1.41) (end 2.385 -1.41)
    (stroke (width 0.12) (type solid)) (layer F.SilkS))
  (fp_line (start 2.385 -1.41) (end 2.385 -1.17)
    (stroke (width 0.12) (type solid)) (layer F.SilkS))
  (fp_line (start 0 -1.41) (end -2.385 -1.41)
    (stroke (width 0.12) (type solid)) (layer F.SilkS))
  (fp_line (start -2.385 -1.41) (end -2.385 -1.17)
    (stroke (width 0.12) (type solid)) (layer F.SilkS))
  (fp_line (start -1.625 -1.3) (end 2.275 -1.3)
    (stroke (width 0.1) (type solid)) (layer F.Fab))
  (fp_line (start 2.275 -1.3) (end 2.275 1.3)
    (stroke (width 0.1) (type solid)) (layer F.Fab))
  (fp_line (start 2.275 1.3) (end -2.275 1.3)
    (stroke (width 0.1) (type solid)) (layer F.Fab))
  (fp_line (start -2.275 1.3) (end -2.275 -0.65)
    (stroke (width 0.1) (type solid)) (layer F.Fab))
  (fp_line (start -2.275 -0.65) (end -1.625 -1.3)
    (stroke (width 0.1) (type solid)) (layer F.Fab))
  (pad 1 smd roundrect (at -3.25 -0.635) (size 1.6 0.55) (layers F.Cu F.Mask F.Paste) (roundrect_rratio 0.25))
  (pad 2 smd roundrect (at -3.25 0.635) (size 1.6 0.55) (layers F.Cu F.Mask F.Paste) (roundrect_rratio 0.25))
  (pad 3 smd roundrect (at 3.25 0.635) (size 1.6 0.55) (layers F.Cu F.Mask F.Paste) (roundrect_rratio 0.25))
  (pad 4 smd roundrect (at 3.25 -0.635) (size 1.6 0.55) (layers F.Cu F.Mask F.Paste) (roundrect_rratio 0.25))
  (fp_poly (pts (xy -3.1625 -1.17) (xy -3.3775 -1.471) (xy -2.9475 -1.471) (xy -3.1625 -1.17))
    (stroke (width 0.12) (type solid)) (fill solid) (layer F.SilkS))
  (fp_text user ${REFERENCE} (at 0 0) (layer F.Fab)
    (effects (font (size 1 1) (thickness 0.15)))
  )
  (model ${KICAD7_3DMODEL_DIR}/Package_SO.3dshapes/SOIC-4_4.55x2.6mm_P1.27mm.wrl
    (offset (xyz 0 0 0))
    (scale (xyz 1 1 1))
    (rotate (xyz 0 0 0))
  )
)
