(footprint SSOP-8_5.25x5.24mm_P1.27mm (version 20221018) (generator kicad-footprint-generator)
  (layer F.Cu)
  (descr "SSOP, 8 Pin (http://www.fujitsu.com/ca/en/Images/MB85RS2MT-DS501-00023-1v0-E.pdf), generated with kicad-footprint-generator ipc_gullwing_generator.py")
  (tags "SSOP SO")
  (attr smd)
  (fp_text reference REF** (at 0 -3.57) (layer F.SilkS)
    (effects (font (size 1 1) (thickness 0.15)))
  )
  (fp_text value SSOP-8_5.25x5.24mm_P1.27mm (at 0 3.57) (layer F.Fab)
    (effects (font (size 1 1) (thickness 0.15)))
  )
  (fp_line (start -4.73 -2.87) (end -4.73 2.87)
    (stroke (width 0.05) (type solid)) (layer F.CrtYd))
  (fp_line (start -4.73 2.87) (end 4.73 2.87)
    (stroke (width 0.05) (type solid)) (layer F.CrtYd))
  (fp_line (start 4.73 2.87) (end 4.73 -2.87)
    (stroke (width 0.05) (type solid)) (layer F.CrtYd))
  (fp_line (start 4.73 -2.87) (end -4.73 -2.87)
    (stroke (width 0.05) (type solid)) (layer F.CrtYd))
  (fp_line (start 0 2.73) (end 2.735 2.73)
    (stroke (width 0.12) (type solid)) (layer F.SilkS))
  (fp_line (start 2.735 2.73) (end 2.735 2.465)
    (stroke (width 0.12) (type solid)) (layer F.SilkS))
  (fp_line (start 0 2.73) (end -2.735 2.73)
    (stroke (width 0.12) (type solid)) (layer F.SilkS))
  (fp_line (start -2.735 2.73) (end -2.735 2.465)
    (stroke (width 0.12) (type solid)) (layer F.SilkS))
  (fp_line (start 0 -2.73) (end 2.735 -2.73)
    (stroke (width 0.12) (type solid)) (layer F.SilkS))
  (fp_line (start 2.735 -2.73) (end 2.735 -2.465)
    (stroke (width 0.12) (type solid)) (layer F.SilkS))
  (fp_line (start 0 -2.73) (end -2.735 -2.73)
    (stroke (width 0.12) (type solid)) (layer F.SilkS))
  (fp_line (start -2.735 -2.73) (end -2.735 -2.465)
    (stroke (width 0.12) (type solid)) (layer F.SilkS))
  (fp_line (start -1.625 -2.62) (end 2.625 -2.62)
    (stroke (width 0.1) (type solid)) (layer F.Fab))
  (fp_line (start 2.625 -2.62) (end 2.625 2.62)
    (stroke (width 0.1) (type solid)) (layer F.Fab))
  (fp_line (start 2.625 2.62) (end -2.625 2.62)
    (stroke (width 0.1) (type solid)) (layer F.Fab))
  (fp_line (start -2.625 2.62) (end -2.625 -1.62)
    (stroke (width 0.1) (type solid)) (layer F.Fab))
  (fp_line (start -2.625 -1.62) (end -1.625 -2.62)
    (stroke (width 0.1) (type solid)) (layer F.Fab))
  (pad 1 smd roundrect (at -3.6125 -1.905) (size 1.725 0.6) (layers F.Cu F.Mask F.Paste) (roundrect_rratio 0.25))
  (pad 2 smd roundrect (at -3.6125 -0.635) (size 1.725 0.6) (layers F.Cu F.Mask F.Paste) (roundrect_rratio 0.25))
  (pad 3 smd roundrect (at -3.6125 0.635) (size 1.725 0.6) (layers F.Cu F.Mask F.Paste) (roundrect_rratio 0.25))
  (pad 4 smd roundrect (at -3.6125 1.905) (size 1.725 0.6) (layers F.Cu F.Mask F.Paste) (roundrect_rratio 0.25))
  (pad 5 smd roundrect (at 3.6125 1.905) (size 1.725 0.6) (layers F.Cu F.Mask F.Paste) (roundrect_rratio 0.25))
  (pad 6 smd roundrect (at 3.6125 0.635) (size 1.725 0.6) (layers F.Cu F.Mask F.Paste) (roundrect_rratio 0.25))
  (pad 7 smd roundrect (at 3.6125 -0.635) (size 1.725 0.6) (layers F.Cu F.Mask F.Paste) (roundrect_rratio 0.25))
  (pad 8 smd roundrect (at 3.6125 -1.905) (size 1.725 0.6) (layers F.Cu F.Mask F.Paste) (roundrect_rratio 0.25))
  (fp_poly (pts (xy -3.55 -2.465) (xy -3.79 -2.801) (xy -3.31 -2.801) (xy -3.55 -2.465))
    (stroke (width 0.12) (type solid)) (fill solid) (layer F.SilkS))
  (fp_text user ${REFERENCE} (at 0 0) (layer F.Fab)
    (effects (font (size 1 1) (thickness 0.15)))
  )
  (model ${KICAD7_3DMODEL_DIR}/Package_SO.3dshapes/SSOP-8_5.25x5.24mm_P1.27mm.wrl
    (offset (xyz 0 0 0))
    (scale (xyz 1 1 1))
    (rotate (xyz 0 0 0))
  )
)
