(footprint SSOP-20_5.3x7.2mm_P0.65mm (version 20221018) (generator kicad-footprint-generator)
  (layer F.Cu)
  (descr "SSOP, 20 Pin (http://ww1.microchip.com/downloads/en/DeviceDoc/40001800C.pdf), generated with kicad-footprint-generator ipc_gullwing_generator.py")
  (tags "SSOP SO")
  (attr smd)
  (fp_text reference REF** (at 0 -4.55) (layer F.SilkS)
    (effects (font (size 1 1) (thickness 0.15)))
  )
  (fp_text value SSOP-20_5.3x7.2mm_P0.65mm (at 0 4.55) (layer F.Fab)
    (effects (font (size 1 1) (thickness 0.15)))
  )
  (fp_line (start -4.7 -3.85) (end -4.7 3.85)
    (stroke (width 0.05) (type solid)) (layer F.CrtYd))
  (fp_line (start -4.7 3.85) (end 4.7 3.85)
    (stroke (width 0.05) (type solid)) (layer F.CrtYd))
  (fp_line (start 4.7 3.85) (end 4.7 -3.85)
    (stroke (width 0.05) (type solid)) (layer F.CrtYd))
  (fp_line (start 4.7 -3.85) (end -4.7 -3.85)
    (stroke (width 0.05) (type solid)) (layer F.CrtYd))
  (fp_line (start 0 3.71) (end 2.76 3.71)
    (stroke (width 0.12) (type solid)) (layer F.SilkS))
  (fp_line (start 2.76 3.71) (end 2.76 3.435)
    (stroke (width 0.12) (type solid)) (layer F.SilkS))
  (fp_line (start 0 3.71) (end -2.76 3.71)
    (stroke (width 0.12) (type solid)) (layer F.SilkS))
  (fp_line (start -2.76 3.71) (end -2.76 3.435)
    (stroke (width 0.12) (type solid)) (layer F.SilkS))
  (fp_line (start 0 -3.71) (end 2.76 -3.71)
    (stroke (width 0.12) (type solid)) (layer F.SilkS))
  (fp_line (start 2.76 -3.71) (end 2.76 -3.435)
    (stroke (width 0.12) (type solid)) (layer F.SilkS))
  (fp_line (start 0 -3.71) (end -2.76 -3.71)
    (stroke (width 0.12) (type solid)) (layer F.SilkS))
  (fp_line (start -2.76 -3.71) (end -2.76 -3.435)
    (stroke (width 0.12) (type solid)) (layer F.SilkS))
  (fp_line (start -1.65 -3.6) (end 2.65 -3.6)
    (stroke (width 0.1) (type solid)) (layer F.Fab))
  (fp_line (start 2.65 -3.6) (end 2.65 3.6)
    (stroke (width 0.1) (type solid)) (layer F.Fab))
  (fp_line (start 2.65 3.6) (end -2.65 3.6)
    (stroke (width 0.1) (type solid)) (layer F.Fab))
  (fp_line (start -2.65 3.6) (end -2.65 -2.6)
    (stroke (width 0.1) (type solid)) (layer F.Fab))
  (fp_line (start -2.65 -2.6) (end -1.65 -3.6)
    (stroke (width 0.1) (type solid)) (layer F.Fab))
  (pad 1 smd roundrect (at -3.5 -2.925) (size 1.9 0.5) (layers F.Cu F.Mask F.Paste) (roundrect_rratio 0.25))
  (pad 2 smd roundrect (at -3.5 -2.275) (size 1.9 0.5) (layers F.Cu F.Mask F.Paste) (roundrect_rratio 0.25))
  (pad 3 smd roundrect (at -3.5 -1.625) (size 1.9 0.5) (layers F.Cu F.Mask F.Paste) (roundrect_rratio 0.25))
  (pad 4 smd roundrect (at -3.5 -0.975) (size 1.9 0.5) (layers F.Cu F.Mask F.Paste) (roundrect_rratio 0.25))
  (pad 5 smd roundrect (at -3.5 -0.325) (size 1.9 0.5) (layers F.Cu F.Mask F.Paste) (roundrect_rratio 0.25))
  (pad 6 smd roundrect (at -3.5 0.325) (size 1.9 0.5) (layers F.Cu F.Mask F.Paste) (roundrect_rratio 0.25))
  (pad 7 smd roundrect (at -3.5 0.975) (size 1.9 0.5) (layers F.Cu F.Mask F.Paste) (roundrect_rratio 0.25))
  (pad 8 smd roundrect (at -3.5 1.625) (size 1.9 0.5) (layers F.Cu F.Mask F.Paste) (roundrect_rratio 0.25))
  (pad 9 smd roundrect (at -3.5 2.275) (size 1.9 0.5) (layers F.Cu F.Mask F.Paste) (roundrect_rratio 0.25))
  (pad 10 smd roundrect (at -3.5 2.925) (size 1.9 0.5) (layers F.Cu F.Mask F.Paste) (roundrect_rratio 0.25))
  (pad 11 smd roundrect (at 3.5 2.925) (size 1.9 0.5) (layers F.Cu F.Mask F.Paste) (roundrect_rratio 0.25))
  (pad 12 smd roundrect (at 3.5 2.275) (size 1.9 0.5) (layers F.Cu F.Mask F.Paste) (roundrect_rratio 0.25))
  (pad 13 smd roundrect (at 3.5 1.625) (size 1.9 0.5) (layers F.Cu F.Mask F.Paste) (roundrect_rratio 0.25))
  (pad 14 smd roundrect (at 3.5 0.975) (size 1.9 0.5) (layers F.Cu F.Mask F.Paste) (roundrect_rratio 0.25))
  (pad 15 smd roundrect (at 3.5 0.325) (size 1.9 0.5) (layers F.Cu F.Mask F.Paste) (roundrect_rratio 0.25))
  (pad 16 smd roundrect (at 3.5 -0.325) (size 1.9 0.5) (layers F.Cu F.Mask F.Paste) (roundrect_rratio 0.25))
  (pad 17 smd roundrect (at 3.5 -0.975) (size 1.9 0.5) (layers F.Cu F.Mask F.Paste) (roundrect_rratio 0.25))
  (pad 18 smd roundrect (at 3.5 -1.625) (size 1.9 0.5) (layers F.Cu F.Mask F.Paste) (roundrect_rratio 0.25))
  (pad 19 smd roundrect (at 3.5 -2.275) (size 1.9 0.5) (layers F.Cu F.Mask F.Paste) (roundrect_rratio 0.25))
  (pad 20 smd roundrect (at 3.5 -2.925) (size 1.9 0.5) (layers F.Cu F.Mask F.Paste) (roundrect_rratio 0.25))
  (fp_poly (pts (xy -3.55 -3.435) (xy -3.74 -3.701) (xy -3.36 -3.701) (xy -3.55 -3.435))
    (stroke (width 0.12) (type solid)) (fill solid) (layer F.SilkS))
  (fp_text user ${REFERENCE} (at 0 0) (layer F.Fab)
    (effects (font (size 1 1) (thickness 0.15)))
  )
  (model ${KICAD7_3DMODEL_DIR}/Package_SO.3dshapes/SSOP-20_5.3x7.2mm_P0.65mm.wrl
    (offset (xyz 0 0 0))
    (scale (xyz 1 1 1))
    (rotate (xyz 0 0 0))
  )
)
