(footprint TSSOP-32_6.1x11mm_P0.65mm (version 20221018) (generator kicad-footprint-generator)
  (layer F.Cu)
  (descr "TSSOP, 32 Pin (JEDEC MO-153 Var DC https://www.jedec.org/document_search?search_api_views_fulltext=MO-153), generated with kicad-footprint-generator ipc_gullwing_generator.py")
  (tags "TSSOP SO")
  (attr smd)
  (fp_text reference REF** (at 0 -6.45) (layer F.SilkS)
    (effects (font (size 1 1) (thickness 0.15)))
  )
  (fp_text value TSSOP-32_6.1x11mm_P0.65mm (at 0 6.45) (layer F.Fab)
    (effects (font (size 1 1) (thickness 0.15)))
  )
  (fp_line (start -4.7 -5.75) (end -4.7 5.75)
    (stroke (width 0.05) (type solid)) (layer F.CrtYd))
  (fp_line (start -4.7 5.75) (end 4.7 5.75)
    (stroke (width 0.05) (type solid)) (layer F.CrtYd))
  (fp_line (start 4.7 5.75) (end 4.7 -5.75)
    (stroke (width 0.05) (type solid)) (layer F.CrtYd))
  (fp_line (start 4.7 -5.75) (end -4.7 -5.75)
    (stroke (width 0.05) (type solid)) (layer F.CrtYd))
  (fp_line (start 0 5.61) (end 3.16 5.61)
    (stroke (width 0.12) (type solid)) (layer F.SilkS))
  (fp_line (start 3.16 5.61) (end 3.16 5.335)
    (stroke (width 0.12) (type solid)) (layer F.SilkS))
  (fp_line (start 0 5.61) (end -3.16 5.61)
    (stroke (width 0.12) (type solid)) (layer F.SilkS))
  (fp_line (start -3.16 5.61) (end -3.16 5.335)
    (stroke (width 0.12) (type solid)) (layer F.SilkS))
  (fp_line (start 0 -5.61) (end 3.16 -5.61)
    (stroke (width 0.12) (type solid)) (layer F.SilkS))
  (fp_line (start 3.16 -5.61) (end 3.16 -5.335)
    (stroke (width 0.12) (type solid)) (layer F.SilkS))
  (fp_line (start 0 -5.61) (end -3.16 -5.61)
    (stroke (width 0.12) (type solid)) (layer F.SilkS))
  (fp_line (start -3.16 -5.61) (end -3.16 -5.335)
    (stroke (width 0.12) (type solid)) (layer F.SilkS))
  (fp_line (start -2.05 -5.5) (end 3.05 -5.5)
    (stroke (width 0.1) (type solid)) (layer F.Fab))
  (fp_line (start 3.05 -5.5) (end 3.05 5.5)
    (stroke (width 0.1) (type solid)) (layer F.Fab))
  (fp_line (start 3.05 5.5) (end -3.05 5.5)
    (stroke (width 0.1) (type solid)) (layer F.Fab))
  (fp_line (start -3.05 5.5) (end -3.05 -4.5)
    (stroke (width 0.1) (type solid)) (layer F.Fab))
  (fp_line (start -3.05 -4.5) (end -2.05 -5.5)
    (stroke (width 0.1) (type solid)) (layer F.Fab))
  (pad 1 smd roundrect (at -3.7125 -4.875) (size 1.475 0.4) (layers F.Cu F.Mask F.Paste) (roundrect_rratio 0.25))
  (pad 2 smd roundrect (at -3.7125 -4.225) (size 1.475 0.4) (layers F.Cu F.Mask F.Paste) (roundrect_rratio 0.25))
  (pad 3 smd roundrect (at -3.7125 -3.575) (size 1.475 0.4) (layers F.Cu F.Mask F.Paste) (roundrect_rratio 0.25))
  (pad 4 smd roundrect (at -3.7125 -2.925) (size 1.475 0.4) (layers F.Cu F.Mask F.Paste) (roundrect_rratio 0.25))
  (pad 5 smd roundrect (at -3.7125 -2.275) (size 1.475 0.4) (layers F.Cu F.Mask F.Paste) (roundrect_rratio 0.25))
  (pad 6 smd roundrect (at -3.7125 -1.625) (size 1.475 0.4) (layers F.Cu F.Mask F.Paste) (roundrect_rratio 0.25))
  (pad 7 smd roundrect (at -3.7125 -0.975) (size 1.475 0.4) (layers F.Cu F.Mask F.Paste) (roundrect_rratio 0.25))
  (pad 8 smd roundrect (at -3.7125 -0.325) (size 1.475 0.4) (layers F.Cu F.Mask F.Paste) (roundrect_rratio 0.25))
  (pad 9 smd roundrect (at -3.7125 0.325) (size 1.475 0.4) (layers F.Cu F.Mask F.Paste) (roundrect_rratio 0.25))
  (pad 10 smd roundrect (at -3.7125 0.975) (size 1.475 0.4) (layers F.Cu F.Mask F.Paste) (roundrect_rratio 0.25))
  (pad 11 smd roundrect (at -3.7125 1.625) (size 1.475 0.4) (layers F.Cu F.Mask F.Paste) (roundrect_rratio 0.25))
  (pad 12 smd roundrect (at -3.7125 2.275) (size 1.475 0.4) (layers F.Cu F.Mask F.Paste) (roundrect_rratio 0.25))
  (pad 13 smd roundrect (at -3.7125 2.925) (size 1.475 0.4) (layers F.Cu F.Mask F.Paste) (roundrect_rratio 0.25))
  (pad 14 smd roundrect (at -3.7125 3.575) (size 1.475 0.4) (layers F.Cu F.Mask F.Paste) (roundrect_rratio 0.25))
  (pad 15 smd roundrect (at -3.7125 4.225) (size 1.475 0.4) (layers F.Cu F.Mask F.Paste) (roundrect_rratio 0.25))
  (pad 16 smd roundrect (at -3.7125 4.875) (size 1.475 0.4) (layers F.Cu F.Mask F.Paste) (roundrect_rratio 0.25))
  (pad 17 smd roundrect (at 3.7125 4.875) (size 1.475 0.4) (layers F.Cu F.Mask F.Paste) (roundrect_rratio 0.25))
  (pad 18 smd roundrect (at 3.7125 4.225) (size 1.475 0.4) (layers F.Cu F.Mask F.Paste) (roundrect_rratio 0.25))
  (pad 19 smd roundrect (at 3.7125 3.575) (size 1.475 0.4) (layers F.Cu F.Mask F.Paste) (roundrect_rratio 0.25))
  (pad 20 smd roundrect (at 3.7125 2.925) (size 1.475 0.4) (layers F.Cu F.Mask F.Paste) (roundrect_rratio 0.25))
  (pad 21 smd roundrect (at 3.7125 2.275) (size 1.475 0.4) (layers F.Cu F.Mask F.Paste) (roundrect_rratio 0.25))
  (pad 22 smd roundrect (at 3.7125 1.625) (size 1.475 0.4) (layers F.Cu F.Mask F.Paste) (roundrect_rratio 0.25))
  (pad 23 smd roundrect (at 3.7125 0.975) (size 1.475 0.4) (layers F.Cu F.Mask F.Paste) (roundrect_rratio 0.25))
  (pad 24 smd roundrect (at 3.7125 0.325) (size 1.475 0.4) (layers F.Cu F.Mask F.Paste) (roundrect_rratio 0.25))
  (pad 25 smd roundrect (at 3.7125 -0.325) (size 1.475 0.4) (layers F.Cu F.Mask F.Paste) (roundrect_rratio 0.25))
  (pad 26 smd roundrect (at 3.7125 -0.975) (size 1.475 0.4) (layers F.Cu F.Mask F.Paste) (roundrect_rratio 0.25))
  (pad 27 smd roundrect (at 3.7125 -1.625) (size 1.475 0.4) (layers F.Cu F.Mask F.Paste) (roundrect_rratio 0.25))
  (pad 28 smd roundrect (at 3.7125 -2.275) (size 1.475 0.4) (layers F.Cu F.Mask F.Paste) (roundrect_rratio 0.25))
  (pad 29 smd roundrect (at 3.7125 -2.925) (size 1.475 0.4) (layers F.Cu F.Mask F.Paste) (roundrect_rratio 0.25))
  (pad 30 smd roundrect (at 3.7125 -3.575) (size 1.475 0.4) (layers F.Cu F.Mask F.Paste) (roundrect_rratio 0.25))
  (pad 31 smd roundrect (at 3.7125 -4.225) (size 1.475 0.4) (layers F.Cu F.Mask F.Paste) (roundrect_rratio 0.25))
  (pad 32 smd roundrect (at 3.7125 -4.875) (size 1.475 0.4) (layers F.Cu F.Mask F.Paste) (roundrect_rratio 0.25))
  (fp_poly (pts (xy -3.75 -5.335) (xy -3.93 -5.587) (xy -3.57 -5.587) (xy -3.75 -5.335))
    (stroke (width 0.12) (type solid)) (fill solid) (layer F.SilkS))
  (fp_text user ${REFERENCE} (at 0 0) (layer F.Fab)
    (effects (font (size 1 1) (thickness 0.15)))
  )
  (model ${KICAD7_3DMODEL_DIR}/Package_SO.3dshapes/TSSOP-32_6.1x11mm_P0.65mm.wrl
    (offset (xyz 0 0 0))
    (scale (xyz 1 1 1))
    (rotate (xyz 0 0 0))
  )
)
