(footprint LQFP-32_7x7mm_P0.8mm (version 20221018) (generator kicad-footprint-generator)
  (layer F.Cu)
  (descr "LQFP, 32 Pin (https://www.nxp.com/docs/en/package-information/SOT358-1.pdf), generated with kicad-footprint-generator ipc_gullwing_generator.py")
  (tags "LQFP QFP")
  (attr smd)
  (fp_text reference REF** (at 0 -5.88) (layer F.SilkS)
    (effects (font (size 1 1) (thickness 0.15)))
  )
  (fp_text value LQFP-32_7x7mm_P0.8mm (at 0 5.88) (layer F.Fab)
    (effects (font (size 1 1) (thickness 0.15)))
  )
  (fp_line (start 0 -5.18) (end -3.3 -5.18)
    (stroke (width 0.05) (type solid)) (layer F.CrtYd))
  (fp_line (start -3.3 -5.18) (end -3.3 -3.75)
    (stroke (width 0.05) (type solid)) (layer F.CrtYd))
  (fp_line (start -3.3 -3.75) (end -3.75 -3.75)
    (stroke (width 0.05) (type solid)) (layer F.CrtYd))
  (fp_line (start -3.75 -3.75) (end -3.75 -3.3)
    (stroke (width 0.05) (type solid)) (layer F.CrtYd))
  (fp_line (start -3.75 -3.3) (end -5.18 -3.3)
    (stroke (width 0.05) (type solid)) (layer F.CrtYd))
  (fp_line (start -5.18 -3.3) (end -5.18 0)
    (stroke (width 0.05) (type solid)) (layer F.CrtYd))
  (fp_line (start 0 -5.18) (end 3.3 -5.18)
    (stroke (width 0.05) (type solid)) (layer F.CrtYd))
  (fp_line (start 3.3 -5.18) (end 3.3 -3.75)
    (stroke (width 0.05) (type solid)) (layer F.CrtYd))
  (fp_line (start 3.3 -3.75) (end 3.75 -3.75)
    (stroke (width 0.05) (type solid)) (layer F.CrtYd))
  (fp_line (start 3.75 -3.75) (end 3.75 -3.3)
    (stroke (width 0.05) (type solid)) (layer F.CrtYd))
  (fp_line (start 3.75 -3.3) (end 5.18 -3.3)
    (stroke (width 0.05) (type solid)) (layer F.CrtYd))
  (fp_line (start 5.18 -3.3) (end 5.18 0)
    (stroke (width 0.05) (type solid)) (layer F.CrtYd))
  (fp_line (start 0 5.18) (end -3.3 5.18)
    (stroke (width 0.05) (type solid)) (layer F.CrtYd))
  (fp_line (start -3.3 5.18) (end -3.3 3.75)
    (stroke (width 0.05) (type solid)) (layer F.CrtYd))
  (fp_line (start -3.3 3.75) (end -3.75 3.75)
    (stroke (width 0.05) (type solid)) (layer F.CrtYd))
  (fp_line (start -3.75 3.75) (end -3.75 3.3)
    (stroke (width 0.05) (type solid)) (layer F.CrtYd))
  (fp_line (start -3.75 3.3) (end -5.18 3.3)
    (stroke (width 0.05) (type solid)) (layer F.CrtYd))
  (fp_line (start -5.18 3.3) (end -5.18 0)
    (stroke (width 0.05) (type solid)) (layer F.CrtYd))
  (fp_line (start 0 5.18) (end 3.3 5.18)
    (stroke (width 0.05) (type solid)) (layer F.CrtYd))
  (fp_line (start 3.3 5.18) (end 3.3 3.75)
    (stroke (width 0.05) (type solid)) (layer F.CrtYd))
  (fp_line (start 3.3 3.75) (end 3.75 3.75)
    (stroke (width 0.05) (type solid)) (layer F.CrtYd))
  (fp_line (start 3.75 3.75) (end 3.75 3.3)
    (stroke (width 0.05) (type solid)) (layer F.CrtYd))
  (fp_line (start 3.75 3.3) (end 5.18 3.3)
    (stroke (width 0.05) (type solid)) (layer F.CrtYd))
  (fp_line (start 5.18 3.3) (end 5.18 0)
    (stroke (width 0.05) (type solid)) (layer F.CrtYd))
  (fp_line (start 3.31 3.61) (end 3.61 3.61)
    (stroke (width 0.12) (type solid)) (layer F.SilkS))
  (fp_line (start 3.61 3.61) (end 3.61 3.31)
    (stroke (width 0.12) (type solid)) (layer F.SilkS))
  (fp_line (start -3.31 3.61) (end -3.61 3.61)
    (stroke (width 0.12) (type solid)) (layer F.SilkS))
  (fp_line (start -3.61 3.61) (end -3.61 3.31)
    (stroke (width 0.12) (type solid)) (layer F.SilkS))
  (fp_line (start 3.31 -3.61) (end 3.61 -3.61)
    (stroke (width 0.12) (type solid)) (layer F.SilkS))
  (fp_line (start 3.61 -3.61) (end 3.61 -3.31)
    (stroke (width 0.12) (type solid)) (layer F.SilkS))
  (fp_line (start -3.31 -3.61) (end -3.61 -3.61)
    (stroke (width 0.12) (type solid)) (layer F.SilkS))
  (fp_line (start -3.61 -3.61) (end -3.61 -3.31)
    (stroke (width 0.12) (type solid)) (layer F.SilkS))
  (fp_line (start -2.5 -3.5) (end 3.5 -3.5)
    (stroke (width 0.1) (type solid)) (layer F.Fab))
  (fp_line (start 3.5 -3.5) (end 3.5 3.5)
    (stroke (width 0.1) (type solid)) (layer F.Fab))
  (fp_line (start 3.5 3.5) (end -3.5 3.5)
    (stroke (width 0.1) (type solid)) (layer F.Fab))
  (fp_line (start -3.5 3.5) (end -3.5 -2.5)
    (stroke (width 0.1) (type solid)) (layer F.Fab))
  (fp_line (start -3.5 -2.5) (end -2.5 -3.5)
    (stroke (width 0.1) (type solid)) (layer F.Fab))
  (pad 1 smd roundrect (at -4.175 -2.8) (size 1.5 0.5) (layers F.Cu F.Mask F.Paste) (roundrect_rratio 0.25))
  (pad 2 smd roundrect (at -4.175 -2) (size 1.5 0.5) (layers F.Cu F.Mask F.Paste) (roundrect_rratio 0.25))
  (pad 3 smd roundrect (at -4.175 -1.2) (size 1.5 0.5) (layers F.Cu F.Mask F.Paste) (roundrect_rratio 0.25))
  (pad 4 smd roundrect (at -4.175 -0.4) (size 1.5 0.5) (layers F.Cu F.Mask F.Paste) (roundrect_rratio 0.25))
  (pad 5 smd roundrect (at -4.175 0.4) (size 1.5 0.5) (layers F.Cu F.Mask F.Paste) (roundrect_rratio 0.25))
  (pad 6 smd roundrect (at -4.175 1.2) (size 1.5 0.5) (layers F.Cu F.Mask F.Paste) (roundrect_rratio 0.25))
  (pad 7 smd roundrect (at -4.175 2) (size 1.5 0.5) (layers F.Cu F.Mask F.Paste) (roundrect_rratio 0.25))
  (pad 8 smd roundrect (at -4.175 2.8) (size 1.5 0.5) (layers F.Cu F.Mask F.Paste) (roundrect_rratio 0.25))
  (pad 9 smd roundrect (at -2.8 4.175) (size 0.5 1.5) (layers F.Cu F.Mask F.Paste) (roundrect_rratio 0.25))
  (pad 10 smd roundrect (at -2 4.175) (size 0.5 1.5) (layers F.Cu F.Mask F.Paste) (roundrect_rratio 0.25))
  (pad 11 smd roundrect (at -1.2 4.175) (size 0.5 1.5) (layers F.Cu F.Mask F.Paste) (roundrect_rratio 0.25))
  (pad 12 smd roundrect (at -0.4 4.175) (size 0.5 1.5) (layers F.Cu F.Mask F.Paste) (roundrect_rratio 0.25))
  (pad 13 smd roundrect (at 0.4 4.175) (size 0.5 1.5) (layers F.Cu F.Mask F.Paste) (roundrect_rratio 0.25))
  (pad 14 smd roundrect (at 1.2 4.175) (size 0.5 1.5) (layers F.Cu F.Mask F.Paste) (roundrect_rratio 0.25))
  (pad 15 smd roundrect (at 2 4.175) (size 0.5 1.5) (layers F.Cu F.Mask F.Paste) (roundrect_rratio 0.25))
  (pad 16 smd roundrect (at 2.8 4.175) (size 0.5 1.5) (layers F.Cu F.Mask F.Paste) (roundrect_rratio 0.25))
  (pad 17 smd roundrect (at 4.175 2.8) (size 1.5 0.5) (layers F.Cu F.Mask F.Paste) (roundrect_rratio 0.25))
  (pad 18 smd roundrect (at 4.175 2) (size 1.5 0.5) (layers F.Cu F.Mask F.Paste) (roundrect_rratio 0.25))
  (pad 19 smd roundrect (at 4.175 1.2) (size 1.5 0.5) (layers F.Cu F.Mask F.Paste) (roundrect_rratio 0.25))
  (pad 20 smd roundrect (at 4.175 0.4) (size 1.5 0.5) (layers F.Cu F.Mask F.Paste) (roundrect_rratio 0.25))
  (pad 21 smd roundrect (at 4.175 -0.4) (size 1.5 0.5) (layers F.Cu F.Mask F.Paste) (roundrect_rratio 0.25))
  (pad 22 smd roundrect (at 4.175 -1.2) (size 1.5 0.5) (layers F.Cu F.Mask F.Paste) (roundrect_rratio 0.25))
  (pad 23 smd roundrect (at 4.175 -2) (size 1.5 0.5) (layers F.Cu F.Mask F.Paste) (roundrect_rratio 0.25))
  (pad 24 smd roundrect (at 4.175 -2.8) (size 1.5 0.5) (layers F.Cu F.Mask F.Paste) (roundrect_rratio 0.25))
  (pad 25 smd roundrect (at 2.8 -4.175) (size 0.5 1.5) (layers F.Cu F.Mask F.Paste) (roundrect_rratio 0.25))
  (pad 26 smd roundrect (at 2 -4.175) (size 0.5 1.5) (layers F.Cu F.Mask F.Paste) (roundrect_rratio 0.25))
  (pad 27 smd roundrect (at 1.2 -4.175) (size 0.5 1.5) (layers F.Cu F.Mask F.Paste) (roundrect_rratio 0.25))
  (pad 28 smd roundrect (at 0.4 -4.175) (size 0.5 1.5) (layers F.Cu F.Mask F.Paste) (roundrect_rratio 0.25))
  (pad 29 smd roundrect (at -0.4 -4.175) (size 0.5 1.5) (layers F.Cu F.Mask F.Paste) (roundrect_rratio 0.25))
  (pad 30 smd roundrect (at -1.2 -4.175) (size 0.5 1.5) (layers F.Cu F.Mask F.Paste) (roundrect_rratio 0.25))
  (pad 31 smd roundrect (at -2 -4.175) (size 0.5 1.5) (layers F.Cu F.Mask F.Paste) (roundrect_rratio 0.25))
  (pad 32 smd roundrect (at -2.8 -4.175) (size 0.5 1.5) (layers F.Cu F.Mask F.Paste) (roundrect_rratio 0.25))
  (fp_poly (pts (xy -4.2125 -3.31) (xy -4.4595 -3.6558) (xy -3.9655 -3.6558) (xy -4.2125 -3.31))
    (stroke (width 0.12) (type solid)) (fill solid) (layer F.SilkS))
  (fp_text user ${REFERENCE} (at 0 0) (layer F.Fab)
    (effects (font (size 1 1) (thickness 0.15)))
  )
  (model ${KICAD7_3DMODEL_DIR}/Package_QFP.3dshapes/LQFP-32_7x7mm_P0.8mm.wrl
    (offset (xyz 0 0 0))
    (scale (xyz 1 1 1))
    (rotate (xyz 0 0 0))
  )
)
