(footprint LQFP-64-1EP_10x10mm_P0.5mm_EP5x5mm_ThermalVias (version 20221018) (generator kicad-footprint-generator)
  (layer F.Cu)
  (descr "LQFP, 64 Pin (https://www.analog.com/media/en/technical-documentation/data-sheets/adv7611.pdf), generated with kicad-footprint-generator ipc_gullwing_generator.py")
  (tags "LQFP QFP")
  (attr smd)
  (fp_text reference REF** (at 0 -7.4) (layer F.SilkS)
    (effects (font (size 1 1) (thickness 0.15)))
  )
  (fp_text value LQFP-64-1EP_10x10mm_P0.5mm_EP5x5mm_ThermalVias (at 0 7.4) (layer F.Fab)
    (effects (font (size 1 1) (thickness 0.15)))
  )
  (fp_line (start 0 -6.7) (end -4.15 -6.7)
    (stroke (width 0.05) (type solid)) (layer F.CrtYd))
  (fp_line (start -4.15 -6.7) (end -4.15 -5.25)
    (stroke (width 0.05) (type solid)) (layer F.CrtYd))
  (fp_line (start -4.15 -5.25) (end -5.25 -5.25)
    (stroke (width 0.05) (type solid)) (layer F.CrtYd))
  (fp_line (start -5.25 -5.25) (end -5.25 -4.15)
    (stroke (width 0.05) (type solid)) (layer F.CrtYd))
  (fp_line (start -5.25 -4.15) (end -6.7 -4.15)
    (stroke (width 0.05) (type solid)) (layer F.CrtYd))
  (fp_line (start -6.7 -4.15) (end -6.7 0)
    (stroke (width 0.05) (type solid)) (layer F.CrtYd))
  (fp_line (start 0 -6.7) (end 4.15 -6.7)
    (stroke (width 0.05) (type solid)) (layer F.CrtYd))
  (fp_line (start 4.15 -6.7) (end 4.15 -5.25)
    (stroke (width 0.05) (type solid)) (layer F.CrtYd))
  (fp_line (start 4.15 -5.25) (end 5.25 -5.25)
    (stroke (width 0.05) (type solid)) (layer F.CrtYd))
  (fp_line (start 5.25 -5.25) (end 5.25 -4.15)
    (stroke (width 0.05) (type solid)) (layer F.CrtYd))
  (fp_line (start 5.25 -4.15) (end 6.7 -4.15)
    (stroke (width 0.05) (type solid)) (layer F.CrtYd))
  (fp_line (start 6.7 -4.15) (end 6.7 0)
    (stroke (width 0.05) (type solid)) (layer F.CrtYd))
  (fp_line (start 0 6.7) (end -4.15 6.7)
    (stroke (width 0.05) (type solid)) (layer F.CrtYd))
  (fp_line (start -4.15 6.7) (end -4.15 5.25)
    (stroke (width 0.05) (type solid)) (layer F.CrtYd))
  (fp_line (start -4.15 5.25) (end -5.25 5.25)
    (stroke (width 0.05) (type solid)) (layer F.CrtYd))
  (fp_line (start -5.25 5.25) (end -5.25 4.15)
    (stroke (width 0.05) (type solid)) (layer F.CrtYd))
  (fp_line (start -5.25 4.15) (end -6.7 4.15)
    (stroke (width 0.05) (type solid)) (layer F.CrtYd))
  (fp_line (start -6.7 4.15) (end -6.7 0)
    (stroke (width 0.05) (type solid)) (layer F.CrtYd))
  (fp_line (start 0 6.7) (end 4.15 6.7)
    (stroke (width 0.05) (type solid)) (layer F.CrtYd))
  (fp_line (start 4.15 6.7) (end 4.15 5.25)
    (stroke (width 0.05) (type solid)) (layer F.CrtYd))
  (fp_line (start 4.15 5.25) (end 5.25 5.25)
    (stroke (width 0.05) (type solid)) (layer F.CrtYd))
  (fp_line (start 5.25 5.25) (end 5.25 4.15)
    (stroke (width 0.05) (type solid)) (layer F.CrtYd))
  (fp_line (start 5.25 4.15) (end 6.7 4.15)
    (stroke (width 0.05) (type solid)) (layer F.CrtYd))
  (fp_line (start 6.7 4.15) (end 6.7 0)
    (stroke (width 0.05) (type solid)) (layer F.CrtYd))
  (fp_line (start 4.16 5.11) (end 5.11 5.11)
    (stroke (width 0.12) (type solid)) (layer F.SilkS))
  (fp_line (start 5.11 5.11) (end 5.11 4.16)
    (stroke (width 0.12) (type solid)) (layer F.SilkS))
  (fp_line (start -4.16 5.11) (end -5.11 5.11)
    (stroke (width 0.12) (type solid)) (layer F.SilkS))
  (fp_line (start -5.11 5.11) (end -5.11 4.16)
    (stroke (width 0.12) (type solid)) (layer F.SilkS))
  (fp_line (start 4.16 -5.11) (end 5.11 -5.11)
    (stroke (width 0.12) (type solid)) (layer F.SilkS))
  (fp_line (start 5.11 -5.11) (end 5.11 -4.16)
    (stroke (width 0.12) (type solid)) (layer F.SilkS))
  (fp_line (start -4.16 -5.11) (end -5.11 -5.11)
    (stroke (width 0.12) (type solid)) (layer F.SilkS))
  (fp_line (start -5.11 -5.11) (end -5.11 -4.16)
    (stroke (width 0.12) (type solid)) (layer F.SilkS))
  (fp_line (start -4 -5) (end 5 -5)
    (stroke (width 0.1) (type solid)) (layer F.Fab))
  (fp_line (start 5 -5) (end 5 5)
    (stroke (width 0.1) (type solid)) (layer F.Fab))
  (fp_line (start 5 5) (end -5 5)
    (stroke (width 0.1) (type solid)) (layer F.Fab))
  (fp_line (start -5 5) (end -5 -4)
    (stroke (width 0.1) (type solid)) (layer F.Fab))
  (fp_line (start -5 -4) (end -4 -5)
    (stroke (width 0.1) (type solid)) (layer F.Fab))
  (pad 1 smd roundrect (at -5.675 -3.75) (size 1.55 0.3) (layers F.Cu F.Mask F.Paste) (roundrect_rratio 0.25))
  (pad 2 smd roundrect (at -5.675 -3.25) (size 1.55 0.3) (layers F.Cu F.Mask F.Paste) (roundrect_rratio 0.25))
  (pad 3 smd roundrect (at -5.675 -2.75) (size 1.55 0.3) (layers F.Cu F.Mask F.Paste) (roundrect_rratio 0.25))
  (pad 4 smd roundrect (at -5.675 -2.25) (size 1.55 0.3) (layers F.Cu F.Mask F.Paste) (roundrect_rratio 0.25))
  (pad 5 smd roundrect (at -5.675 -1.75) (size 1.55 0.3) (layers F.Cu F.Mask F.Paste) (roundrect_rratio 0.25))
  (pad 6 smd roundrect (at -5.675 -1.25) (size 1.55 0.3) (layers F.Cu F.Mask F.Paste) (roundrect_rratio 0.25))
  (pad 7 smd roundrect (at -5.675 -0.75) (size 1.55 0.3) (layers F.Cu F.Mask F.Paste) (roundrect_rratio 0.25))
  (pad 8 smd roundrect (at -5.675 -0.25) (size 1.55 0.3) (layers F.Cu F.Mask F.Paste) (roundrect_rratio 0.25))
  (pad 9 smd roundrect (at -5.675 0.25) (size 1.55 0.3) (layers F.Cu F.Mask F.Paste) (roundrect_rratio 0.25))
  (pad 10 smd roundrect (at -5.675 0.75) (size 1.55 0.3) (layers F.Cu F.Mask F.Paste) (roundrect_rratio 0.25))
  (pad 11 smd roundrect (at -5.675 1.25) (size 1.55 0.3) (layers F.Cu F.Mask F.Paste) (roundrect_rratio 0.25))
  (pad 12 smd roundrect (at -5.675 1.75) (size 1.55 0.3) (layers F.Cu F.Mask F.Paste) (roundrect_rratio 0.25))
  (pad 13 smd roundrect (at -5.675 2.25) (size 1.55 0.3) (layers F.Cu F.Mask F.Paste) (roundrect_rratio 0.25))
  (pad 14 smd roundrect (at -5.675 2.75) (size 1.55 0.3) (layers F.Cu F.Mask F.Paste) (roundrect_rratio 0.25))
  (pad 15 smd roundrect (at -5.675 3.25) (size 1.55 0.3) (layers F.Cu F.Mask F.Paste) (roundrect_rratio 0.25))
  (pad 16 smd roundrect (at -5.675 3.75) (size 1.55 0.3) (layers F.Cu F.Mask F.Paste) (roundrect_rratio 0.25))
  (pad 17 smd roundrect (at -3.75 5.675) (size 0.3 1.55) (layers F.Cu F.Mask F.Paste) (roundrect_rratio 0.25))
  (pad 18 smd roundrect (at -3.25 5.675) (size 0.3 1.55) (layers F.Cu F.Mask F.Paste) (roundrect_rratio 0.25))
  (pad 19 smd roundrect (at -2.75 5.675) (size 0.3 1.55) (layers F.Cu F.Mask F.Paste) (roundrect_rratio 0.25))
  (pad 20 smd roundrect (at -2.25 5.675) (size 0.3 1.55) (layers F.Cu F.Mask F.Paste) (roundrect_rratio 0.25))
  (pad 21 smd roundrect (at -1.75 5.675) (size 0.3 1.55) (layers F.Cu F.Mask F.Paste) (roundrect_rratio 0.25))
  (pad 22 smd roundrect (at -1.25 5.675) (size 0.3 1.55) (layers F.Cu F.Mask F.Paste) (roundrect_rratio 0.25))
  (pad 23 smd roundrect (at -0.75 5.675) (size 0.3 1.55) (layers F.Cu F.Mask F.Paste) (roundrect_rratio 0.25))
  (pad 24 smd roundrect (at -0.25 5.675) (size 0.3 1.55) (layers F.Cu F.Mask F.Paste) (roundrect_rratio 0.25))
  (pad 25 smd roundrect (at 0.25 5.675) (size 0.3 1.55) (layers F.Cu F.Mask F.Paste) (roundrect_rratio 0.25))
  (pad 26 smd roundrect (at 0.75 5.675) (size 0.3 1.55) (layers F.Cu F.Mask F.Paste) (roundrect_rratio 0.25))
  (pad 27 smd roundrect (at 1.25 5.675) (size 0.3 1.55) (layers F.Cu F.Mask F.Paste) (roundrect_rratio 0.25))
  (pad 28 smd roundrect (at 1.75 5.675) (size 0.3 1.55) (layers F.Cu F.Mask F.Paste) (roundrect_rratio 0.25))
  (pad 29 smd roundrect (at 2.25 5.675) (size 0.3 1.55) (layers F.Cu F.Mask F.Paste) (roundrect_rratio 0.25))
  (pad 30 smd roundrect (at 2.75 5.675) (size 0.3 1.55) (layers F.Cu F.Mask F.Paste) (roundrect_rratio 0.25))
  (pad 31 smd roundrect (at 3.25 5.675) (size 0.3 1.55) (layers F.Cu F.Mask F.Paste) (roundrect_rratio 0.25))
  (pad 32 smd roundrect (at 3.75 5.675) (size 0.3 1.55) (layers F.Cu F.Mask F.Paste) (roundrect_rratio 0.25))
  (pad 33 smd roundrect (at 5.675 3.75) (size 1.55 0.3) (layers F.Cu F.Mask F.Paste) (roundrect_rratio 0.25))
  (pad 34 smd roundrect (at 5.675 3.25) (size 1.55 0.3) (layers F.Cu F.Mask F.Paste) (roundrect_rratio 0.25))
  (pad 35 smd roundrect (at 5.675 2.75) (size 1.55 0.3) (layers F.Cu F.Mask F.Paste) (roundrect_rratio 0.25))
  (pad 36 smd roundrect (at 5.675 2.25) (size 1.55 0.3) (layers F.Cu F.Mask F.Paste) (roundrect_rratio 0.25))
  (pad 37 smd roundrect (at 5.675 1.75) (size 1.55 0.3) (layers F.Cu F.Mask F.Paste) (roundrect_rratio 0.25))
  (pad 38 smd roundrect (at 5.675 1.25) (size 1.55 0.3) (layers F.Cu F.Mask F.Paste) (roundrect_rratio 0.25))
  (pad 39 smd roundrect (at 5.675 0.75) (size 1.55 0.3) (layers F.Cu F.Mask F.Paste) (roundrect_rratio 0.25))
  (pad 40 smd roundrect (at 5.675 0.25) (size 1.55 0.3) (layers F.Cu F.Mask F.Paste) (roundrect_rratio 0.25))
  (pad 41 smd roundrect (at 5.675 -0.25) (size 1.55 0.3) (layers F.Cu F.Mask F.Paste) (roundrect_rratio 0.25))
  (pad 42 smd roundrect (at 5.675 -0.75) (size 1.55 0.3) (layers F.Cu F.Mask F.Paste) (roundrect_rratio 0.25))
  (pad 43 smd roundrect (at 5.675 -1.25) (size 1.55 0.3) (layers F.Cu F.Mask F.Paste) (roundrect_rratio 0.25))
  (pad 44 smd roundrect (at 5.675 -1.75) (size 1.55 0.3) (layers F.Cu F.Mask F.Paste) (roundrect_rratio 0.25))
  (pad 45 smd roundrect (at 5.675 -2.25) (size 1.55 0.3) (layers F.Cu F.Mask F.Paste) (roundrect_rratio 0.25))
  (pad 46 smd roundrect (at 5.675 -2.75) (size 1.55 0.3) (layers F.Cu F.Mask F.Paste) (roundrect_rratio 0.25))
  (pad 47 smd roundrect (at 5.675 -3.25) (size 1.55 0.3) (layers F.Cu F.Mask F.Paste) (roundrect_rratio 0.25))
  (pad 48 smd roundrect (at 5.675 -3.75) (size 1.55 0.3) (layers F.Cu F.Mask F.Paste) (roundrect_rratio 0.25))
  (pad 49 smd roundrect (at 3.75 -5.675) (size 0.3 1.55) (layers F.Cu F.Mask F.Paste) (roundrect_rratio 0.25))
  (pad 50 smd roundrect (at 3.25 -5.675) (size 0.3 1.55) (layers F.Cu F.Mask F.Paste) (roundrect_rratio 0.25))
  (pad 51 smd roundrect (at 2.75 -5.675) (size 0.3 1.55) (layers F.Cu F.Mask F.Paste) (roundrect_rratio 0.25))
  (pad 52 smd roundrect (at 2.25 -5.675) (size 0.3 1.55) (layers F.Cu F.Mask F.Paste) (roundrect_rratio 0.25))
  (pad 53 smd roundrect (at 1.75 -5.675) (size 0.3 1.55) (layers F.Cu F.Mask F.Paste) (roundrect_rratio 0.25))
  (pad 54 smd roundrect (at 1.25 -5.675) (size 0.3 1.55) (layers F.Cu F.Mask F.Paste) (roundrect_rratio 0.25))
  (pad 55 smd roundrect (at 0.75 -5.675) (size 0.3 1.55) (layers F.Cu F.Mask F.Paste) (roundrect_rratio 0.25))
  (pad 56 smd roundrect (at 0.25 -5.675) (size 0.3 1.55) (layers F.Cu F.Mask F.Paste) (roundrect_rratio 0.25))
  (pad 57 smd roundrect (at -0.25 -5.675) (size 0.3 1.55) (layers F.Cu F.Mask F.Paste) (roundrect_rratio 0.25))
  (pad 58 smd roundrect (at -0.75 -5.675) (size 0.3 1.55) (layers F.Cu F.Mask F.Paste) (roundrect_rratio 0.25))
  (pad 59 smd roundrect (at -1.25 -5.675) (size 0.3 1.55) (layers F.Cu F.Mask F.Paste) (roundrect_rratio 0.25))
  (pad 60 smd roundrect (at -1.75 -5.675) (size 0.3 1.55) (layers F.Cu F.Mask F.Paste) (roundrect_rratio 0.25))
  (pad 61 smd roundrect (at -2.25 -5.675) (size 0.3 1.55) (layers F.Cu F.Mask F.Paste) (roundrect_rratio 0.25))
  (pad 62 smd roundrect (at -2.75 -5.675) (size 0.3 1.55) (layers F.Cu F.Mask F.Paste) (roundrect_rratio 0.25))
  (pad 63 smd roundrect (at -3.25 -5.675) (size 0.3 1.55) (layers F.Cu F.Mask F.Paste) (roundrect_rratio 0.25))
  (pad 64 smd roundrect (at -3.75 -5.675) (size 0.3 1.55) (layers F.Cu F.Mask F.Paste) (roundrect_rratio 0.25))
  (pad 65 smd rect (at 0 0) (size 5 5) (property pad_prop_heatsink) (layers F.Cu F.Mask)
    (zone_connect 2))
  (pad 65 thru_hole circle (at -1.8 -1.8) (size 0.5 0.5) (drill 0.2) (property pad_prop_heatsink) (layers *.Cu))
  (pad 65 thru_hole circle (at -0.6 -1.8) (size 0.5 0.5) (drill 0.2) (property pad_prop_heatsink) (layers *.Cu))
  (pad 65 thru_hole circle (at 0.6 -1.8) (size 0.5 0.5) (drill 0.2) (property pad_prop_heatsink) (layers *.Cu))
  (pad 65 thru_hole circle (at 1.8 -1.8) (size 0.5 0.5) (drill 0.2) (property pad_prop_heatsink) (layers *.Cu))
  (pad 65 thru_hole circle (at -1.8 -0.6) (size 0.5 0.5) (drill 0.2) (property pad_prop_heatsink) (layers *.Cu))
  (pad 65 thru_hole circle (at -0.6 -0.6) (size 0.5 0.5) (drill 0.2) (property pad_prop_heatsink) (layers *.Cu))
  (pad 65 thru_hole circle (at 0.6 -0.6) (size 0.5 0.5) (drill 0.2) (property pad_prop_heatsink) (layers *.Cu))
  (pad 65 thru_hole circle (at 1.8 -0.6) (size 0.5 0.5) (drill 0.2) (property pad_prop_heatsink) (layers *.Cu))
  (pad 65 thru_hole circle (at -1.8 0.6) (size 0.5 0.5) (drill 0.2) (property pad_prop_heatsink) (layers *.Cu))
  (pad 65 thru_hole circle (at -0.6 0.6) (size 0.5 0.5) (drill 0.2) (property pad_prop_heatsink) (layers *.Cu))
  (pad 65 thru_hole circle (at 0.6 0.6) (size 0.5 0.5) (drill 0.2) (property pad_prop_heatsink) (layers *.Cu))
  (pad 65 thru_hole circle (at 1.8 0.6) (size 0.5 0.5) (drill 0.2) (property pad_prop_heatsink) (layers *.Cu))
  (pad 65 thru_hole circle (at -1.8 1.8) (size 0.5 0.5) (drill 0.2) (property pad_prop_heatsink) (layers *.Cu))
  (pad 65 thru_hole circle (at -0.6 1.8) (size 0.5 0.5) (drill 0.2) (property pad_prop_heatsink) (layers *.Cu))
  (pad 65 thru_hole circle (at 0.6 1.8) (size 0.5 0.5) (drill 0.2) (property pad_prop_heatsink) (layers *.Cu))
  (pad 65 thru_hole circle (at 1.8 1.8) (size 0.5 0.5) (drill 0.2) (property pad_prop_heatsink) (layers *.Cu))
  (pad 65 smd rect (at 0 0) (size 4.1 4.1) (property pad_prop_heatsink) (layers B.Cu)
    (zone_connect 2))
  (pad "" smd roundrect (at -1.2 -1.2) (size 0.967471 0.967471) (layers F.Paste) (roundrect_rratio 0.25))
  (pad "" smd roundrect (at -1.2 0) (size 0.967471 0.967471) (layers F.Paste) (roundrect_rratio 0.25))
  (pad "" smd roundrect (at -1.2 1.2) (size 0.967471 0.967471) (layers F.Paste) (roundrect_rratio 0.25))
  (pad "" smd roundrect (at 0 -1.2) (size 0.967471 0.967471) (layers F.Paste) (roundrect_rratio 0.25))
  (pad "" smd roundrect (at 0 0) (size 0.967471 0.967471) (layers F.Paste) (roundrect_rratio 0.25))
  (pad "" smd roundrect (at 0 1.2) (size 0.967471 0.967471) (layers F.Paste) (roundrect_rratio 0.25))
  (pad "" smd roundrect (at 1.2 -1.2) (size 0.967471 0.967471) (layers F.Paste) (roundrect_rratio 0.25))
  (pad "" smd roundrect (at 1.2 0) (size 0.967471 0.967471) (layers F.Paste) (roundrect_rratio 0.25))
  (pad "" smd roundrect (at 1.2 1.2) (size 0.967471 0.967471) (layers F.Paste) (roundrect_rratio 0.25))
  (pad "" smd custom (at -2.15 -1.2) (size 0.494526 0.494526) (layers F.Paste)
    (options (clearance outline) (anchor circle))
    (primitives
      (gr_poly (pts
         (xy -0.212347 -0.413904) (xy 0.154497 -0.413904) (xy 0.212347 -0.356053) (xy 0.212347 0.356053)
         (xy 0.154497 0.413904) (xy -0.212347 0.413904)) (width 0.139664))
    ))
  (pad "" smd custom (at -2.15 0) (size 0.494526 0.494526) (layers F.Paste)
    (options (clearance outline) (anchor circle))
    (primitives
      (gr_poly (pts
         (xy -0.212347 -0.413904) (xy 0.154497 -0.413904) (xy 0.212347 -0.356053) (xy 0.212347 0.356053)
         (xy 0.154497 0.413904) (xy -0.212347 0.413904)) (width 0.139664))
    ))
  (pad "" smd custom (at -2.15 1.2) (size 0.494526 0.494526) (layers F.Paste)
    (options (clearance outline) (anchor circle))
    (primitives
      (gr_poly (pts
         (xy -0.212347 -0.413904) (xy 0.154497 -0.413904) (xy 0.212347 -0.356053) (xy 0.212347 0.356053)
         (xy 0.154497 0.413904) (xy -0.212347 0.413904)) (width 0.139664))
    ))
  (pad "" smd custom (at 2.15 -1.2) (size 0.494526 0.494526) (layers F.Paste)
    (options (clearance outline) (anchor circle))
    (primitives
      (gr_poly (pts
         (xy -0.212347 -0.356053) (xy -0.154497 -0.413904) (xy 0.212347 -0.413904) (xy 0.212347 0.413904)
         (xy -0.154497 0.413904) (xy -0.212347 0.356053)) (width 0.139664))
    ))
  (pad "" smd custom (at 2.15 0) (size 0.494526 0.494526) (layers F.Paste)
    (options (clearance outline) (anchor circle))
    (primitives
      (gr_poly (pts
         (xy -0.212347 -0.356053) (xy -0.154497 -0.413904) (xy 0.212347 -0.413904) (xy 0.212347 0.413904)
         (xy -0.154497 0.413904) (xy -0.212347 0.356053)) (width 0.139664))
    ))
  (pad "" smd custom (at 2.15 1.2) (size 0.494526 0.494526) (layers F.Paste)
    (options (clearance outline) (anchor circle))
    (primitives
      (gr_poly (pts
         (xy -0.212347 -0.356053) (xy -0.154497 -0.413904) (xy 0.212347 -0.413904) (xy 0.212347 0.413904)
         (xy -0.154497 0.413904) (xy -0.212347 0.356053)) (width 0.139664))
    ))
  (pad "" smd custom (at -1.2 -2.15) (size 0.494526 0.494526) (layers F.Paste)
    (options (clearance outline) (anchor circle))
    (primitives
      (gr_poly (pts
         (xy -0.413904 -0.212347) (xy 0.413904 -0.212347) (xy 0.413904 0.154497) (xy 0.356053 0.212347)
         (xy -0.356053 0.212347) (xy -0.413904 0.154497)) (width 0.139664))
    ))
  (pad "" smd custom (at 0 -2.15) (size 0.494526 0.494526) (layers F.Paste)
    (options (clearance outline) (anchor circle))
    (primitives
      (gr_poly (pts
         (xy -0.413904 -0.212347) (xy 0.413904 -0.212347) (xy 0.413904 0.154497) (xy 0.356053 0.212347)
         (xy -0.356053 0.212347) (xy -0.413904 0.154497)) (width 0.139664))
    ))
  (pad "" smd custom (at 1.2 -2.15) (size 0.494526 0.494526) (layers F.Paste)
    (options (clearance outline) (anchor circle))
    (primitives
      (gr_poly (pts
         (xy -0.413904 -0.212347) (xy 0.413904 -0.212347) (xy 0.413904 0.154497) (xy 0.356053 0.212347)
         (xy -0.356053 0.212347) (xy -0.413904 0.154497)) (width 0.139664))
    ))
  (pad "" smd custom (at -1.2 2.15) (size 0.494526 0.494526) (layers F.Paste)
    (options (clearance outline) (anchor circle))
    (primitives
      (gr_poly (pts
         (xy -0.413904 -0.154497) (xy -0.356053 -0.212347) (xy 0.356053 -0.212347) (xy 0.413904 -0.154497)
         (xy 0.413904 0.212347) (xy -0.413904 0.212347)) (width 0.139664))
    ))
  (pad "" smd custom (at 0 2.15) (size 0.494526 0.494526) (layers F.Paste)
    (options (clearance outline) (anchor circle))
    (primitives
      (gr_poly (pts
         (xy -0.413904 -0.154497) (xy -0.356053 -0.212347) (xy 0.356053 -0.212347) (xy 0.413904 -0.154497)
         (xy 0.413904 0.212347) (xy -0.413904 0.212347)) (width 0.139664))
    ))
  (pad "" smd custom (at 1.2 2.15) (size 0.494526 0.494526) (layers F.Paste)
    (options (clearance outline) (anchor circle))
    (primitives
      (gr_poly (pts
         (xy -0.413904 -0.154497) (xy -0.356053 -0.212347) (xy 0.356053 -0.212347) (xy 0.413904 -0.154497)
         (xy 0.413904 0.212347) (xy -0.413904 0.212347)) (width 0.139664))
    ))
  (pad "" smd custom (at -2.15 -2.15) (size 0.460271 0.460271) (layers F.Paste)
    (options (clearance outline) (anchor circle))
    (primitives
      (gr_poly (pts
         (xy -0.178092 -0.178092) (xy 0.178092 -0.178092) (xy 0.178092 0.091864) (xy 0.091864 0.178092)
         (xy -0.178092 0.178092)) (width 0.208173))
    ))
  (pad "" smd custom (at -2.15 2.15) (size 0.460271 0.460271) (layers F.Paste)
    (options (clearance outline) (anchor circle))
    (primitives
      (gr_poly (pts
         (xy -0.178092 -0.178092) (xy 0.091864 -0.178092) (xy 0.178092 -0.091864) (xy 0.178092 0.178092)
         (xy -0.178092 0.178092)) (width 0.208173))
    ))
  (pad "" smd custom (at 2.15 -2.15) (size 0.460271 0.460271) (layers F.Paste)
    (options (clearance outline) (anchor circle))
    (primitives
      (gr_poly (pts
         (xy -0.178092 -0.178092) (xy 0.178092 -0.178092) (xy 0.178092 0.178092) (xy -0.091864 0.178092)
         (xy -0.178092 0.091864)) (width 0.208173))
    ))
  (pad "" smd custom (at 2.15 2.15) (size 0.460271 0.460271) (layers F.Paste)
    (options (clearance outline) (anchor circle))
    (primitives
      (gr_poly (pts
         (xy -0.178092 -0.091864) (xy -0.091864 -0.178092) (xy 0.178092 -0.178092) (xy 0.178092 0.178092)
         (xy -0.178092 0.178092)) (width 0.208173))
    ))
  (fp_poly (pts (xy -5.725 -4.16) (xy -5.959 -4.4876) (xy -5.491 -4.4876) (xy -5.725 -4.16))
    (stroke (width 0.12) (type solid)) (fill solid) (layer F.SilkS))
  (fp_text user ${REFERENCE} (at 0 0) (layer F.Fab)
    (effects (font (size 1 1) (thickness 0.15)))
  )
  (model ${KICAD7_3DMODEL_DIR}/Package_QFP.3dshapes/LQFP-64-1EP_10x10mm_P0.5mm_EP5x5mm.wrl
    (offset (xyz 0 0 0))
    (scale (xyz 1 1 1))
    (rotate (xyz 0 0 0))
  )
)
