(footprint ST_HLGA-10_2x2mm_P0.5mm_LayoutBorder3x2y (version 20221018) (generator kicad-footprint-generator)
  (layer F.Cu)
  (descr "ST  HLGA, 10 Pin (https://www.st.com/resource/en/datasheet/lps22hh.pdf#page=55), generated with kicad-footprint-generator ipc_noLead_generator.py")
  (tags "ST HLGA NoLead")
  (attr smd)
  (fp_text reference REF** (at 0 -1.95) (layer F.SilkS)
    (effects (font (size 1 1) (thickness 0.15)))
  )
  (fp_text value ST_HLGA-10_2x2mm_P0.5mm_LayoutBorder3x2y (at 0 1.95) (layer F.Fab)
    (effects (font (size 1 1) (thickness 0.15)))
  )
  (fp_line (start -1.12 -0.685) (end -1.12 -0.88)
    (stroke (width 0.12) (type solid)) (layer F.SilkS))
  (fp_line (start 0.935 -1.11) (end 1.11 -1.11)
    (stroke (width 0.12) (type solid)) (layer F.SilkS))
  (fp_line (start 1.11 -1.11) (end 1.11 -0.685)
    (stroke (width 0.12) (type solid)) (layer F.SilkS))
  (fp_line (start -0.935 1.11) (end -1.11 1.11)
    (stroke (width 0.12) (type solid)) (layer F.SilkS))
  (fp_line (start -1.11 1.11) (end -1.11 0.685)
    (stroke (width 0.12) (type solid)) (layer F.SilkS))
  (fp_line (start 0.935 1.11) (end 1.11 1.11)
    (stroke (width 0.12) (type solid)) (layer F.SilkS))
  (fp_line (start 1.11 1.11) (end 1.11 0.685)
    (stroke (width 0.12) (type solid)) (layer F.SilkS))
  (fp_line (start -0.5 -1) (end 1 -1)
    (stroke (width 0.1) (type solid)) (layer F.Fab))
  (fp_line (start 1 -1) (end 1 1)
    (stroke (width 0.1) (type solid)) (layer F.Fab))
  (fp_line (start 1 1) (end -1 1)
    (stroke (width 0.1) (type solid)) (layer F.Fab))
  (fp_line (start -1 1) (end -1 -0.5)
    (stroke (width 0.1) (type solid)) (layer F.Fab))
  (fp_line (start -1 -0.5) (end -0.5 -1)
    (stroke (width 0.1) (type solid)) (layer F.Fab))
  (fp_line (start -1.25 -1.25) (end -1.25 1.25)
    (stroke (width 0.05) (type solid)) (layer F.CrtYd))
  (fp_line (start -1.25 1.25) (end 1.25 1.25)
    (stroke (width 0.05) (type solid)) (layer F.CrtYd))
  (fp_line (start 1.25 1.25) (end 1.25 -1.25)
    (stroke (width 0.05) (type solid)) (layer F.CrtYd))
  (fp_line (start 1.25 -1.25) (end -1.25 -1.25)
    (stroke (width 0.05) (type solid)) (layer F.CrtYd))
  (pad 1 smd roundrect (at -0.7625 -0.25) (size 0.425 0.35) (layers F.Cu F.Mask F.Paste) (roundrect_rratio 0.25))
  (pad 2 smd roundrect (at -0.7625 0.25) (size 0.425 0.35) (layers F.Cu F.Mask F.Paste) (roundrect_rratio 0.25))
  (pad 3 smd roundrect (at -0.5 0.7625) (size 0.35 0.425) (layers F.Cu F.Mask F.Paste) (roundrect_rratio 0.25))
  (pad 4 smd roundrect (at 0 0.7625) (size 0.35 0.425) (layers F.Cu F.Mask F.Paste) (roundrect_rratio 0.25))
  (pad 5 smd roundrect (at 0.5 0.7625) (size 0.35 0.425) (layers F.Cu F.Mask F.Paste) (roundrect_rratio 0.25))
  (pad 6 smd roundrect (at 0.7625 0.25) (size 0.425 0.35) (layers F.Cu F.Mask F.Paste) (roundrect_rratio 0.25))
  (pad 7 smd roundrect (at 0.7625 -0.25) (size 0.425 0.35) (layers F.Cu F.Mask F.Paste) (roundrect_rratio 0.25))
  (pad 8 smd roundrect (at 0.5 -0.7625) (size 0.35 0.425) (layers F.Cu F.Mask F.Paste) (roundrect_rratio 0.25))
  (pad 9 smd roundrect (at 0 -0.7625) (size 0.35 0.425) (layers F.Cu F.Mask F.Paste) (roundrect_rratio 0.25))
  (pad 10 smd roundrect (at -0.5 -0.7625) (size 0.35 0.425) (layers F.Cu F.Mask F.Paste) (roundrect_rratio 0.25))
  (fp_poly (pts (xy -1.12 -1.12) (xy -1.3 -1.372) (xy -0.94 -1.372) (xy -1.12 -1.12))
    (stroke (width 0.12) (type solid)) (fill solid) (layer F.SilkS))
  (fp_text user ${REFERENCE} (at 0 0) (layer F.Fab)
    (effects (font (size 0.5 0.5) (thickness 0.08)))
  )
  (model ${KICAD7_3DMODEL_DIR}/Package_LGA.3dshapes/ST_HLGA-10_2x2mm_P0.5mm_LayoutBorder3x2y.wrl
    (offset (xyz 0 0 0))
    (scale (xyz 1 1 1))
    (rotate (xyz 0 0 0))
  )
)
