(footprint Texas_SIL0010A_MicroSiP-10-1EP_3.8x3mm_P0.6mm_EP0.7x2.9mm_ThermalVias (version 20221018) (generator kicad-footprint-generator)
  (layer F.Cu)
  (descr "Texas SIL0010A MicroSiP, 10 Pin (http://www.ti.com/lit/ml/mpds579b/mpds579b.pdf), generated with kicad-footprint-generator ipc_noLead_generator.py")
  (tags "Texas MicroSiP NoLead")
  (attr smd)
  (fp_text reference REF** (at 0 -2.45) (layer F.SilkS)
    (effects (font (size 1 1) (thickness 0.15)))
  )
  (fp_text value Texas_SIL0010A_MicroSiP-10-1EP_3.8x3mm_P0.6mm_EP0.7x2.9mm_ThermalVias (at 0 2.45) (layer F.Fab)
    (effects (font (size 1 1) (thickness 0.15)))
  )
  (fp_line (start -1.84 -1.685) (end 1.9 -1.685)
    (stroke (width 0.12) (type solid)) (layer F.SilkS))
  (fp_line (start -1.9 1.685) (end 1.9 1.685)
    (stroke (width 0.12) (type solid)) (layer F.SilkS))
  (fp_line (start -1.15 -1.5) (end 1.9 -1.5)
    (stroke (width 0.1) (type solid)) (layer F.Fab))
  (fp_line (start 1.9 -1.5) (end 1.9 1.5)
    (stroke (width 0.1) (type solid)) (layer F.Fab))
  (fp_line (start 1.9 1.5) (end -1.9 1.5)
    (stroke (width 0.1) (type solid)) (layer F.Fab))
  (fp_line (start -1.9 1.5) (end -1.9 -0.75)
    (stroke (width 0.1) (type solid)) (layer F.Fab))
  (fp_line (start -1.9 -0.75) (end -1.15 -1.5)
    (stroke (width 0.1) (type solid)) (layer F.Fab))
  (fp_line (start -2.18 -1.75) (end -2.18 1.75)
    (stroke (width 0.05) (type solid)) (layer F.CrtYd))
  (fp_line (start -2.18 1.75) (end 2.18 1.75)
    (stroke (width 0.05) (type solid)) (layer F.CrtYd))
  (fp_line (start 2.18 1.75) (end 2.18 -1.75)
    (stroke (width 0.05) (type solid)) (layer F.CrtYd))
  (fp_line (start 2.18 -1.75) (end -2.18 -1.75)
    (stroke (width 0.05) (type solid)) (layer F.CrtYd))
  (pad 1 smd roundrect (at -1.525 -1.2) (size 0.8 0.45) (layers F.Cu F.Mask F.Paste) (roundrect_rratio 0.25))
  (pad 2 smd roundrect (at -1.525 -0.6) (size 0.8 0.45) (layers F.Cu F.Mask F.Paste) (roundrect_rratio 0.25))
  (pad 3 smd roundrect (at -1.525 0) (size 0.8 0.45) (layers F.Cu F.Mask F.Paste) (roundrect_rratio 0.25))
  (pad 4 smd roundrect (at -1.525 0.6) (size 0.8 0.45) (layers F.Cu F.Mask F.Paste) (roundrect_rratio 0.25))
  (pad 5 smd roundrect (at -1.525 1.2) (size 0.8 0.45) (layers F.Cu F.Mask F.Paste) (roundrect_rratio 0.25))
  (pad 6 smd roundrect (at 1.525 1.2) (size 0.8 0.45) (layers F.Cu F.Mask F.Paste) (roundrect_rratio 0.25))
  (pad 7 smd roundrect (at 1.525 0.6) (size 0.8 0.45) (layers F.Cu F.Mask F.Paste) (roundrect_rratio 0.25))
  (pad 8 smd roundrect (at 1.525 0) (size 0.8 0.45) (layers F.Cu F.Mask F.Paste) (roundrect_rratio 0.25))
  (pad 9 smd roundrect (at 1.525 -0.6) (size 0.8 0.45) (layers F.Cu F.Mask F.Paste) (roundrect_rratio 0.25))
  (pad 10 smd roundrect (at 1.525 -1.2) (size 0.8 0.45) (layers F.Cu F.Mask F.Paste) (roundrect_rratio 0.25))
  (pad 11 smd rect (at -0.175 0) (size 0.7 2.9) (property pad_prop_heatsink) (layers F.Cu F.Mask)
    (zone_connect 2))
  (pad 11 thru_hole circle (at -0.175 -1.03) (size 0.5 0.5) (drill 0.2) (property pad_prop_heatsink) (layers *.Cu))
  (pad 11 thru_hole circle (at -0.175 0) (size 0.5 0.5) (drill 0.2) (property pad_prop_heatsink) (layers *.Cu))
  (pad 11 thru_hole circle (at -0.175 1.03) (size 0.5 0.5) (drill 0.2) (property pad_prop_heatsink) (layers *.Cu))
  (pad 11 smd rect (at -0.175 0) (size 0.5 2.56) (property pad_prop_heatsink) (layers B.Cu)
    (zone_connect 2))
  (pad "" smd roundrect (at -0.175 -0.97) (size 0.65 0.9) (layers F.Paste) (roundrect_rratio 0.25))
  (pad "" smd roundrect (at -0.175 0) (size 0.65 0.9) (layers F.Paste) (roundrect_rratio 0.25))
  (pad "" smd roundrect (at -0.175 0.97) (size 0.65 0.9) (layers F.Paste) (roundrect_rratio 0.25))
  (fp_poly (pts (xy -2.08 -1.58) (xy -2.44 -1.58) (xy -2.08 -1.94) (xy -2.08 -1.58))
    (stroke (width 0.12) (type solid)) (fill solid) (layer F.SilkS))
  (fp_text user ${REFERENCE} (at 0 0) (layer F.Fab)
    (effects (font (size 0.95 0.95) (thickness 0.14)))
  )
  (model ${KICAD7_3DMODEL_DIR}/Package_LGA.3dshapes/Texas_SIL0010A_MicroSiP-10-1EP_3.8x3mm_P0.6mm_EP0.7x2.9mm.wrl
    (offset (xyz 0 0 0))
    (scale (xyz 1 1 1))
    (rotate (xyz 0 0 0))
  )
)
