(footprint VLGA-4_2x2.5mm_P1.65mm (version 20221018) (generator kicad-footprint-generator)
  (layer F.Cu)
  (descr "VLGA, 4 Pin (https://ww1.microchip.com/downloads/en/DeviceDoc/DSC60XX-Ultra-Small-Ultra-Low-Power-MEMS-Oscillator-DS20005625C.pdf#page=15), generated with kicad-footprint-generator ipc_noLead_generator.py")
  (tags "VLGA NoLead")
  (attr smd)
  (fp_text reference REF** (at 0 -2.2) (layer F.SilkS)
    (effects (font (size 1 1) (thickness 0.15)))
  )
  (fp_text value VLGA-4_2x2.5mm_P1.65mm (at 0 2.2) (layer F.Fab)
    (effects (font (size 1 1) (thickness 0.15)))
  )
  (fp_line (start -0.89 -1.46) (end 1 -1.46)
    (stroke (width 0.12) (type solid)) (layer F.SilkS))
  (fp_line (start -1 1.46) (end 1 1.46)
    (stroke (width 0.12) (type solid)) (layer F.SilkS))
  (fp_line (start -0.5 -1.25) (end 1 -1.25)
    (stroke (width 0.1) (type solid)) (layer F.Fab))
  (fp_line (start 1 -1.25) (end 1 1.25)
    (stroke (width 0.1) (type solid)) (layer F.Fab))
  (fp_line (start 1 1.25) (end -1 1.25)
    (stroke (width 0.1) (type solid)) (layer F.Fab))
  (fp_line (start -1 1.25) (end -1 -0.75)
    (stroke (width 0.1) (type solid)) (layer F.Fab))
  (fp_line (start -1 -0.75) (end -0.5 -1.25)
    (stroke (width 0.1) (type solid)) (layer F.Fab))
  (fp_line (start -1.25 -1.5) (end -1.25 1.5)
    (stroke (width 0.05) (type solid)) (layer F.CrtYd))
  (fp_line (start -1.25 1.5) (end 1.25 1.5)
    (stroke (width 0.05) (type solid)) (layer F.CrtYd))
  (fp_line (start 1.25 1.5) (end 1.25 -1.5)
    (stroke (width 0.05) (type solid)) (layer F.CrtYd))
  (fp_line (start 1.25 -1.5) (end -1.25 -1.5)
    (stroke (width 0.05) (type solid)) (layer F.CrtYd))
  (pad 1 smd roundrect (at -0.625 -0.825) (size 0.75 0.75) (layers F.Cu F.Mask F.Paste) (roundrect_rratio 0.25))
  (pad 2 smd roundrect (at -0.625 0.825) (size 0.75 0.75) (layers F.Cu F.Mask F.Paste) (roundrect_rratio 0.25))
  (pad 3 smd roundrect (at 0.625 0.825) (size 0.75 0.75) (layers F.Cu F.Mask F.Paste) (roundrect_rratio 0.25))
  (pad 4 smd roundrect (at 0.625 -0.825) (size 0.75 0.75) (layers F.Cu F.Mask F.Paste) (roundrect_rratio 0.25))
  (fp_poly (pts (xy -1.13 -1.33) (xy -1.955 -1.33) (xy -1.13 -2.155) (xy -1.13 -1.33))
    (stroke (width 0.12) (type solid)) (fill solid) (layer F.SilkS))
  (fp_text user ${REFERENCE} (at 0 0 90) (layer F.Fab)
    (effects (font (size 0.62 0.62) (thickness 0.09)))
  )
  (model ${KICAD7_3DMODEL_DIR}/Package_LGA.3dshapes/VLGA-4_2x2.5mm_P1.65mm.wrl
    (offset (xyz 0 0 0))
    (scale (xyz 1 1 1))
    (rotate (xyz 0 0 0))
  )
)
