(footprint WSON-8-1EP_6x5mm_P1.27mm_EP3.4x4mm (version 20221018) (generator kicad-footprint-generator)
  (layer F.Cu)
  (descr "WSON, 8 Pin (http://ww1.microchip.com/downloads/en/AppNotes/S72030.pdf), generated with kicad-footprint-generator ipc_noLead_generator.py")
  (tags "WSON NoLead")
  (attr smd)
  (fp_text reference REF** (at 0 -3.45) (layer F.SilkS)
    (effects (font (size 1 1) (thickness 0.15)))
  )
  (fp_text value WSON-8-1EP_6x5mm_P1.27mm_EP3.4x4mm (at 0 3.45) (layer F.Fab)
    (effects (font (size 1 1) (thickness 0.15)))
  )
  (fp_line (start -2.96 -2.61) (end 3 -2.61)
    (stroke (width 0.12) (type solid)) (layer F.SilkS))
  (fp_line (start -3 2.61) (end 3 2.61)
    (stroke (width 0.12) (type solid)) (layer F.SilkS))
  (fp_line (start -2 -2.5) (end 3 -2.5)
    (stroke (width 0.1) (type solid)) (layer F.Fab))
  (fp_line (start 3 -2.5) (end 3 2.5)
    (stroke (width 0.1) (type solid)) (layer F.Fab))
  (fp_line (start 3 2.5) (end -3 2.5)
    (stroke (width 0.1) (type solid)) (layer F.Fab))
  (fp_line (start -3 2.5) (end -3 -1.5)
    (stroke (width 0.1) (type solid)) (layer F.Fab))
  (fp_line (start -3 -1.5) (end -2 -2.5)
    (stroke (width 0.1) (type solid)) (layer F.Fab))
  (fp_line (start -3.3 -2.75) (end -3.3 2.75)
    (stroke (width 0.05) (type solid)) (layer F.CrtYd))
  (fp_line (start -3.3 2.75) (end 3.3 2.75)
    (stroke (width 0.05) (type solid)) (layer F.CrtYd))
  (fp_line (start 3.3 2.75) (end 3.3 -2.75)
    (stroke (width 0.05) (type solid)) (layer F.CrtYd))
  (fp_line (start 3.3 -2.75) (end -3.3 -2.75)
    (stroke (width 0.05) (type solid)) (layer F.CrtYd))
  (pad 1 smd roundrect (at -2.6625 -1.905) (size 0.775 0.5) (layers F.Cu F.Mask F.Paste) (roundrect_rratio 0.25))
  (pad 2 smd roundrect (at -2.6625 -0.635) (size 0.775 0.5) (layers F.Cu F.Mask F.Paste) (roundrect_rratio 0.25))
  (pad 3 smd roundrect (at -2.6625 0.635) (size 0.775 0.5) (layers F.Cu F.Mask F.Paste) (roundrect_rratio 0.25))
  (pad 4 smd roundrect (at -2.6625 1.905) (size 0.775 0.5) (layers F.Cu F.Mask F.Paste) (roundrect_rratio 0.25))
  (pad 5 smd roundrect (at 2.6625 1.905) (size 0.775 0.5) (layers F.Cu F.Mask F.Paste) (roundrect_rratio 0.25))
  (pad 6 smd roundrect (at 2.6625 0.635) (size 0.775 0.5) (layers F.Cu F.Mask F.Paste) (roundrect_rratio 0.25))
  (pad 7 smd roundrect (at 2.6625 -0.635) (size 0.775 0.5) (layers F.Cu F.Mask F.Paste) (roundrect_rratio 0.25))
  (pad 8 smd roundrect (at 2.6625 -1.905) (size 0.775 0.5) (layers F.Cu F.Mask F.Paste) (roundrect_rratio 0.25))
  (pad 9 smd rect (at 0 0) (size 3.4 4) (property pad_prop_heatsink) (layers F.Cu F.Mask)
    (zone_connect 2))
  (pad "" smd roundrect (at -0.85 -1) (size 1.37 1.61) (layers F.Paste) (roundrect_rratio 0.182482))
  (pad "" smd roundrect (at -0.85 1) (size 1.37 1.61) (layers F.Paste) (roundrect_rratio 0.182482))
  (pad "" smd roundrect (at 0.85 -1) (size 1.37 1.61) (layers F.Paste) (roundrect_rratio 0.182482))
  (pad "" smd roundrect (at 0.85 1) (size 1.37 1.61) (layers F.Paste) (roundrect_rratio 0.182482))
  (fp_poly (pts (xy -3.2 -2.31) (xy -3.835 -2.31) (xy -3.2 -2.945) (xy -3.2 -2.31))
    (stroke (width 0.12) (type solid)) (fill solid) (layer F.SilkS))
  (fp_text user ${REFERENCE} (at 0 0) (layer F.Fab)
    (effects (font (size 1 1) (thickness 0.15)))
  )
  (model ${KICAD7_3DMODEL_DIR}/Package_SON.3dshapes/WSON-8-1EP_6x5mm_P1.27mm_EP3.4x4mm.wrl
    (offset (xyz 0 0 0))
    (scale (xyz 1 1 1))
    (rotate (xyz 0 0 0))
  )
)
