(footprint WSON-8-1EP_3x2.5mm_P0.5mm_EP1.2x1.5mm_PullBack_ThermalVias (version 20221018) (generator kicad-footprint-generator)
  (layer F.Cu)
  (descr "WSON, 8 Pin (http://www.ti.com/lit/ml/mpds400/mpds400.pdf), generated with kicad-footprint-generator ipc_noLead_generator.py")
  (tags "WSON NoLead")
  (attr smd)
  (fp_text reference REF** (at 0 -2.2) (layer F.SilkS)
    (effects (font (size 1 1) (thickness 0.15)))
  )
  (fp_text value WSON-8-1EP_3x2.5mm_P0.5mm_EP1.2x1.5mm_PullBack_ThermalVias (at 0 2.2) (layer F.Fab)
    (effects (font (size 1 1) (thickness 0.15)))
  )
  (fp_line (start -1.4 -1.36) (end 1.5 -1.36)
    (stroke (width 0.12) (type solid)) (layer F.SilkS))
  (fp_line (start -1.5 1.36) (end 1.5 1.36)
    (stroke (width 0.12) (type solid)) (layer F.SilkS))
  (fp_line (start -0.875 -1.25) (end 1.5 -1.25)
    (stroke (width 0.1) (type solid)) (layer F.Fab))
  (fp_line (start 1.5 -1.25) (end 1.5 1.25)
    (stroke (width 0.1) (type solid)) (layer F.Fab))
  (fp_line (start 1.5 1.25) (end -1.5 1.25)
    (stroke (width 0.1) (type solid)) (layer F.Fab))
  (fp_line (start -1.5 1.25) (end -1.5 -0.625)
    (stroke (width 0.1) (type solid)) (layer F.Fab))
  (fp_line (start -1.5 -0.625) (end -0.875 -1.25)
    (stroke (width 0.1) (type solid)) (layer F.Fab))
  (fp_line (start -1.75 -1.5) (end -1.75 1.5)
    (stroke (width 0.05) (type solid)) (layer F.CrtYd))
  (fp_line (start -1.75 1.5) (end 1.75 1.5)
    (stroke (width 0.05) (type solid)) (layer F.CrtYd))
  (fp_line (start 1.75 1.5) (end 1.75 -1.5)
    (stroke (width 0.05) (type solid)) (layer F.CrtYd))
  (fp_line (start 1.75 -1.5) (end -1.75 -1.5)
    (stroke (width 0.05) (type solid)) (layer F.CrtYd))
  (pad 1 smd roundrect (at -1.1375 -0.75) (size 0.675 0.35) (layers F.Cu F.Mask F.Paste) (roundrect_rratio 0.25))
  (pad 2 smd roundrect (at -1.1375 -0.25) (size 0.675 0.35) (layers F.Cu F.Mask F.Paste) (roundrect_rratio 0.25))
  (pad 3 smd roundrect (at -1.1375 0.25) (size 0.675 0.35) (layers F.Cu F.Mask F.Paste) (roundrect_rratio 0.25))
  (pad 4 smd roundrect (at -1.1375 0.75) (size 0.675 0.35) (layers F.Cu F.Mask F.Paste) (roundrect_rratio 0.25))
  (pad 5 smd roundrect (at 1.1375 0.75) (size 0.675 0.35) (layers F.Cu F.Mask F.Paste) (roundrect_rratio 0.25))
  (pad 6 smd roundrect (at 1.1375 0.25) (size 0.675 0.35) (layers F.Cu F.Mask F.Paste) (roundrect_rratio 0.25))
  (pad 7 smd roundrect (at 1.1375 -0.25) (size 0.675 0.35) (layers F.Cu F.Mask F.Paste) (roundrect_rratio 0.25))
  (pad 8 smd roundrect (at 1.1375 -0.75) (size 0.675 0.35) (layers F.Cu F.Mask F.Paste) (roundrect_rratio 0.25))
  (pad 9 smd rect (at 0 0) (size 1.2 1.5) (property pad_prop_heatsink) (layers F.Cu F.Mask)
    (zone_connect 2))
  (pad 9 thru_hole circle (at -0.35 -0.5) (size 0.5 0.5) (drill 0.2) (property pad_prop_heatsink) (layers *.Cu))
  (pad 9 thru_hole circle (at 0.35 -0.5) (size 0.5 0.5) (drill 0.2) (property pad_prop_heatsink) (layers *.Cu))
  (pad 9 thru_hole circle (at -0.35 0.5) (size 0.5 0.5) (drill 0.2) (property pad_prop_heatsink) (layers *.Cu))
  (pad 9 thru_hole circle (at 0.35 0.5) (size 0.5 0.5) (drill 0.2) (property pad_prop_heatsink) (layers *.Cu))
  (pad 9 smd rect (at 0 0) (size 1.2 1.5) (property pad_prop_heatsink) (layers B.Cu)
    (zone_connect 2))
  (pad "" smd roundrect (at -0.3 -0.375) (size 0.52 0.65) (layers F.Paste) (roundrect_rratio 0.25))
  (pad "" smd roundrect (at -0.3 0.375) (size 0.52 0.65) (layers F.Paste) (roundrect_rratio 0.25))
  (pad "" smd roundrect (at 0.3 -0.375) (size 0.52 0.65) (layers F.Paste) (roundrect_rratio 0.25))
  (pad "" smd roundrect (at 0.3 0.375) (size 0.52 0.65) (layers F.Paste) (roundrect_rratio 0.25))
  (fp_poly (pts (xy -1.64 -1.09) (xy -2 -1.09) (xy -1.64 -1.45) (xy -1.64 -1.09))
    (stroke (width 0.12) (type solid)) (fill solid) (layer F.SilkS))
  (fp_text user ${REFERENCE} (at 0 0) (layer F.Fab)
    (effects (font (size 0.75 0.75) (thickness 0.11)))
  )
  (model ${KICAD7_3DMODEL_DIR}/Package_SON.3dshapes/WSON-8-1EP_3x2.5mm_P0.5mm_EP1.2x1.5mm_PullBack.wrl
    (offset (xyz 0 0 0))
    (scale (xyz 1 1 1))
    (rotate (xyz 0 0 0))
  )
)
