(footprint Transformer_Ethernet_Halo_N5_SO-16_7.11x12.7mm (version 20221018) (generator kicad-footprint-generator)
  (layer F.Cu)
  (descr "Halo N5 SO, 16 Pin (https://www.haloelectronics.com/pdf/discrete-ultra-100baset.pdf), generated with kicad-footprint-generator ipc_gullwing_generator.py")
  (tags "Halo SO Transformer_SMD")
  (attr smd)
  (fp_text reference REF** (at 0 -7.3) (layer F.SilkS)
    (effects (font (size 1 1) (thickness 0.15)))
  )
  (fp_text value Transformer_Ethernet_Halo_N5_SO-16_7.11x12.7mm (at 0 7.3) (layer F.Fab)
    (effects (font (size 1 1) (thickness 0.15)))
  )
  (fp_line (start -5.43 -6.6) (end -5.43 6.6)
    (stroke (width 0.05) (type solid)) (layer F.CrtYd))
  (fp_line (start -5.43 6.6) (end 5.43 6.6)
    (stroke (width 0.05) (type solid)) (layer F.CrtYd))
  (fp_line (start 5.43 6.6) (end 5.43 -6.6)
    (stroke (width 0.05) (type solid)) (layer F.CrtYd))
  (fp_line (start 5.43 -6.6) (end -5.43 -6.6)
    (stroke (width 0.05) (type solid)) (layer F.CrtYd))
  (fp_line (start 0 6.46) (end 3.665 6.46)
    (stroke (width 0.12) (type solid)) (layer F.SilkS))
  (fp_line (start 3.665 6.46) (end 3.665 5.005)
    (stroke (width 0.12) (type solid)) (layer F.SilkS))
  (fp_line (start 0 6.46) (end -3.665 6.46)
    (stroke (width 0.12) (type solid)) (layer F.SilkS))
  (fp_line (start -3.665 6.46) (end -3.665 5.005)
    (stroke (width 0.12) (type solid)) (layer F.SilkS))
  (fp_line (start 0 -6.46) (end 3.665 -6.46)
    (stroke (width 0.12) (type solid)) (layer F.SilkS))
  (fp_line (start 3.665 -6.46) (end 3.665 -5.005)
    (stroke (width 0.12) (type solid)) (layer F.SilkS))
  (fp_line (start 0 -6.46) (end -3.665 -6.46)
    (stroke (width 0.12) (type solid)) (layer F.SilkS))
  (fp_line (start -3.665 -6.46) (end -3.665 -5.005)
    (stroke (width 0.12) (type solid)) (layer F.SilkS))
  (fp_line (start -2.555 -6.35) (end 3.555 -6.35)
    (stroke (width 0.1) (type solid)) (layer F.Fab))
  (fp_line (start 3.555 -6.35) (end 3.555 6.35)
    (stroke (width 0.1) (type solid)) (layer F.Fab))
  (fp_line (start 3.555 6.35) (end -3.555 6.35)
    (stroke (width 0.1) (type solid)) (layer F.Fab))
  (fp_line (start -3.555 6.35) (end -3.555 -5.35)
    (stroke (width 0.1) (type solid)) (layer F.Fab))
  (fp_line (start -3.555 -5.35) (end -2.555 -6.35)
    (stroke (width 0.1) (type solid)) (layer F.Fab))
  (pad 1 smd roundrect (at -4.4875 -4.445) (size 1.375 0.6) (layers F.Cu F.Mask F.Paste) (roundrect_rratio 0.25))
  (pad 2 smd roundrect (at -4.4875 -3.175) (size 1.375 0.6) (layers F.Cu F.Mask F.Paste) (roundrect_rratio 0.25))
  (pad 3 smd roundrect (at -4.4875 -1.905) (size 1.375 0.6) (layers F.Cu F.Mask F.Paste) (roundrect_rratio 0.25))
  (pad 4 smd roundrect (at -4.4875 -0.635) (size 1.375 0.6) (layers F.Cu F.Mask F.Paste) (roundrect_rratio 0.25))
  (pad 5 smd roundrect (at -4.4875 0.635) (size 1.375 0.6) (layers F.Cu F.Mask F.Paste) (roundrect_rratio 0.25))
  (pad 6 smd roundrect (at -4.4875 1.905) (size 1.375 0.6) (layers F.Cu F.Mask F.Paste) (roundrect_rratio 0.25))
  (pad 7 smd roundrect (at -4.4875 3.175) (size 1.375 0.6) (layers F.Cu F.Mask F.Paste) (roundrect_rratio 0.25))
  (pad 8 smd roundrect (at -4.4875 4.445) (size 1.375 0.6) (layers F.Cu F.Mask F.Paste) (roundrect_rratio 0.25))
  (pad 9 smd roundrect (at 4.4875 4.445) (size 1.375 0.6) (layers F.Cu F.Mask F.Paste) (roundrect_rratio 0.25))
  (pad 10 smd roundrect (at 4.4875 3.175) (size 1.375 0.6) (layers F.Cu F.Mask F.Paste) (roundrect_rratio 0.25))
  (pad 11 smd roundrect (at 4.4875 1.905) (size 1.375 0.6) (layers F.Cu F.Mask F.Paste) (roundrect_rratio 0.25))
  (pad 12 smd roundrect (at 4.4875 0.635) (size 1.375 0.6) (layers F.Cu F.Mask F.Paste) (roundrect_rratio 0.25))
  (pad 13 smd roundrect (at 4.4875 -0.635) (size 1.375 0.6) (layers F.Cu F.Mask F.Paste) (roundrect_rratio 0.25))
  (pad 14 smd roundrect (at 4.4875 -1.905) (size 1.375 0.6) (layers F.Cu F.Mask F.Paste) (roundrect_rratio 0.25))
  (pad 15 smd roundrect (at 4.4875 -3.175) (size 1.375 0.6) (layers F.Cu F.Mask F.Paste) (roundrect_rratio 0.25))
  (pad 16 smd roundrect (at 4.4875 -4.445) (size 1.375 0.6) (layers F.Cu F.Mask F.Paste) (roundrect_rratio 0.25))
  (fp_poly (pts (xy -4.365 -5.005) (xy -4.605 -5.341) (xy -4.125 -5.341) (xy -4.365 -5.005))
    (stroke (width 0.12) (type solid)) (fill solid) (layer F.SilkS))
  (fp_text user ${REFERENCE} (at 0 0) (layer F.Fab)
    (effects (font (size 1 1) (thickness 0.15)))
  )
  (model ${KICAD7_3DMODEL_DIR}/Transformer_SMD.3dshapes/Transformer_Ethernet_Halo_N5_SO-16_7.11x12.7mm.wrl
    (offset (xyz 0 0 0))
    (scale (xyz 1 1 1))
    (rotate (xyz 0 0 0))
  )
)
