(footprint DFN-8-1EP_2x2mm_P0.5mm_EP0.9x1.6mm (version 20221018) (generator kicad-footprint-generator)
  (layer F.Cu)
  (descr "DFN, 8 Pin (https://www.st.com/resource/en/datasheet/lm2903.pdf#page=16), generated with kicad-footprint-generator ipc_noLead_generator.py")
  (tags "DFN NoLead")
  (attr smd)
  (fp_text reference REF** (at 0 -1.95) (layer F.SilkS)
    (effects (font (size 1 1) (thickness 0.15)))
  )
  (fp_text value DFN-8-1EP_2x2mm_P0.5mm_EP0.9x1.6mm (at 0 1.95) (layer F.Fab)
    (effects (font (size 1 1) (thickness 0.15)))
  )
  (fp_line (start -1 -1.135) (end 1 -1.135)
    (stroke (width 0.12) (type solid)) (layer F.SilkS))
  (fp_line (start -1 1.135) (end 1 1.135)
    (stroke (width 0.12) (type solid)) (layer F.SilkS))
  (fp_line (start -0.5 -1) (end 1 -1)
    (stroke (width 0.1) (type solid)) (layer F.Fab))
  (fp_line (start 1 -1) (end 1 1)
    (stroke (width 0.1) (type solid)) (layer F.Fab))
  (fp_line (start 1 1) (end -1 1)
    (stroke (width 0.1) (type solid)) (layer F.Fab))
  (fp_line (start -1 1) (end -1 -0.5)
    (stroke (width 0.1) (type solid)) (layer F.Fab))
  (fp_line (start -1 -0.5) (end -0.5 -1)
    (stroke (width 0.1) (type solid)) (layer F.Fab))
  (fp_line (start -1.63 -1.25) (end -1.63 1.25)
    (stroke (width 0.05) (type solid)) (layer F.CrtYd))
  (fp_line (start -1.63 1.25) (end 1.63 1.25)
    (stroke (width 0.05) (type solid)) (layer F.CrtYd))
  (fp_line (start 1.63 1.25) (end 1.63 -1.25)
    (stroke (width 0.05) (type solid)) (layer F.CrtYd))
  (fp_line (start 1.63 -1.25) (end -1.63 -1.25)
    (stroke (width 0.05) (type solid)) (layer F.CrtYd))
  (pad 1 smd roundrect (at -1.0125 -0.75) (size 0.725 0.25) (layers F.Cu F.Mask F.Paste) (roundrect_rratio 0.25))
  (pad 2 smd roundrect (at -1.0125 -0.25) (size 0.725 0.25) (layers F.Cu F.Mask F.Paste) (roundrect_rratio 0.25))
  (pad 3 smd roundrect (at -1.0125 0.25) (size 0.725 0.25) (layers F.Cu F.Mask F.Paste) (roundrect_rratio 0.25))
  (pad 4 smd roundrect (at -1.0125 0.75) (size 0.725 0.25) (layers F.Cu F.Mask F.Paste) (roundrect_rratio 0.25))
  (pad 5 smd roundrect (at 1.0125 0.75) (size 0.725 0.25) (layers F.Cu F.Mask F.Paste) (roundrect_rratio 0.25))
  (pad 6 smd roundrect (at 1.0125 0.25) (size 0.725 0.25) (layers F.Cu F.Mask F.Paste) (roundrect_rratio 0.25))
  (pad 7 smd roundrect (at 1.0125 -0.25) (size 0.725 0.25) (layers F.Cu F.Mask F.Paste) (roundrect_rratio 0.25))
  (pad 8 smd roundrect (at 1.0125 -0.75) (size 0.725 0.25) (layers F.Cu F.Mask F.Paste) (roundrect_rratio 0.25))
  (pad 9 smd rect (at 0 0) (size 0.9 1.6) (property pad_prop_heatsink) (layers F.Cu F.Mask)
    (zone_connect 2))
  (pad "" smd roundrect (at 0 0) (size 0.73 1.29) (layers F.Paste) (roundrect_rratio 0.25))
  (fp_poly (pts (xy -1.55 -1.05) (xy -1.91 -1.05) (xy -1.55 -1.41) (xy -1.55 -1.05))
    (stroke (width 0.12) (type solid)) (fill solid) (layer F.SilkS))
  (fp_text user ${REFERENCE} (at 0 0) (layer F.Fab)
    (effects (font (size 0.5 0.5) (thickness 0.08)))
  )
  (model ${KICAD7_3DMODEL_DIR}/Package_DFN_QFN.3dshapes/DFN-8-1EP_2x2mm_P0.5mm_EP0.9x1.6mm.wrl
    (offset (xyz 0 0 0))
    (scale (xyz 1 1 1))
    (rotate (xyz 0 0 0))
  )
)
