(footprint DFN-8-1EP_3x3mm_P0.65mm_EP1.7x2.05mm (version 20221018) (generator kicad-footprint-generator)
  (layer F.Cu)
  (descr "DFN, 8 Pin (http://www.ixysic.com/home/pdfs.nsf/www/IX4426-27-28.pdf/$file/IX4426-27-28.pdf), generated with kicad-footprint-generator ipc_noLead_generator.py")
  (tags "DFN NoLead")
  (attr smd)
  (fp_text reference REF** (at 0 -2.45) (layer F.SilkS)
    (effects (font (size 1 1) (thickness 0.15)))
  )
  (fp_text value DFN-8-1EP_3x3mm_P0.65mm_EP1.7x2.05mm (at 0 2.45) (layer F.Fab)
    (effects (font (size 1 1) (thickness 0.15)))
  )
  (fp_line (start -1.5 -1.61) (end 1.5 -1.61)
    (stroke (width 0.12) (type solid)) (layer F.SilkS))
  (fp_line (start -1.5 1.61) (end 1.5 1.61)
    (stroke (width 0.12) (type solid)) (layer F.SilkS))
  (fp_line (start -0.75 -1.5) (end 1.5 -1.5)
    (stroke (width 0.1) (type solid)) (layer F.Fab))
  (fp_line (start 1.5 -1.5) (end 1.5 1.5)
    (stroke (width 0.1) (type solid)) (layer F.Fab))
  (fp_line (start 1.5 1.5) (end -1.5 1.5)
    (stroke (width 0.1) (type solid)) (layer F.Fab))
  (fp_line (start -1.5 1.5) (end -1.5 -0.75)
    (stroke (width 0.1) (type solid)) (layer F.Fab))
  (fp_line (start -1.5 -0.75) (end -0.75 -1.5)
    (stroke (width 0.1) (type solid)) (layer F.Fab))
  (fp_line (start -2.1 -1.75) (end -2.1 1.75)
    (stroke (width 0.05) (type solid)) (layer F.CrtYd))
  (fp_line (start -2.1 1.75) (end 2.1 1.75)
    (stroke (width 0.05) (type solid)) (layer F.CrtYd))
  (fp_line (start 2.1 1.75) (end 2.1 -1.75)
    (stroke (width 0.05) (type solid)) (layer F.CrtYd))
  (fp_line (start 2.1 -1.75) (end -2.1 -1.75)
    (stroke (width 0.05) (type solid)) (layer F.CrtYd))
  (pad 1 smd roundrect (at -1.45 -0.975) (size 0.8 0.3) (layers F.Cu F.Mask F.Paste) (roundrect_rratio 0.25))
  (pad 2 smd roundrect (at -1.45 -0.325) (size 0.8 0.3) (layers F.Cu F.Mask F.Paste) (roundrect_rratio 0.25))
  (pad 3 smd roundrect (at -1.45 0.325) (size 0.8 0.3) (layers F.Cu F.Mask F.Paste) (roundrect_rratio 0.25))
  (pad 4 smd roundrect (at -1.45 0.975) (size 0.8 0.3) (layers F.Cu F.Mask F.Paste) (roundrect_rratio 0.25))
  (pad 5 smd roundrect (at 1.45 0.975) (size 0.8 0.3) (layers F.Cu F.Mask F.Paste) (roundrect_rratio 0.25))
  (pad 6 smd roundrect (at 1.45 0.325) (size 0.8 0.3) (layers F.Cu F.Mask F.Paste) (roundrect_rratio 0.25))
  (pad 7 smd roundrect (at 1.45 -0.325) (size 0.8 0.3) (layers F.Cu F.Mask F.Paste) (roundrect_rratio 0.25))
  (pad 8 smd roundrect (at 1.45 -0.975) (size 0.8 0.3) (layers F.Cu F.Mask F.Paste) (roundrect_rratio 0.25))
  (pad 9 smd rect (at 0 0) (size 1.7 2.05) (property pad_prop_heatsink) (layers F.Cu F.Mask)
    (zone_connect 2))
  (pad "" smd roundrect (at -0.425 -0.51) (size 0.69 0.83) (layers F.Paste) (roundrect_rratio 0.25))
  (pad "" smd roundrect (at -0.425 0.51) (size 0.69 0.83) (layers F.Paste) (roundrect_rratio 0.25))
  (pad "" smd roundrect (at 0.425 -0.51) (size 0.69 0.83) (layers F.Paste) (roundrect_rratio 0.25))
  (pad "" smd roundrect (at 0.425 0.51) (size 0.69 0.83) (layers F.Paste) (roundrect_rratio 0.25))
  (fp_poly (pts (xy -2.02 -1.29) (xy -2.38 -1.29) (xy -2.02 -1.65) (xy -2.02 -1.29))
    (stroke (width 0.12) (type solid)) (fill solid) (layer F.SilkS))
  (fp_text user ${REFERENCE} (at 0 0) (layer F.Fab)
    (effects (font (size 0.75 0.75) (thickness 0.11)))
  )
  (model ${KICAD7_3DMODEL_DIR}/Package_DFN_QFN.3dshapes/DFN-8-1EP_3x3mm_P0.65mm_EP1.7x2.05mm.wrl
    (offset (xyz 0 0 0))
    (scale (xyz 1 1 1))
    (rotate (xyz 0 0 0))
  )
)
