(footprint OnSemi_VCT-28_3.5x3.5mm_P0.4mm (version 20221018) (generator kicad-footprint-generator)
  (layer F.Cu)
  (descr "OnSemi  VCT, 28 Pin (http://www.onsemi.com/pub/Collateral/601AE.PDF), generated with kicad-footprint-generator ipc_noLead_generator.py")
  (tags "OnSemi VCT NoLead")
  (attr smd)
  (fp_text reference REF** (at 0 -3.05) (layer F.SilkS)
    (effects (font (size 1 1) (thickness 0.15)))
  )
  (fp_text value OnSemi_VCT-28_3.5x3.5mm_P0.4mm (at 0 3.05) (layer F.Fab)
    (effects (font (size 1 1) (thickness 0.15)))
  )
  (fp_line (start 1.56 -1.86) (end 1.86 -1.86)
    (stroke (width 0.12) (type solid)) (layer F.SilkS))
  (fp_line (start 1.86 -1.86) (end 1.86 -1.56)
    (stroke (width 0.12) (type solid)) (layer F.SilkS))
  (fp_line (start -1.56 1.86) (end -1.86 1.86)
    (stroke (width 0.12) (type solid)) (layer F.SilkS))
  (fp_line (start -1.86 1.86) (end -1.86 1.56)
    (stroke (width 0.12) (type solid)) (layer F.SilkS))
  (fp_line (start 1.56 1.86) (end 1.86 1.86)
    (stroke (width 0.12) (type solid)) (layer F.SilkS))
  (fp_line (start 1.86 1.86) (end 1.86 1.56)
    (stroke (width 0.12) (type solid)) (layer F.SilkS))
  (fp_line (start -0.875 -1.75) (end 1.75 -1.75)
    (stroke (width 0.1) (type solid)) (layer F.Fab))
  (fp_line (start 1.75 -1.75) (end 1.75 1.75)
    (stroke (width 0.1) (type solid)) (layer F.Fab))
  (fp_line (start 1.75 1.75) (end -1.75 1.75)
    (stroke (width 0.1) (type solid)) (layer F.Fab))
  (fp_line (start -1.75 1.75) (end -1.75 -0.875)
    (stroke (width 0.1) (type solid)) (layer F.Fab))
  (fp_line (start -1.75 -0.875) (end -0.875 -1.75)
    (stroke (width 0.1) (type solid)) (layer F.Fab))
  (fp_line (start -2.35 -2.35) (end -2.35 2.35)
    (stroke (width 0.05) (type solid)) (layer F.CrtYd))
  (fp_line (start -2.35 2.35) (end 2.35 2.35)
    (stroke (width 0.05) (type solid)) (layer F.CrtYd))
  (fp_line (start 2.35 2.35) (end 2.35 -2.35)
    (stroke (width 0.05) (type solid)) (layer F.CrtYd))
  (fp_line (start 2.35 -2.35) (end -2.35 -2.35)
    (stroke (width 0.05) (type solid)) (layer F.CrtYd))
  (pad 1 smd custom (at -1.7375 -1.2) (size 0.13636 0.13636) (layers F.Cu F.Mask F.Paste)
    (options (clearance outline) (anchor circle))
    (primitives
      (gr_poly (pts
         (xy -0.3125 -0.05) (xy 0.251789 -0.05) (xy 0.3125 0.010711) (xy 0.3125 0.05)
         (xy -0.3125 0.05)) (width 0.1))
    ))
  (pad 2 smd roundrect (at -1.6875 -0.8) (size 0.825 0.2) (layers F.Cu F.Mask F.Paste) (roundrect_rratio 0.25))
  (pad 3 smd roundrect (at -1.6875 -0.4) (size 0.825 0.2) (layers F.Cu F.Mask F.Paste) (roundrect_rratio 0.25))
  (pad 4 smd roundrect (at -1.6875 0) (size 0.825 0.2) (layers F.Cu F.Mask F.Paste) (roundrect_rratio 0.25))
  (pad 5 smd roundrect (at -1.6875 0.4) (size 0.825 0.2) (layers F.Cu F.Mask F.Paste) (roundrect_rratio 0.25))
  (pad 6 smd roundrect (at -1.6875 0.8) (size 0.825 0.2) (layers F.Cu F.Mask F.Paste) (roundrect_rratio 0.25))
  (pad 7 smd custom (at -1.7375 1.2) (size 0.13636 0.13636) (layers F.Cu F.Mask F.Paste)
    (options (clearance outline) (anchor circle))
    (primitives
      (gr_poly (pts
         (xy -0.3125 -0.05) (xy 0.3125 -0.05) (xy 0.3125 -0.010711) (xy 0.251789 0.05)
         (xy -0.3125 0.05)) (width 0.1))
    ))
  (pad 8 smd custom (at -1.2 1.7375) (size 0.13636 0.13636) (layers F.Cu F.Mask F.Paste)
    (options (clearance outline) (anchor circle))
    (primitives
      (gr_poly (pts
         (xy -0.05 -0.251789) (xy 0.010711 -0.3125) (xy 0.05 -0.3125) (xy 0.05 0.3125)
         (xy -0.05 0.3125)) (width 0.1))
    ))
  (pad 9 smd roundrect (at -0.8 1.6875) (size 0.2 0.825) (layers F.Cu F.Mask F.Paste) (roundrect_rratio 0.25))
  (pad 10 smd roundrect (at -0.4 1.6875) (size 0.2 0.825) (layers F.Cu F.Mask F.Paste) (roundrect_rratio 0.25))
  (pad 11 smd roundrect (at 0 1.6875) (size 0.2 0.825) (layers F.Cu F.Mask F.Paste) (roundrect_rratio 0.25))
  (pad 12 smd roundrect (at 0.4 1.6875) (size 0.2 0.825) (layers F.Cu F.Mask F.Paste) (roundrect_rratio 0.25))
  (pad 13 smd roundrect (at 0.8 1.6875) (size 0.2 0.825) (layers F.Cu F.Mask F.Paste) (roundrect_rratio 0.25))
  (pad 14 smd custom (at 1.2 1.7375) (size 0.13636 0.13636) (layers F.Cu F.Mask F.Paste)
    (options (clearance outline) (anchor circle))
    (primitives
      (gr_poly (pts
         (xy -0.05 -0.3125) (xy -0.010711 -0.3125) (xy 0.05 -0.251789) (xy 0.05 0.3125)
         (xy -0.05 0.3125)) (width 0.1))
    ))
  (pad 15 smd custom (at 1.7375 1.2) (size 0.13636 0.13636) (layers F.Cu F.Mask F.Paste)
    (options (clearance outline) (anchor circle))
    (primitives
      (gr_poly (pts
         (xy -0.3125 -0.05) (xy 0.3125 -0.05) (xy 0.3125 0.05) (xy -0.251789 0.05)
         (xy -0.3125 -0.010711)) (width 0.1))
    ))
  (pad 16 smd roundrect (at 1.6875 0.8) (size 0.825 0.2) (layers F.Cu F.Mask F.Paste) (roundrect_rratio 0.25))
  (pad 17 smd roundrect (at 1.6875 0.4) (size 0.825 0.2) (layers F.Cu F.Mask F.Paste) (roundrect_rratio 0.25))
  (pad 18 smd roundrect (at 1.6875 0) (size 0.825 0.2) (layers F.Cu F.Mask F.Paste) (roundrect_rratio 0.25))
  (pad 19 smd roundrect (at 1.6875 -0.4) (size 0.825 0.2) (layers F.Cu F.Mask F.Paste) (roundrect_rratio 0.25))
  (pad 20 smd roundrect (at 1.6875 -0.8) (size 0.825 0.2) (layers F.Cu F.Mask F.Paste) (roundrect_rratio 0.25))
  (pad 21 smd custom (at 1.7375 -1.2) (size 0.13636 0.13636) (layers F.Cu F.Mask F.Paste)
    (options (clearance outline) (anchor circle))
    (primitives
      (gr_poly (pts
         (xy -0.3125 0.010711) (xy -0.251789 -0.05) (xy 0.3125 -0.05) (xy 0.3125 0.05)
         (xy -0.3125 0.05)) (width 0.1))
    ))
  (pad 22 smd custom (at 1.2 -1.7375) (size 0.13636 0.13636) (layers F.Cu F.Mask F.Paste)
    (options (clearance outline) (anchor circle))
    (primitives
      (gr_poly (pts
         (xy -0.05 -0.3125) (xy 0.05 -0.3125) (xy 0.05 0.251789) (xy -0.010711 0.3125)
         (xy -0.05 0.3125)) (width 0.1))
    ))
  (pad 23 smd roundrect (at 0.8 -1.6875) (size 0.2 0.825) (layers F.Cu F.Mask F.Paste) (roundrect_rratio 0.25))
  (pad 24 smd roundrect (at 0.4 -1.6875) (size 0.2 0.825) (layers F.Cu F.Mask F.Paste) (roundrect_rratio 0.25))
  (pad 25 smd roundrect (at 0 -1.6875) (size 0.2 0.825) (layers F.Cu F.Mask F.Paste) (roundrect_rratio 0.25))
  (pad 26 smd roundrect (at -0.4 -1.6875) (size 0.2 0.825) (layers F.Cu F.Mask F.Paste) (roundrect_rratio 0.25))
  (pad 27 smd roundrect (at -0.8 -1.6875) (size 0.2 0.825) (layers F.Cu F.Mask F.Paste) (roundrect_rratio 0.25))
  (pad 28 smd custom (at -1.2 -1.7375) (size 0.13636 0.13636) (layers F.Cu F.Mask F.Paste)
    (options (clearance outline) (anchor circle))
    (primitives
      (gr_poly (pts
         (xy -0.05 -0.3125) (xy 0.05 -0.3125) (xy 0.05 0.3125) (xy 0.010711 0.3125)
         (xy -0.05 0.251789)) (width 0.1))
    ))
  (fp_poly (pts (xy -1.86 -1.86) (xy -2.04 -2.112) (xy -1.68 -2.112) (xy -1.86 -1.86))
    (stroke (width 0.12) (type solid)) (fill solid) (layer F.SilkS))
  (fp_text user ${REFERENCE} (at 0 0) (layer F.Fab)
    (effects (font (size 0.88 0.88) (thickness 0.13)))
  )
  (model ${KICAD7_3DMODEL_DIR}/Package_DFN_QFN.3dshapes/OnSemi_VCT-28_3.5x3.5mm_P0.4mm.wrl
    (offset (xyz 0 0 0))
    (scale (xyz 1 1 1))
    (rotate (xyz 0 0 0))
  )
)
