(footprint QFN-20-1EP_3.5x3.5mm_P0.5mm_EP2x2mm (version 20221018) (generator kicad-footprint-generator)
  (layer F.Cu)
  (descr "QFN, 20 Pin (http://www.ti.com/lit/ml/mpqf239/mpqf239.pdf), generated with kicad-footprint-generator ipc_noLead_generator.py")
  (tags "QFN NoLead")
  (attr smd)
  (fp_text reference REF** (at 0 -3.08) (layer F.SilkS)
    (effects (font (size 1 1) (thickness 0.15)))
  )
  (fp_text value QFN-20-1EP_3.5x3.5mm_P0.5mm_EP2x2mm (at 0 3.08) (layer F.Fab)
    (effects (font (size 1 1) (thickness 0.15)))
  )
  (fp_line (start -1.385 -1.86) (end -1.56 -1.86)
    (stroke (width 0.12) (type solid)) (layer F.SilkS))
  (fp_line (start -1.86 -1.385) (end -1.86 -1.62)
    (stroke (width 0.12) (type solid)) (layer F.SilkS))
  (fp_line (start 1.385 -1.86) (end 1.86 -1.86)
    (stroke (width 0.12) (type solid)) (layer F.SilkS))
  (fp_line (start 1.86 -1.86) (end 1.86 -1.385)
    (stroke (width 0.12) (type solid)) (layer F.SilkS))
  (fp_line (start -1.385 1.86) (end -1.86 1.86)
    (stroke (width 0.12) (type solid)) (layer F.SilkS))
  (fp_line (start -1.86 1.86) (end -1.86 1.385)
    (stroke (width 0.12) (type solid)) (layer F.SilkS))
  (fp_line (start 1.385 1.86) (end 1.86 1.86)
    (stroke (width 0.12) (type solid)) (layer F.SilkS))
  (fp_line (start 1.86 1.86) (end 1.86 1.385)
    (stroke (width 0.12) (type solid)) (layer F.SilkS))
  (fp_line (start -0.875 -1.75) (end 1.75 -1.75)
    (stroke (width 0.1) (type solid)) (layer F.Fab))
  (fp_line (start 1.75 -1.75) (end 1.75 1.75)
    (stroke (width 0.1) (type solid)) (layer F.Fab))
  (fp_line (start 1.75 1.75) (end -1.75 1.75)
    (stroke (width 0.1) (type solid)) (layer F.Fab))
  (fp_line (start -1.75 1.75) (end -1.75 -0.875)
    (stroke (width 0.1) (type solid)) (layer F.Fab))
  (fp_line (start -1.75 -0.875) (end -0.875 -1.75)
    (stroke (width 0.1) (type solid)) (layer F.Fab))
  (fp_line (start -2.38 -2.38) (end -2.38 2.38)
    (stroke (width 0.05) (type solid)) (layer F.CrtYd))
  (fp_line (start -2.38 2.38) (end 2.38 2.38)
    (stroke (width 0.05) (type solid)) (layer F.CrtYd))
  (fp_line (start 2.38 2.38) (end 2.38 -2.38)
    (stroke (width 0.05) (type solid)) (layer F.CrtYd))
  (fp_line (start 2.38 -2.38) (end -2.38 -2.38)
    (stroke (width 0.05) (type solid)) (layer F.CrtYd))
  (pad 1 smd roundrect (at -1.6875 -1) (size 0.875 0.25) (layers F.Cu F.Mask F.Paste) (roundrect_rratio 0.25))
  (pad 2 smd roundrect (at -1.6875 -0.5) (size 0.875 0.25) (layers F.Cu F.Mask F.Paste) (roundrect_rratio 0.25))
  (pad 3 smd roundrect (at -1.6875 0) (size 0.875 0.25) (layers F.Cu F.Mask F.Paste) (roundrect_rratio 0.25))
  (pad 4 smd roundrect (at -1.6875 0.5) (size 0.875 0.25) (layers F.Cu F.Mask F.Paste) (roundrect_rratio 0.25))
  (pad 5 smd roundrect (at -1.6875 1) (size 0.875 0.25) (layers F.Cu F.Mask F.Paste) (roundrect_rratio 0.25))
  (pad 6 smd roundrect (at -1 1.6875) (size 0.25 0.875) (layers F.Cu F.Mask F.Paste) (roundrect_rratio 0.25))
  (pad 7 smd roundrect (at -0.5 1.6875) (size 0.25 0.875) (layers F.Cu F.Mask F.Paste) (roundrect_rratio 0.25))
  (pad 8 smd roundrect (at 0 1.6875) (size 0.25 0.875) (layers F.Cu F.Mask F.Paste) (roundrect_rratio 0.25))
  (pad 9 smd roundrect (at 0.5 1.6875) (size 0.25 0.875) (layers F.Cu F.Mask F.Paste) (roundrect_rratio 0.25))
  (pad 10 smd roundrect (at 1 1.6875) (size 0.25 0.875) (layers F.Cu F.Mask F.Paste) (roundrect_rratio 0.25))
  (pad 11 smd roundrect (at 1.6875 1) (size 0.875 0.25) (layers F.Cu F.Mask F.Paste) (roundrect_rratio 0.25))
  (pad 12 smd roundrect (at 1.6875 0.5) (size 0.875 0.25) (layers F.Cu F.Mask F.Paste) (roundrect_rratio 0.25))
  (pad 13 smd roundrect (at 1.6875 0) (size 0.875 0.25) (layers F.Cu F.Mask F.Paste) (roundrect_rratio 0.25))
  (pad 14 smd roundrect (at 1.6875 -0.5) (size 0.875 0.25) (layers F.Cu F.Mask F.Paste) (roundrect_rratio 0.25))
  (pad 15 smd roundrect (at 1.6875 -1) (size 0.875 0.25) (layers F.Cu F.Mask F.Paste) (roundrect_rratio 0.25))
  (pad 16 smd roundrect (at 1 -1.6875) (size 0.25 0.875) (layers F.Cu F.Mask F.Paste) (roundrect_rratio 0.25))
  (pad 17 smd roundrect (at 0.5 -1.6875) (size 0.25 0.875) (layers F.Cu F.Mask F.Paste) (roundrect_rratio 0.25))
  (pad 18 smd roundrect (at 0 -1.6875) (size 0.25 0.875) (layers F.Cu F.Mask F.Paste) (roundrect_rratio 0.25))
  (pad 19 smd roundrect (at -0.5 -1.6875) (size 0.25 0.875) (layers F.Cu F.Mask F.Paste) (roundrect_rratio 0.25))
  (pad 20 smd roundrect (at -1 -1.6875) (size 0.25 0.875) (layers F.Cu F.Mask F.Paste) (roundrect_rratio 0.25))
  (pad 21 smd rect (at 0 0) (size 2 2) (property pad_prop_heatsink) (layers F.Cu F.Mask)
    (zone_connect 2))
  (pad "" smd roundrect (at -0.5 -0.5) (size 0.81 0.81) (layers F.Paste) (roundrect_rratio 0.25))
  (pad "" smd roundrect (at -0.5 0.5) (size 0.81 0.81) (layers F.Paste) (roundrect_rratio 0.25))
  (pad "" smd roundrect (at 0.5 -0.5) (size 0.81 0.81) (layers F.Paste) (roundrect_rratio 0.25))
  (pad "" smd roundrect (at 0.5 0.5) (size 0.81 0.81) (layers F.Paste) (roundrect_rratio 0.25))
  (fp_poly (pts (xy -1.86 -1.86) (xy -2.04 -2.112) (xy -1.68 -2.112) (xy -1.86 -1.86))
    (stroke (width 0.12) (type solid)) (fill solid) (layer F.SilkS))
  (fp_text user ${REFERENCE} (at 0 0) (layer F.Fab)
    (effects (font (size 0.88 0.88) (thickness 0.13)))
  )
  (model ${KICAD7_3DMODEL_DIR}/Package_DFN_QFN.3dshapes/QFN-20-1EP_3.5x3.5mm_P0.5mm_EP2x2mm.wrl
    (offset (xyz 0 0 0))
    (scale (xyz 1 1 1))
    (rotate (xyz 0 0 0))
  )
)
