(footprint QFN-28-1EP_5x5mm_P0.5mm_EP3.75x3.75mm (version 20221018) (generator kicad-footprint-generator)
  (layer F.Cu)
  (descr "QFN, 28 Pin (https://www.cmlmicro.com/wp-content/uploads/2017/10/CMX901_ds.pdf), generated with kicad-footprint-generator ipc_noLead_generator.py")
  (tags "QFN NoLead")
  (attr smd)
  (fp_text reference REF** (at 0 -3.81) (layer F.SilkS)
    (effects (font (size 1 1) (thickness 0.15)))
  )
  (fp_text value QFN-28-1EP_5x5mm_P0.5mm_EP3.75x3.75mm (at 0 3.81) (layer F.Fab)
    (effects (font (size 1 1) (thickness 0.15)))
  )
  (fp_line (start -1.885 -2.61) (end -2.31 -2.61)
    (stroke (width 0.12) (type solid)) (layer F.SilkS))
  (fp_line (start -2.61 -1.885) (end -2.61 -2.37)
    (stroke (width 0.12) (type solid)) (layer F.SilkS))
  (fp_line (start 1.885 -2.61) (end 2.61 -2.61)
    (stroke (width 0.12) (type solid)) (layer F.SilkS))
  (fp_line (start 2.61 -2.61) (end 2.61 -1.885)
    (stroke (width 0.12) (type solid)) (layer F.SilkS))
  (fp_line (start -1.885 2.61) (end -2.61 2.61)
    (stroke (width 0.12) (type solid)) (layer F.SilkS))
  (fp_line (start -2.61 2.61) (end -2.61 1.885)
    (stroke (width 0.12) (type solid)) (layer F.SilkS))
  (fp_line (start 1.885 2.61) (end 2.61 2.61)
    (stroke (width 0.12) (type solid)) (layer F.SilkS))
  (fp_line (start 2.61 2.61) (end 2.61 1.885)
    (stroke (width 0.12) (type solid)) (layer F.SilkS))
  (fp_line (start -1.5 -2.5) (end 2.5 -2.5)
    (stroke (width 0.1) (type solid)) (layer F.Fab))
  (fp_line (start 2.5 -2.5) (end 2.5 2.5)
    (stroke (width 0.1) (type solid)) (layer F.Fab))
  (fp_line (start 2.5 2.5) (end -2.5 2.5)
    (stroke (width 0.1) (type solid)) (layer F.Fab))
  (fp_line (start -2.5 2.5) (end -2.5 -1.5)
    (stroke (width 0.1) (type solid)) (layer F.Fab))
  (fp_line (start -2.5 -1.5) (end -1.5 -2.5)
    (stroke (width 0.1) (type solid)) (layer F.Fab))
  (fp_line (start -3.11 -3.11) (end -3.11 3.11)
    (stroke (width 0.05) (type solid)) (layer F.CrtYd))
  (fp_line (start -3.11 3.11) (end 3.11 3.11)
    (stroke (width 0.05) (type solid)) (layer F.CrtYd))
  (fp_line (start 3.11 3.11) (end 3.11 -3.11)
    (stroke (width 0.05) (type solid)) (layer F.CrtYd))
  (fp_line (start 3.11 -3.11) (end -3.11 -3.11)
    (stroke (width 0.05) (type solid)) (layer F.CrtYd))
  (pad 1 smd roundrect (at -2.4625 -1.5) (size 0.775 0.25) (layers F.Cu F.Mask F.Paste) (roundrect_rratio 0.25))
  (pad 2 smd roundrect (at -2.4625 -1) (size 0.775 0.25) (layers F.Cu F.Mask F.Paste) (roundrect_rratio 0.25))
  (pad 3 smd roundrect (at -2.4625 -0.5) (size 0.775 0.25) (layers F.Cu F.Mask F.Paste) (roundrect_rratio 0.25))
  (pad 4 smd roundrect (at -2.4625 0) (size 0.775 0.25) (layers F.Cu F.Mask F.Paste) (roundrect_rratio 0.25))
  (pad 5 smd roundrect (at -2.4625 0.5) (size 0.775 0.25) (layers F.Cu F.Mask F.Paste) (roundrect_rratio 0.25))
  (pad 6 smd roundrect (at -2.4625 1) (size 0.775 0.25) (layers F.Cu F.Mask F.Paste) (roundrect_rratio 0.25))
  (pad 7 smd roundrect (at -2.4625 1.5) (size 0.775 0.25) (layers F.Cu F.Mask F.Paste) (roundrect_rratio 0.25))
  (pad 8 smd roundrect (at -1.5 2.4625) (size 0.25 0.775) (layers F.Cu F.Mask F.Paste) (roundrect_rratio 0.25))
  (pad 9 smd roundrect (at -1 2.4625) (size 0.25 0.775) (layers F.Cu F.Mask F.Paste) (roundrect_rratio 0.25))
  (pad 10 smd roundrect (at -0.5 2.4625) (size 0.25 0.775) (layers F.Cu F.Mask F.Paste) (roundrect_rratio 0.25))
  (pad 11 smd roundrect (at 0 2.4625) (size 0.25 0.775) (layers F.Cu F.Mask F.Paste) (roundrect_rratio 0.25))
  (pad 12 smd roundrect (at 0.5 2.4625) (size 0.25 0.775) (layers F.Cu F.Mask F.Paste) (roundrect_rratio 0.25))
  (pad 13 smd roundrect (at 1 2.4625) (size 0.25 0.775) (layers F.Cu F.Mask F.Paste) (roundrect_rratio 0.25))
  (pad 14 smd roundrect (at 1.5 2.4625) (size 0.25 0.775) (layers F.Cu F.Mask F.Paste) (roundrect_rratio 0.25))
  (pad 15 smd roundrect (at 2.4625 1.5) (size 0.775 0.25) (layers F.Cu F.Mask F.Paste) (roundrect_rratio 0.25))
  (pad 16 smd roundrect (at 2.4625 1) (size 0.775 0.25) (layers F.Cu F.Mask F.Paste) (roundrect_rratio 0.25))
  (pad 17 smd roundrect (at 2.4625 0.5) (size 0.775 0.25) (layers F.Cu F.Mask F.Paste) (roundrect_rratio 0.25))
  (pad 18 smd roundrect (at 2.4625 0) (size 0.775 0.25) (layers F.Cu F.Mask F.Paste) (roundrect_rratio 0.25))
  (pad 19 smd roundrect (at 2.4625 -0.5) (size 0.775 0.25) (layers F.Cu F.Mask F.Paste) (roundrect_rratio 0.25))
  (pad 20 smd roundrect (at 2.4625 -1) (size 0.775 0.25) (layers F.Cu F.Mask F.Paste) (roundrect_rratio 0.25))
  (pad 21 smd roundrect (at 2.4625 -1.5) (size 0.775 0.25) (layers F.Cu F.Mask F.Paste) (roundrect_rratio 0.25))
  (pad 22 smd roundrect (at 1.5 -2.4625) (size 0.25 0.775) (layers F.Cu F.Mask F.Paste) (roundrect_rratio 0.25))
  (pad 23 smd roundrect (at 1 -2.4625) (size 0.25 0.775) (layers F.Cu F.Mask F.Paste) (roundrect_rratio 0.25))
  (pad 24 smd roundrect (at 0.5 -2.4625) (size 0.25 0.775) (layers F.Cu F.Mask F.Paste) (roundrect_rratio 0.25))
  (pad 25 smd roundrect (at 0 -2.4625) (size 0.25 0.775) (layers F.Cu F.Mask F.Paste) (roundrect_rratio 0.25))
  (pad 26 smd roundrect (at -0.5 -2.4625) (size 0.25 0.775) (layers F.Cu F.Mask F.Paste) (roundrect_rratio 0.25))
  (pad 27 smd roundrect (at -1 -2.4625) (size 0.25 0.775) (layers F.Cu F.Mask F.Paste) (roundrect_rratio 0.25))
  (pad 28 smd roundrect (at -1.5 -2.4625) (size 0.25 0.775) (layers F.Cu F.Mask F.Paste) (roundrect_rratio 0.25))
  (pad 29 smd rect (at 0 0) (size 3.75 3.75) (property pad_prop_heatsink) (layers F.Cu F.Mask)
    (zone_connect 2))
  (pad "" smd roundrect (at -1.25 -1.25) (size 1.01 1.01) (layers F.Paste) (roundrect_rratio 0.247525))
  (pad "" smd roundrect (at -1.25 0) (size 1.01 1.01) (layers F.Paste) (roundrect_rratio 0.247525))
  (pad "" smd roundrect (at -1.25 1.25) (size 1.01 1.01) (layers F.Paste) (roundrect_rratio 0.247525))
  (pad "" smd roundrect (at 0 -1.25) (size 1.01 1.01) (layers F.Paste) (roundrect_rratio 0.247525))
  (pad "" smd roundrect (at 0 0) (size 1.01 1.01) (layers F.Paste) (roundrect_rratio 0.247525))
  (pad "" smd roundrect (at 0 1.25) (size 1.01 1.01) (layers F.Paste) (roundrect_rratio 0.247525))
  (pad "" smd roundrect (at 1.25 -1.25) (size 1.01 1.01) (layers F.Paste) (roundrect_rratio 0.247525))
  (pad "" smd roundrect (at 1.25 0) (size 1.01 1.01) (layers F.Paste) (roundrect_rratio 0.247525))
  (pad "" smd roundrect (at 1.25 1.25) (size 1.01 1.01) (layers F.Paste) (roundrect_rratio 0.247525))
  (fp_poly (pts (xy -2.61 -2.61) (xy -2.79 -2.862) (xy -2.43 -2.862) (xy -2.61 -2.61))
    (stroke (width 0.12) (type solid)) (fill solid) (layer F.SilkS))
  (fp_text user ${REFERENCE} (at 0 0) (layer F.Fab)
    (effects (font (size 1 1) (thickness 0.15)))
  )
  (model ${KICAD7_3DMODEL_DIR}/Package_DFN_QFN.3dshapes/QFN-28-1EP_5x5mm_P0.5mm_EP3.75x3.75mm.wrl
    (offset (xyz 0 0 0))
    (scale (xyz 1 1 1))
    (rotate (xyz 0 0 0))
  )
)
