(footprint QFN-28-1EP_3x6mm_P0.5mm_EP1.7x4.75mm_ThermalVias (version 20221018) (generator kicad-footprint-generator)
  (layer F.Cu)
  (descr "QFN, 28 Pin (http://www.analog.com/media/en/package-pcb-resources/package/pkg_pdf/ltc-legacy-qfn/05081926_0_UDE28.pdf), generated with kicad-footprint-generator ipc_noLead_generator.py")
  (tags "QFN NoLead")
  (attr smd)
  (fp_text reference REF** (at 0 -4.33) (layer F.SilkS)
    (effects (font (size 1 1) (thickness 0.15)))
  )
  (fp_text value QFN-28-1EP_3x6mm_P0.5mm_EP1.7x4.75mm_ThermalVias (at 0 4.33) (layer F.Fab)
    (effects (font (size 1 1) (thickness 0.15)))
  )
  (fp_line (start -1.135 -3.11) (end -1.31 -3.11)
    (stroke (width 0.12) (type solid)) (layer F.SilkS))
  (fp_line (start -1.61 -2.635) (end -1.61 -2.87)
    (stroke (width 0.12) (type solid)) (layer F.SilkS))
  (fp_line (start 1.135 -3.11) (end 1.61 -3.11)
    (stroke (width 0.12) (type solid)) (layer F.SilkS))
  (fp_line (start 1.61 -3.11) (end 1.61 -2.635)
    (stroke (width 0.12) (type solid)) (layer F.SilkS))
  (fp_line (start -1.135 3.11) (end -1.61 3.11)
    (stroke (width 0.12) (type solid)) (layer F.SilkS))
  (fp_line (start -1.61 3.11) (end -1.61 2.635)
    (stroke (width 0.12) (type solid)) (layer F.SilkS))
  (fp_line (start 1.135 3.11) (end 1.61 3.11)
    (stroke (width 0.12) (type solid)) (layer F.SilkS))
  (fp_line (start 1.61 3.11) (end 1.61 2.635)
    (stroke (width 0.12) (type solid)) (layer F.SilkS))
  (fp_line (start -0.75 -3) (end 1.5 -3)
    (stroke (width 0.1) (type solid)) (layer F.Fab))
  (fp_line (start 1.5 -3) (end 1.5 3)
    (stroke (width 0.1) (type solid)) (layer F.Fab))
  (fp_line (start 1.5 3) (end -1.5 3)
    (stroke (width 0.1) (type solid)) (layer F.Fab))
  (fp_line (start -1.5 3) (end -1.5 -2.25)
    (stroke (width 0.1) (type solid)) (layer F.Fab))
  (fp_line (start -1.5 -2.25) (end -0.75 -3)
    (stroke (width 0.1) (type solid)) (layer F.Fab))
  (fp_line (start -2.13 -3.63) (end -2.13 3.63)
    (stroke (width 0.05) (type solid)) (layer F.CrtYd))
  (fp_line (start -2.13 3.63) (end 2.13 3.63)
    (stroke (width 0.05) (type solid)) (layer F.CrtYd))
  (fp_line (start 2.13 3.63) (end 2.13 -3.63)
    (stroke (width 0.05) (type solid)) (layer F.CrtYd))
  (fp_line (start 2.13 -3.63) (end -2.13 -3.63)
    (stroke (width 0.05) (type solid)) (layer F.CrtYd))
  (pad 1 smd roundrect (at -1.4625 -2.25) (size 0.825 0.25) (layers F.Cu F.Mask F.Paste) (roundrect_rratio 0.25))
  (pad 2 smd roundrect (at -1.4625 -1.75) (size 0.825 0.25) (layers F.Cu F.Mask F.Paste) (roundrect_rratio 0.25))
  (pad 3 smd roundrect (at -1.4625 -1.25) (size 0.825 0.25) (layers F.Cu F.Mask F.Paste) (roundrect_rratio 0.25))
  (pad 4 smd roundrect (at -1.4625 -0.75) (size 0.825 0.25) (layers F.Cu F.Mask F.Paste) (roundrect_rratio 0.25))
  (pad 5 smd roundrect (at -1.4625 -0.25) (size 0.825 0.25) (layers F.Cu F.Mask F.Paste) (roundrect_rratio 0.25))
  (pad 6 smd roundrect (at -1.4625 0.25) (size 0.825 0.25) (layers F.Cu F.Mask F.Paste) (roundrect_rratio 0.25))
  (pad 7 smd roundrect (at -1.4625 0.75) (size 0.825 0.25) (layers F.Cu F.Mask F.Paste) (roundrect_rratio 0.25))
  (pad 8 smd roundrect (at -1.4625 1.25) (size 0.825 0.25) (layers F.Cu F.Mask F.Paste) (roundrect_rratio 0.25))
  (pad 9 smd roundrect (at -1.4625 1.75) (size 0.825 0.25) (layers F.Cu F.Mask F.Paste) (roundrect_rratio 0.25))
  (pad 10 smd roundrect (at -1.4625 2.25) (size 0.825 0.25) (layers F.Cu F.Mask F.Paste) (roundrect_rratio 0.25))
  (pad 11 smd roundrect (at -0.75 2.975) (size 0.25 0.8) (layers F.Cu F.Mask F.Paste) (roundrect_rratio 0.25))
  (pad 12 smd roundrect (at -0.25 2.975) (size 0.25 0.8) (layers F.Cu F.Mask F.Paste) (roundrect_rratio 0.25))
  (pad 13 smd roundrect (at 0.25 2.975) (size 0.25 0.8) (layers F.Cu F.Mask F.Paste) (roundrect_rratio 0.25))
  (pad 14 smd roundrect (at 0.75 2.975) (size 0.25 0.8) (layers F.Cu F.Mask F.Paste) (roundrect_rratio 0.25))
  (pad 15 smd roundrect (at 1.4625 2.25) (size 0.825 0.25) (layers F.Cu F.Mask F.Paste) (roundrect_rratio 0.25))
  (pad 16 smd roundrect (at 1.4625 1.75) (size 0.825 0.25) (layers F.Cu F.Mask F.Paste) (roundrect_rratio 0.25))
  (pad 17 smd roundrect (at 1.4625 1.25) (size 0.825 0.25) (layers F.Cu F.Mask F.Paste) (roundrect_rratio 0.25))
  (pad 18 smd roundrect (at 1.4625 0.75) (size 0.825 0.25) (layers F.Cu F.Mask F.Paste) (roundrect_rratio 0.25))
  (pad 19 smd roundrect (at 1.4625 0.25) (size 0.825 0.25) (layers F.Cu F.Mask F.Paste) (roundrect_rratio 0.25))
  (pad 20 smd roundrect (at 1.4625 -0.25) (size 0.825 0.25) (layers F.Cu F.Mask F.Paste) (roundrect_rratio 0.25))
  (pad 21 smd roundrect (at 1.4625 -0.75) (size 0.825 0.25) (layers F.Cu F.Mask F.Paste) (roundrect_rratio 0.25))
  (pad 22 smd roundrect (at 1.4625 -1.25) (size 0.825 0.25) (layers F.Cu F.Mask F.Paste) (roundrect_rratio 0.25))
  (pad 23 smd roundrect (at 1.4625 -1.75) (size 0.825 0.25) (layers F.Cu F.Mask F.Paste) (roundrect_rratio 0.25))
  (pad 24 smd roundrect (at 1.4625 -2.25) (size 0.825 0.25) (layers F.Cu F.Mask F.Paste) (roundrect_rratio 0.25))
  (pad 25 smd roundrect (at 0.75 -2.975) (size 0.25 0.8) (layers F.Cu F.Mask F.Paste) (roundrect_rratio 0.25))
  (pad 26 smd roundrect (at 0.25 -2.975) (size 0.25 0.8) (layers F.Cu F.Mask F.Paste) (roundrect_rratio 0.25))
  (pad 27 smd roundrect (at -0.25 -2.975) (size 0.25 0.8) (layers F.Cu F.Mask F.Paste) (roundrect_rratio 0.25))
  (pad 28 smd roundrect (at -0.75 -2.975) (size 0.25 0.8) (layers F.Cu F.Mask F.Paste) (roundrect_rratio 0.25))
  (pad 29 smd rect (at 0 0) (size 1.7 4.75) (property pad_prop_heatsink) (layers F.Cu F.Mask)
    (zone_connect 2))
  (pad 29 thru_hole circle (at -0.5 -1.5) (size 0.5 0.5) (drill 0.2) (property pad_prop_heatsink) (layers *.Cu))
  (pad 29 thru_hole circle (at 0.5 -1.5) (size 0.5 0.5) (drill 0.2) (property pad_prop_heatsink) (layers *.Cu))
  (pad 29 thru_hole circle (at -0.5 -0.5) (size 0.5 0.5) (drill 0.2) (property pad_prop_heatsink) (layers *.Cu))
  (pad 29 thru_hole circle (at 0.5 -0.5) (size 0.5 0.5) (drill 0.2) (property pad_prop_heatsink) (layers *.Cu))
  (pad 29 thru_hole circle (at -0.5 0.5) (size 0.5 0.5) (drill 0.2) (property pad_prop_heatsink) (layers *.Cu))
  (pad 29 thru_hole circle (at 0.5 0.5) (size 0.5 0.5) (drill 0.2) (property pad_prop_heatsink) (layers *.Cu))
  (pad 29 thru_hole circle (at -0.5 1.5) (size 0.5 0.5) (drill 0.2) (property pad_prop_heatsink) (layers *.Cu))
  (pad 29 thru_hole circle (at 0.5 1.5) (size 0.5 0.5) (drill 0.2) (property pad_prop_heatsink) (layers *.Cu))
  (pad 29 smd rect (at 0 0) (size 1.5 3.5) (property pad_prop_heatsink) (layers B.Cu)
    (zone_connect 2))
  (pad "" smd roundrect (at 0 -1) (size 0.806226 0.806226) (layers F.Paste) (roundrect_rratio 0.25))
  (pad "" smd roundrect (at 0 0) (size 0.806226 0.806226) (layers F.Paste) (roundrect_rratio 0.25))
  (pad "" smd roundrect (at 0 1) (size 0.806226 0.806226) (layers F.Paste) (roundrect_rratio 0.25))
  (pad "" smd custom (at -0.675 -1) (size 0.174667 0.174667) (layers F.Paste)
    (options (clearance outline) (anchor circle))
    (primitives
      (gr_poly (pts
         (xy -0.076023 -0.338046) (xy -0.037907 -0.338046) (xy 0.076023 -0.224116) (xy 0.076023 0.224116)
         (xy -0.037907 0.338046) (xy -0.076023 0.338046)) (width 0.130134))
    ))
  (pad "" smd custom (at -0.675 0) (size 0.174667 0.174667) (layers F.Paste)
    (options (clearance outline) (anchor circle))
    (primitives
      (gr_poly (pts
         (xy -0.076023 -0.338046) (xy -0.037907 -0.338046) (xy 0.076023 -0.224116) (xy 0.076023 0.224116)
         (xy -0.037907 0.338046) (xy -0.076023 0.338046)) (width 0.130134))
    ))
  (pad "" smd custom (at -0.675 1) (size 0.174667 0.174667) (layers F.Paste)
    (options (clearance outline) (anchor circle))
    (primitives
      (gr_poly (pts
         (xy -0.076023 -0.338046) (xy -0.037907 -0.338046) (xy 0.076023 -0.224116) (xy 0.076023 0.224116)
         (xy -0.037907 0.338046) (xy -0.076023 0.338046)) (width 0.130134))
    ))
  (pad "" smd custom (at 0.675 -1) (size 0.174667 0.174667) (layers F.Paste)
    (options (clearance outline) (anchor circle))
    (primitives
      (gr_poly (pts
         (xy -0.076023 -0.224116) (xy 0.037907 -0.338046) (xy 0.076023 -0.338046) (xy 0.076023 0.338046)
         (xy 0.037907 0.338046) (xy -0.076023 0.224116)) (width 0.130134))
    ))
  (pad "" smd custom (at 0.675 0) (size 0.174667 0.174667) (layers F.Paste)
    (options (clearance outline) (anchor circle))
    (primitives
      (gr_poly (pts
         (xy -0.076023 -0.224116) (xy 0.037907 -0.338046) (xy 0.076023 -0.338046) (xy 0.076023 0.338046)
         (xy 0.037907 0.338046) (xy -0.076023 0.224116)) (width 0.130134))
    ))
  (pad "" smd custom (at 0.675 1) (size 0.174667 0.174667) (layers F.Paste)
    (options (clearance outline) (anchor circle))
    (primitives
      (gr_poly (pts
         (xy -0.076023 -0.224116) (xy 0.037907 -0.338046) (xy 0.076023 -0.338046) (xy 0.076023 0.338046)
         (xy 0.037907 0.338046) (xy -0.076023 0.224116)) (width 0.130134))
    ))
  (pad "" smd roundrect (at 0 -1.9375) (size 0.806226 0.705448) (layers F.Paste) (roundrect_rratio 0.25))
  (pad "" smd roundrect (at 0 1.9375) (size 0.806226 0.705448) (layers F.Paste) (roundrect_rratio 0.25))
  (pad "" smd custom (at -0.675 -1.9375) (size 0.166103 0.166103) (layers F.Paste)
    (options (clearance outline) (anchor circle))
    (primitives
      (gr_poly (pts
         (xy -0.082078 -0.293712) (xy 0.082078 -0.293712) (xy 0.082078 0.164124) (xy -0.04751 0.293712)
         (xy -0.082078 0.293712)) (width 0.118023))
    ))
  (pad "" smd custom (at -0.675 1.9375) (size 0.166103 0.166103) (layers F.Paste)
    (options (clearance outline) (anchor circle))
    (primitives
      (gr_poly (pts
         (xy -0.082078 -0.293712) (xy -0.04751 -0.293712) (xy 0.082078 -0.164124) (xy 0.082078 0.293712)
         (xy -0.082078 0.293712)) (width 0.118023))
    ))
  (pad "" smd custom (at 0.675 -1.9375) (size 0.166103 0.166103) (layers F.Paste)
    (options (clearance outline) (anchor circle))
    (primitives
      (gr_poly (pts
         (xy -0.082078 -0.293712) (xy 0.082078 -0.293712) (xy 0.082078 0.293712) (xy 0.04751 0.293712)
         (xy -0.082078 0.164124)) (width 0.118023))
    ))
  (pad "" smd custom (at 0.675 1.9375) (size 0.166103 0.166103) (layers F.Paste)
    (options (clearance outline) (anchor circle))
    (primitives
      (gr_poly (pts
         (xy -0.082078 -0.164124) (xy 0.04751 -0.293712) (xy 0.082078 -0.293712) (xy 0.082078 0.293712)
         (xy -0.082078 0.293712)) (width 0.118023))
    ))
  (fp_poly (pts (xy -1.61 -3.11) (xy -1.79 -3.362) (xy -1.43 -3.362) (xy -1.61 -3.11))
    (stroke (width 0.12) (type solid)) (fill solid) (layer F.SilkS))
  (fp_text user ${REFERENCE} (at 0 0 90) (layer F.Fab)
    (effects (font (size 1 1) (thickness 0.15)))
  )
  (model ${KICAD7_3DMODEL_DIR}/Package_DFN_QFN.3dshapes/QFN-28-1EP_3x6mm_P0.5mm_EP1.7x4.75mm.wrl
    (offset (xyz 0 0 0))
    (scale (xyz 1 1 1))
    (rotate (xyz 0 0 0))
  )
)
