(footprint QFN-32-1EP_7x7mm_P0.65mm_EP4.65x4.65mm_ThermalVias (version 20221018) (generator kicad-footprint-generator)
  (layer F.Cu)
  (descr "QFN, 32 Pin (http://ww1.microchip.com/downloads/en/DeviceDoc/Atmel-8209-8-bit%20AVR%20ATmega16M1-32M1-64M1_Datasheet.pdf#page=426), generated with kicad-footprint-generator ipc_noLead_generator.py")
  (tags "QFN NoLead")
  (attr smd)
  (fp_text reference REF** (at 0 -4.81) (layer F.SilkS)
    (effects (font (size 1 1) (thickness 0.15)))
  )
  (fp_text value QFN-32-1EP_7x7mm_P0.65mm_EP4.65x4.65mm_ThermalVias (at 0 4.81) (layer F.Fab)
    (effects (font (size 1 1) (thickness 0.15)))
  )
  (fp_line (start -2.71 -3.61) (end -3.31 -3.61)
    (stroke (width 0.12) (type solid)) (layer F.SilkS))
  (fp_line (start -3.61 -2.71) (end -3.61 -3.37)
    (stroke (width 0.12) (type solid)) (layer F.SilkS))
  (fp_line (start 2.71 -3.61) (end 3.61 -3.61)
    (stroke (width 0.12) (type solid)) (layer F.SilkS))
  (fp_line (start 3.61 -3.61) (end 3.61 -2.71)
    (stroke (width 0.12) (type solid)) (layer F.SilkS))
  (fp_line (start -2.71 3.61) (end -3.61 3.61)
    (stroke (width 0.12) (type solid)) (layer F.SilkS))
  (fp_line (start -3.61 3.61) (end -3.61 2.71)
    (stroke (width 0.12) (type solid)) (layer F.SilkS))
  (fp_line (start 2.71 3.61) (end 3.61 3.61)
    (stroke (width 0.12) (type solid)) (layer F.SilkS))
  (fp_line (start 3.61 3.61) (end 3.61 2.71)
    (stroke (width 0.12) (type solid)) (layer F.SilkS))
  (fp_line (start -2.5 -3.5) (end 3.5 -3.5)
    (stroke (width 0.1) (type solid)) (layer F.Fab))
  (fp_line (start 3.5 -3.5) (end 3.5 3.5)
    (stroke (width 0.1) (type solid)) (layer F.Fab))
  (fp_line (start 3.5 3.5) (end -3.5 3.5)
    (stroke (width 0.1) (type solid)) (layer F.Fab))
  (fp_line (start -3.5 3.5) (end -3.5 -2.5)
    (stroke (width 0.1) (type solid)) (layer F.Fab))
  (fp_line (start -3.5 -2.5) (end -2.5 -3.5)
    (stroke (width 0.1) (type solid)) (layer F.Fab))
  (fp_line (start -4.11 -4.11) (end -4.11 4.11)
    (stroke (width 0.05) (type solid)) (layer F.CrtYd))
  (fp_line (start -4.11 4.11) (end 4.11 4.11)
    (stroke (width 0.05) (type solid)) (layer F.CrtYd))
  (fp_line (start 4.11 4.11) (end 4.11 -4.11)
    (stroke (width 0.05) (type solid)) (layer F.CrtYd))
  (fp_line (start 4.11 -4.11) (end -4.11 -4.11)
    (stroke (width 0.05) (type solid)) (layer F.CrtYd))
  (pad 1 smd roundrect (at -3.3375 -2.275) (size 1.025 0.35) (layers F.Cu F.Mask F.Paste) (roundrect_rratio 0.25))
  (pad 2 smd roundrect (at -3.3375 -1.625) (size 1.025 0.35) (layers F.Cu F.Mask F.Paste) (roundrect_rratio 0.25))
  (pad 3 smd roundrect (at -3.3375 -0.975) (size 1.025 0.35) (layers F.Cu F.Mask F.Paste) (roundrect_rratio 0.25))
  (pad 4 smd roundrect (at -3.3375 -0.325) (size 1.025 0.35) (layers F.Cu F.Mask F.Paste) (roundrect_rratio 0.25))
  (pad 5 smd roundrect (at -3.3375 0.325) (size 1.025 0.35) (layers F.Cu F.Mask F.Paste) (roundrect_rratio 0.25))
  (pad 6 smd roundrect (at -3.3375 0.975) (size 1.025 0.35) (layers F.Cu F.Mask F.Paste) (roundrect_rratio 0.25))
  (pad 7 smd roundrect (at -3.3375 1.625) (size 1.025 0.35) (layers F.Cu F.Mask F.Paste) (roundrect_rratio 0.25))
  (pad 8 smd roundrect (at -3.3375 2.275) (size 1.025 0.35) (layers F.Cu F.Mask F.Paste) (roundrect_rratio 0.25))
  (pad 9 smd roundrect (at -2.275 3.3375) (size 0.35 1.025) (layers F.Cu F.Mask F.Paste) (roundrect_rratio 0.25))
  (pad 10 smd roundrect (at -1.625 3.3375) (size 0.35 1.025) (layers F.Cu F.Mask F.Paste) (roundrect_rratio 0.25))
  (pad 11 smd roundrect (at -0.975 3.3375) (size 0.35 1.025) (layers F.Cu F.Mask F.Paste) (roundrect_rratio 0.25))
  (pad 12 smd roundrect (at -0.325 3.3375) (size 0.35 1.025) (layers F.Cu F.Mask F.Paste) (roundrect_rratio 0.25))
  (pad 13 smd roundrect (at 0.325 3.3375) (size 0.35 1.025) (layers F.Cu F.Mask F.Paste) (roundrect_rratio 0.25))
  (pad 14 smd roundrect (at 0.975 3.3375) (size 0.35 1.025) (layers F.Cu F.Mask F.Paste) (roundrect_rratio 0.25))
  (pad 15 smd roundrect (at 1.625 3.3375) (size 0.35 1.025) (layers F.Cu F.Mask F.Paste) (roundrect_rratio 0.25))
  (pad 16 smd roundrect (at 2.275 3.3375) (size 0.35 1.025) (layers F.Cu F.Mask F.Paste) (roundrect_rratio 0.25))
  (pad 17 smd roundrect (at 3.3375 2.275) (size 1.025 0.35) (layers F.Cu F.Mask F.Paste) (roundrect_rratio 0.25))
  (pad 18 smd roundrect (at 3.3375 1.625) (size 1.025 0.35) (layers F.Cu F.Mask F.Paste) (roundrect_rratio 0.25))
  (pad 19 smd roundrect (at 3.3375 0.975) (size 1.025 0.35) (layers F.Cu F.Mask F.Paste) (roundrect_rratio 0.25))
  (pad 20 smd roundrect (at 3.3375 0.325) (size 1.025 0.35) (layers F.Cu F.Mask F.Paste) (roundrect_rratio 0.25))
  (pad 21 smd roundrect (at 3.3375 -0.325) (size 1.025 0.35) (layers F.Cu F.Mask F.Paste) (roundrect_rratio 0.25))
  (pad 22 smd roundrect (at 3.3375 -0.975) (size 1.025 0.35) (layers F.Cu F.Mask F.Paste) (roundrect_rratio 0.25))
  (pad 23 smd roundrect (at 3.3375 -1.625) (size 1.025 0.35) (layers F.Cu F.Mask F.Paste) (roundrect_rratio 0.25))
  (pad 24 smd roundrect (at 3.3375 -2.275) (size 1.025 0.35) (layers F.Cu F.Mask F.Paste) (roundrect_rratio 0.25))
  (pad 25 smd roundrect (at 2.275 -3.3375) (size 0.35 1.025) (layers F.Cu F.Mask F.Paste) (roundrect_rratio 0.25))
  (pad 26 smd roundrect (at 1.625 -3.3375) (size 0.35 1.025) (layers F.Cu F.Mask F.Paste) (roundrect_rratio 0.25))
  (pad 27 smd roundrect (at 0.975 -3.3375) (size 0.35 1.025) (layers F.Cu F.Mask F.Paste) (roundrect_rratio 0.25))
  (pad 28 smd roundrect (at 0.325 -3.3375) (size 0.35 1.025) (layers F.Cu F.Mask F.Paste) (roundrect_rratio 0.25))
  (pad 29 smd roundrect (at -0.325 -3.3375) (size 0.35 1.025) (layers F.Cu F.Mask F.Paste) (roundrect_rratio 0.25))
  (pad 30 smd roundrect (at -0.975 -3.3375) (size 0.35 1.025) (layers F.Cu F.Mask F.Paste) (roundrect_rratio 0.25))
  (pad 31 smd roundrect (at -1.625 -3.3375) (size 0.35 1.025) (layers F.Cu F.Mask F.Paste) (roundrect_rratio 0.25))
  (pad 32 smd roundrect (at -2.275 -3.3375) (size 0.35 1.025) (layers F.Cu F.Mask F.Paste) (roundrect_rratio 0.25))
  (pad 33 smd rect (at 0 0) (size 4.65 4.65) (property pad_prop_heatsink) (layers F.Cu F.Mask)
    (zone_connect 2))
  (pad 33 thru_hole circle (at -1.575 -1.575) (size 0.5 0.5) (drill 0.2) (property pad_prop_heatsink) (layers *.Cu))
  (pad 33 thru_hole circle (at -0.525 -1.575) (size 0.5 0.5) (drill 0.2) (property pad_prop_heatsink) (layers *.Cu))
  (pad 33 thru_hole circle (at 0.525 -1.575) (size 0.5 0.5) (drill 0.2) (property pad_prop_heatsink) (layers *.Cu))
  (pad 33 thru_hole circle (at 1.575 -1.575) (size 0.5 0.5) (drill 0.2) (property pad_prop_heatsink) (layers *.Cu))
  (pad 33 thru_hole circle (at -1.575 -0.525) (size 0.5 0.5) (drill 0.2) (property pad_prop_heatsink) (layers *.Cu))
  (pad 33 thru_hole circle (at -0.525 -0.525) (size 0.5 0.5) (drill 0.2) (property pad_prop_heatsink) (layers *.Cu))
  (pad 33 thru_hole circle (at 0.525 -0.525) (size 0.5 0.5) (drill 0.2) (property pad_prop_heatsink) (layers *.Cu))
  (pad 33 thru_hole circle (at 1.575 -0.525) (size 0.5 0.5) (drill 0.2) (property pad_prop_heatsink) (layers *.Cu))
  (pad 33 thru_hole circle (at -1.575 0.525) (size 0.5 0.5) (drill 0.2) (property pad_prop_heatsink) (layers *.Cu))
  (pad 33 thru_hole circle (at -0.525 0.525) (size 0.5 0.5) (drill 0.2) (property pad_prop_heatsink) (layers *.Cu))
  (pad 33 thru_hole circle (at 0.525 0.525) (size 0.5 0.5) (drill 0.2) (property pad_prop_heatsink) (layers *.Cu))
  (pad 33 thru_hole circle (at 1.575 0.525) (size 0.5 0.5) (drill 0.2) (property pad_prop_heatsink) (layers *.Cu))
  (pad 33 thru_hole circle (at -1.575 1.575) (size 0.5 0.5) (drill 0.2) (property pad_prop_heatsink) (layers *.Cu))
  (pad 33 thru_hole circle (at -0.525 1.575) (size 0.5 0.5) (drill 0.2) (property pad_prop_heatsink) (layers *.Cu))
  (pad 33 thru_hole circle (at 0.525 1.575) (size 0.5 0.5) (drill 0.2) (property pad_prop_heatsink) (layers *.Cu))
  (pad 33 thru_hole circle (at 1.575 1.575) (size 0.5 0.5) (drill 0.2) (property pad_prop_heatsink) (layers *.Cu))
  (pad 33 smd rect (at 0 0) (size 3.65 3.65) (property pad_prop_heatsink) (layers B.Cu)
    (zone_connect 2))
  (pad "" smd roundrect (at -1.05 -1.05) (size 0.846537 0.846537) (layers F.Paste) (roundrect_rratio 0.25))
  (pad "" smd roundrect (at -1.05 0) (size 0.846537 0.846537) (layers F.Paste) (roundrect_rratio 0.25))
  (pad "" smd roundrect (at -1.05 1.05) (size 0.846537 0.846537) (layers F.Paste) (roundrect_rratio 0.25))
  (pad "" smd roundrect (at 0 -1.05) (size 0.846537 0.846537) (layers F.Paste) (roundrect_rratio 0.25))
  (pad "" smd roundrect (at 0 0) (size 0.846537 0.846537) (layers F.Paste) (roundrect_rratio 0.25))
  (pad "" smd roundrect (at 0 1.05) (size 0.846537 0.846537) (layers F.Paste) (roundrect_rratio 0.25))
  (pad "" smd roundrect (at 1.05 -1.05) (size 0.846537 0.846537) (layers F.Paste) (roundrect_rratio 0.25))
  (pad "" smd roundrect (at 1.05 0) (size 0.846537 0.846537) (layers F.Paste) (roundrect_rratio 0.25))
  (pad "" smd roundrect (at 1.05 1.05) (size 0.846537 0.846537) (layers F.Paste) (roundrect_rratio 0.25))
  (pad "" smd custom (at -1.95 -1.05) (size 0.527986 0.527986) (layers F.Paste)
    (options (clearance outline) (anchor circle))
    (primitives
      (gr_poly (pts
         (xy -0.225652 -0.346586) (xy 0.162126 -0.346586) (xy 0.225652 -0.28306) (xy 0.225652 0.28306)
         (xy 0.162126 0.346586) (xy -0.225652 0.346586)) (width 0.153366))
    ))
  (pad "" smd custom (at -1.95 0) (size 0.527986 0.527986) (layers F.Paste)
    (options (clearance outline) (anchor circle))
    (primitives
      (gr_poly (pts
         (xy -0.225652 -0.346586) (xy 0.162126 -0.346586) (xy 0.225652 -0.28306) (xy 0.225652 0.28306)
         (xy 0.162126 0.346586) (xy -0.225652 0.346586)) (width 0.153366))
    ))
  (pad "" smd custom (at -1.95 1.05) (size 0.527986 0.527986) (layers F.Paste)
    (options (clearance outline) (anchor circle))
    (primitives
      (gr_poly (pts
         (xy -0.225652 -0.346586) (xy 0.162126 -0.346586) (xy 0.225652 -0.28306) (xy 0.225652 0.28306)
         (xy 0.162126 0.346586) (xy -0.225652 0.346586)) (width 0.153366))
    ))
  (pad "" smd custom (at 1.95 -1.05) (size 0.527986 0.527986) (layers F.Paste)
    (options (clearance outline) (anchor circle))
    (primitives
      (gr_poly (pts
         (xy -0.225652 -0.28306) (xy -0.162126 -0.346586) (xy 0.225652 -0.346586) (xy 0.225652 0.346586)
         (xy -0.162126 0.346586) (xy -0.225652 0.28306)) (width 0.153366))
    ))
  (pad "" smd custom (at 1.95 0) (size 0.527986 0.527986) (layers F.Paste)
    (options (clearance outline) (anchor circle))
    (primitives
      (gr_poly (pts
         (xy -0.225652 -0.28306) (xy -0.162126 -0.346586) (xy 0.225652 -0.346586) (xy 0.225652 0.346586)
         (xy -0.162126 0.346586) (xy -0.225652 0.28306)) (width 0.153366))
    ))
  (pad "" smd custom (at 1.95 1.05) (size 0.527986 0.527986) (layers F.Paste)
    (options (clearance outline) (anchor circle))
    (primitives
      (gr_poly (pts
         (xy -0.225652 -0.28306) (xy -0.162126 -0.346586) (xy 0.225652 -0.346586) (xy 0.225652 0.346586)
         (xy -0.162126 0.346586) (xy -0.225652 0.28306)) (width 0.153366))
    ))
  (pad "" smd custom (at -1.05 -1.95) (size 0.527986 0.527986) (layers F.Paste)
    (options (clearance outline) (anchor circle))
    (primitives
      (gr_poly (pts
         (xy -0.346586 -0.225652) (xy 0.346586 -0.225652) (xy 0.346586 0.162126) (xy 0.28306 0.225652)
         (xy -0.28306 0.225652) (xy -0.346586 0.162126)) (width 0.153366))
    ))
  (pad "" smd custom (at 0 -1.95) (size 0.527986 0.527986) (layers F.Paste)
    (options (clearance outline) (anchor circle))
    (primitives
      (gr_poly (pts
         (xy -0.346586 -0.225652) (xy 0.346586 -0.225652) (xy 0.346586 0.162126) (xy 0.28306 0.225652)
         (xy -0.28306 0.225652) (xy -0.346586 0.162126)) (width 0.153366))
    ))
  (pad "" smd custom (at 1.05 -1.95) (size 0.527986 0.527986) (layers F.Paste)
    (options (clearance outline) (anchor circle))
    (primitives
      (gr_poly (pts
         (xy -0.346586 -0.225652) (xy 0.346586 -0.225652) (xy 0.346586 0.162126) (xy 0.28306 0.225652)
         (xy -0.28306 0.225652) (xy -0.346586 0.162126)) (width 0.153366))
    ))
  (pad "" smd custom (at -1.05 1.95) (size 0.527986 0.527986) (layers F.Paste)
    (options (clearance outline) (anchor circle))
    (primitives
      (gr_poly (pts
         (xy -0.346586 -0.162126) (xy -0.28306 -0.225652) (xy 0.28306 -0.225652) (xy 0.346586 -0.162126)
         (xy 0.346586 0.225652) (xy -0.346586 0.225652)) (width 0.153366))
    ))
  (pad "" smd custom (at 0 1.95) (size 0.527986 0.527986) (layers F.Paste)
    (options (clearance outline) (anchor circle))
    (primitives
      (gr_poly (pts
         (xy -0.346586 -0.162126) (xy -0.28306 -0.225652) (xy 0.28306 -0.225652) (xy 0.346586 -0.162126)
         (xy 0.346586 0.225652) (xy -0.346586 0.225652)) (width 0.153366))
    ))
  (pad "" smd custom (at 1.05 1.95) (size 0.527986 0.527986) (layers F.Paste)
    (options (clearance outline) (anchor circle))
    (primitives
      (gr_poly (pts
         (xy -0.346586 -0.162126) (xy -0.28306 -0.225652) (xy 0.28306 -0.225652) (xy 0.346586 -0.162126)
         (xy 0.346586 0.225652) (xy -0.346586 0.225652)) (width 0.153366))
    ))
  (pad "" smd custom (at -1.95 -1.95) (size 0.507434 0.507434) (layers F.Paste)
    (options (clearance outline) (anchor circle))
    (primitives
      (gr_poly (pts
         (xy -0.205099 -0.205099) (xy 0.205099 -0.205099) (xy 0.205099 0.124546) (xy 0.124546 0.205099)
         (xy -0.205099 0.205099)) (width 0.194471))
    ))
  (pad "" smd custom (at -1.95 1.95) (size 0.507434 0.507434) (layers F.Paste)
    (options (clearance outline) (anchor circle))
    (primitives
      (gr_poly (pts
         (xy -0.205099 -0.205099) (xy 0.124546 -0.205099) (xy 0.205099 -0.124546) (xy 0.205099 0.205099)
         (xy -0.205099 0.205099)) (width 0.194471))
    ))
  (pad "" smd custom (at 1.95 -1.95) (size 0.507434 0.507434) (layers F.Paste)
    (options (clearance outline) (anchor circle))
    (primitives
      (gr_poly (pts
         (xy -0.205099 -0.205099) (xy 0.205099 -0.205099) (xy 0.205099 0.205099) (xy -0.124546 0.205099)
         (xy -0.205099 0.124546)) (width 0.194471))
    ))
  (pad "" smd custom (at 1.95 1.95) (size 0.507434 0.507434) (layers F.Paste)
    (options (clearance outline) (anchor circle))
    (primitives
      (gr_poly (pts
         (xy -0.205099 -0.124546) (xy -0.124546 -0.205099) (xy 0.205099 -0.205099) (xy 0.205099 0.205099)
         (xy -0.205099 0.205099)) (width 0.194471))
    ))
  (fp_poly (pts (xy -3.61 -3.61) (xy -3.79 -3.862) (xy -3.43 -3.862) (xy -3.61 -3.61))
    (stroke (width 0.12) (type solid)) (fill solid) (layer F.SilkS))
  (fp_text user ${REFERENCE} (at 0 0) (layer F.Fab)
    (effects (font (size 1 1) (thickness 0.15)))
  )
  (model ${KICAD7_3DMODEL_DIR}/Package_DFN_QFN.3dshapes/QFN-32-1EP_7x7mm_P0.65mm_EP4.65x4.65mm.wrl
    (offset (xyz 0 0 0))
    (scale (xyz 1 1 1))
    (rotate (xyz 0 0 0))
  )
)
