(footprint QFN-56-1EP_8x8mm_P0.5mm_EP4.5x5.2mm_ThermalVias (version 20221018) (generator kicad-footprint-generator)
  (layer F.Cu)
  (descr "QFN, 56 Pin (http://www.ti.com/lit/an/scea032/scea032.pdf#page=4), generated with kicad-footprint-generator ipc_noLead_generator.py")
  (tags "QFN NoLead")
  (attr smd)
  (fp_text reference REF** (at 0 -5.33) (layer F.SilkS)
    (effects (font (size 1 1) (thickness 0.15)))
  )
  (fp_text value QFN-56-1EP_8x8mm_P0.5mm_EP4.5x5.2mm_ThermalVias (at 0 5.33) (layer F.Fab)
    (effects (font (size 1 1) (thickness 0.15)))
  )
  (fp_line (start -3.635 -4.11) (end -3.81 -4.11)
    (stroke (width 0.12) (type solid)) (layer F.SilkS))
  (fp_line (start -4.11 -3.635) (end -4.11 -3.87)
    (stroke (width 0.12) (type solid)) (layer F.SilkS))
  (fp_line (start 3.635 -4.11) (end 4.11 -4.11)
    (stroke (width 0.12) (type solid)) (layer F.SilkS))
  (fp_line (start 4.11 -4.11) (end 4.11 -3.635)
    (stroke (width 0.12) (type solid)) (layer F.SilkS))
  (fp_line (start -3.635 4.11) (end -4.11 4.11)
    (stroke (width 0.12) (type solid)) (layer F.SilkS))
  (fp_line (start -4.11 4.11) (end -4.11 3.635)
    (stroke (width 0.12) (type solid)) (layer F.SilkS))
  (fp_line (start 3.635 4.11) (end 4.11 4.11)
    (stroke (width 0.12) (type solid)) (layer F.SilkS))
  (fp_line (start 4.11 4.11) (end 4.11 3.635)
    (stroke (width 0.12) (type solid)) (layer F.SilkS))
  (fp_line (start -3 -4) (end 4 -4)
    (stroke (width 0.1) (type solid)) (layer F.Fab))
  (fp_line (start 4 -4) (end 4 4)
    (stroke (width 0.1) (type solid)) (layer F.Fab))
  (fp_line (start 4 4) (end -4 4)
    (stroke (width 0.1) (type solid)) (layer F.Fab))
  (fp_line (start -4 4) (end -4 -3)
    (stroke (width 0.1) (type solid)) (layer F.Fab))
  (fp_line (start -4 -3) (end -3 -4)
    (stroke (width 0.1) (type solid)) (layer F.Fab))
  (fp_line (start -4.63 -4.63) (end -4.63 4.63)
    (stroke (width 0.05) (type solid)) (layer F.CrtYd))
  (fp_line (start -4.63 4.63) (end 4.63 4.63)
    (stroke (width 0.05) (type solid)) (layer F.CrtYd))
  (fp_line (start 4.63 4.63) (end 4.63 -4.63)
    (stroke (width 0.05) (type solid)) (layer F.CrtYd))
  (fp_line (start 4.63 -4.63) (end -4.63 -4.63)
    (stroke (width 0.05) (type solid)) (layer F.CrtYd))
  (pad 1 smd roundrect (at -3.9375 -3.25) (size 0.875 0.25) (layers F.Cu F.Mask F.Paste) (roundrect_rratio 0.25))
  (pad 2 smd roundrect (at -3.9375 -2.75) (size 0.875 0.25) (layers F.Cu F.Mask F.Paste) (roundrect_rratio 0.25))
  (pad 3 smd roundrect (at -3.9375 -2.25) (size 0.875 0.25) (layers F.Cu F.Mask F.Paste) (roundrect_rratio 0.25))
  (pad 4 smd roundrect (at -3.9375 -1.75) (size 0.875 0.25) (layers F.Cu F.Mask F.Paste) (roundrect_rratio 0.25))
  (pad 5 smd roundrect (at -3.9375 -1.25) (size 0.875 0.25) (layers F.Cu F.Mask F.Paste) (roundrect_rratio 0.25))
  (pad 6 smd roundrect (at -3.9375 -0.75) (size 0.875 0.25) (layers F.Cu F.Mask F.Paste) (roundrect_rratio 0.25))
  (pad 7 smd roundrect (at -3.9375 -0.25) (size 0.875 0.25) (layers F.Cu F.Mask F.Paste) (roundrect_rratio 0.25))
  (pad 8 smd roundrect (at -3.9375 0.25) (size 0.875 0.25) (layers F.Cu F.Mask F.Paste) (roundrect_rratio 0.25))
  (pad 9 smd roundrect (at -3.9375 0.75) (size 0.875 0.25) (layers F.Cu F.Mask F.Paste) (roundrect_rratio 0.25))
  (pad 10 smd roundrect (at -3.9375 1.25) (size 0.875 0.25) (layers F.Cu F.Mask F.Paste) (roundrect_rratio 0.25))
  (pad 11 smd roundrect (at -3.9375 1.75) (size 0.875 0.25) (layers F.Cu F.Mask F.Paste) (roundrect_rratio 0.25))
  (pad 12 smd roundrect (at -3.9375 2.25) (size 0.875 0.25) (layers F.Cu F.Mask F.Paste) (roundrect_rratio 0.25))
  (pad 13 smd roundrect (at -3.9375 2.75) (size 0.875 0.25) (layers F.Cu F.Mask F.Paste) (roundrect_rratio 0.25))
  (pad 14 smd roundrect (at -3.9375 3.25) (size 0.875 0.25) (layers F.Cu F.Mask F.Paste) (roundrect_rratio 0.25))
  (pad 15 smd roundrect (at -3.25 3.9375) (size 0.25 0.875) (layers F.Cu F.Mask F.Paste) (roundrect_rratio 0.25))
  (pad 16 smd roundrect (at -2.75 3.9375) (size 0.25 0.875) (layers F.Cu F.Mask F.Paste) (roundrect_rratio 0.25))
  (pad 17 smd roundrect (at -2.25 3.9375) (size 0.25 0.875) (layers F.Cu F.Mask F.Paste) (roundrect_rratio 0.25))
  (pad 18 smd roundrect (at -1.75 3.9375) (size 0.25 0.875) (layers F.Cu F.Mask F.Paste) (roundrect_rratio 0.25))
  (pad 19 smd roundrect (at -1.25 3.9375) (size 0.25 0.875) (layers F.Cu F.Mask F.Paste) (roundrect_rratio 0.25))
  (pad 20 smd roundrect (at -0.75 3.9375) (size 0.25 0.875) (layers F.Cu F.Mask F.Paste) (roundrect_rratio 0.25))
  (pad 21 smd roundrect (at -0.25 3.9375) (size 0.25 0.875) (layers F.Cu F.Mask F.Paste) (roundrect_rratio 0.25))
  (pad 22 smd roundrect (at 0.25 3.9375) (size 0.25 0.875) (layers F.Cu F.Mask F.Paste) (roundrect_rratio 0.25))
  (pad 23 smd roundrect (at 0.75 3.9375) (size 0.25 0.875) (layers F.Cu F.Mask F.Paste) (roundrect_rratio 0.25))
  (pad 24 smd roundrect (at 1.25 3.9375) (size 0.25 0.875) (layers F.Cu F.Mask F.Paste) (roundrect_rratio 0.25))
  (pad 25 smd roundrect (at 1.75 3.9375) (size 0.25 0.875) (layers F.Cu F.Mask F.Paste) (roundrect_rratio 0.25))
  (pad 26 smd roundrect (at 2.25 3.9375) (size 0.25 0.875) (layers F.Cu F.Mask F.Paste) (roundrect_rratio 0.25))
  (pad 27 smd roundrect (at 2.75 3.9375) (size 0.25 0.875) (layers F.Cu F.Mask F.Paste) (roundrect_rratio 0.25))
  (pad 28 smd roundrect (at 3.25 3.9375) (size 0.25 0.875) (layers F.Cu F.Mask F.Paste) (roundrect_rratio 0.25))
  (pad 29 smd roundrect (at 3.9375 3.25) (size 0.875 0.25) (layers F.Cu F.Mask F.Paste) (roundrect_rratio 0.25))
  (pad 30 smd roundrect (at 3.9375 2.75) (size 0.875 0.25) (layers F.Cu F.Mask F.Paste) (roundrect_rratio 0.25))
  (pad 31 smd roundrect (at 3.9375 2.25) (size 0.875 0.25) (layers F.Cu F.Mask F.Paste) (roundrect_rratio 0.25))
  (pad 32 smd roundrect (at 3.9375 1.75) (size 0.875 0.25) (layers F.Cu F.Mask F.Paste) (roundrect_rratio 0.25))
  (pad 33 smd roundrect (at 3.9375 1.25) (size 0.875 0.25) (layers F.Cu F.Mask F.Paste) (roundrect_rratio 0.25))
  (pad 34 smd roundrect (at 3.9375 0.75) (size 0.875 0.25) (layers F.Cu F.Mask F.Paste) (roundrect_rratio 0.25))
  (pad 35 smd roundrect (at 3.9375 0.25) (size 0.875 0.25) (layers F.Cu F.Mask F.Paste) (roundrect_rratio 0.25))
  (pad 36 smd roundrect (at 3.9375 -0.25) (size 0.875 0.25) (layers F.Cu F.Mask F.Paste) (roundrect_rratio 0.25))
  (pad 37 smd roundrect (at 3.9375 -0.75) (size 0.875 0.25) (layers F.Cu F.Mask F.Paste) (roundrect_rratio 0.25))
  (pad 38 smd roundrect (at 3.9375 -1.25) (size 0.875 0.25) (layers F.Cu F.Mask F.Paste) (roundrect_rratio 0.25))
  (pad 39 smd roundrect (at 3.9375 -1.75) (size 0.875 0.25) (layers F.Cu F.Mask F.Paste) (roundrect_rratio 0.25))
  (pad 40 smd roundrect (at 3.9375 -2.25) (size 0.875 0.25) (layers F.Cu F.Mask F.Paste) (roundrect_rratio 0.25))
  (pad 41 smd roundrect (at 3.9375 -2.75) (size 0.875 0.25) (layers F.Cu F.Mask F.Paste) (roundrect_rratio 0.25))
  (pad 42 smd roundrect (at 3.9375 -3.25) (size 0.875 0.25) (layers F.Cu F.Mask F.Paste) (roundrect_rratio 0.25))
  (pad 43 smd roundrect (at 3.25 -3.9375) (size 0.25 0.875) (layers F.Cu F.Mask F.Paste) (roundrect_rratio 0.25))
  (pad 44 smd roundrect (at 2.75 -3.9375) (size 0.25 0.875) (layers F.Cu F.Mask F.Paste) (roundrect_rratio 0.25))
  (pad 45 smd roundrect (at 2.25 -3.9375) (size 0.25 0.875) (layers F.Cu F.Mask F.Paste) (roundrect_rratio 0.25))
  (pad 46 smd roundrect (at 1.75 -3.9375) (size 0.25 0.875) (layers F.Cu F.Mask F.Paste) (roundrect_rratio 0.25))
  (pad 47 smd roundrect (at 1.25 -3.9375) (size 0.25 0.875) (layers F.Cu F.Mask F.Paste) (roundrect_rratio 0.25))
  (pad 48 smd roundrect (at 0.75 -3.9375) (size 0.25 0.875) (layers F.Cu F.Mask F.Paste) (roundrect_rratio 0.25))
  (pad 49 smd roundrect (at 0.25 -3.9375) (size 0.25 0.875) (layers F.Cu F.Mask F.Paste) (roundrect_rratio 0.25))
  (pad 50 smd roundrect (at -0.25 -3.9375) (size 0.25 0.875) (layers F.Cu F.Mask F.Paste) (roundrect_rratio 0.25))
  (pad 51 smd roundrect (at -0.75 -3.9375) (size 0.25 0.875) (layers F.Cu F.Mask F.Paste) (roundrect_rratio 0.25))
  (pad 52 smd roundrect (at -1.25 -3.9375) (size 0.25 0.875) (layers F.Cu F.Mask F.Paste) (roundrect_rratio 0.25))
  (pad 53 smd roundrect (at -1.75 -3.9375) (size 0.25 0.875) (layers F.Cu F.Mask F.Paste) (roundrect_rratio 0.25))
  (pad 54 smd roundrect (at -2.25 -3.9375) (size 0.25 0.875) (layers F.Cu F.Mask F.Paste) (roundrect_rratio 0.25))
  (pad 55 smd roundrect (at -2.75 -3.9375) (size 0.25 0.875) (layers F.Cu F.Mask F.Paste) (roundrect_rratio 0.25))
  (pad 56 smd roundrect (at -3.25 -3.9375) (size 0.25 0.875) (layers F.Cu F.Mask F.Paste) (roundrect_rratio 0.25))
  (pad 57 smd rect (at 0 0) (size 4.5 5.2) (property pad_prop_heatsink) (layers F.Cu F.Mask)
    (zone_connect 2))
  (pad 57 thru_hole circle (at -2 -2.35) (size 0.5 0.5) (drill 0.2) (property pad_prop_heatsink) (layers *.Cu))
  (pad 57 thru_hole circle (at -1 -2.35) (size 0.5 0.5) (drill 0.2) (property pad_prop_heatsink) (layers *.Cu))
  (pad 57 thru_hole circle (at 0 -2.35) (size 0.5 0.5) (drill 0.2) (property pad_prop_heatsink) (layers *.Cu))
  (pad 57 thru_hole circle (at 1 -2.35) (size 0.5 0.5) (drill 0.2) (property pad_prop_heatsink) (layers *.Cu))
  (pad 57 thru_hole circle (at 2 -2.35) (size 0.5 0.5) (drill 0.2) (property pad_prop_heatsink) (layers *.Cu))
  (pad 57 thru_hole circle (at -2 -1.175) (size 0.5 0.5) (drill 0.2) (property pad_prop_heatsink) (layers *.Cu))
  (pad 57 thru_hole circle (at -1 -1.175) (size 0.5 0.5) (drill 0.2) (property pad_prop_heatsink) (layers *.Cu))
  (pad 57 thru_hole circle (at 0 -1.175) (size 0.5 0.5) (drill 0.2) (property pad_prop_heatsink) (layers *.Cu))
  (pad 57 thru_hole circle (at 1 -1.175) (size 0.5 0.5) (drill 0.2) (property pad_prop_heatsink) (layers *.Cu))
  (pad 57 thru_hole circle (at 2 -1.175) (size 0.5 0.5) (drill 0.2) (property pad_prop_heatsink) (layers *.Cu))
  (pad 57 thru_hole circle (at -2 0) (size 0.5 0.5) (drill 0.2) (property pad_prop_heatsink) (layers *.Cu))
  (pad 57 thru_hole circle (at -1 0) (size 0.5 0.5) (drill 0.2) (property pad_prop_heatsink) (layers *.Cu))
  (pad 57 thru_hole circle (at 0 0) (size 0.5 0.5) (drill 0.2) (property pad_prop_heatsink) (layers *.Cu))
  (pad 57 thru_hole circle (at 1 0) (size 0.5 0.5) (drill 0.2) (property pad_prop_heatsink) (layers *.Cu))
  (pad 57 thru_hole circle (at 2 0) (size 0.5 0.5) (drill 0.2) (property pad_prop_heatsink) (layers *.Cu))
  (pad 57 thru_hole circle (at -2 1.175) (size 0.5 0.5) (drill 0.2) (property pad_prop_heatsink) (layers *.Cu))
  (pad 57 thru_hole circle (at -1 1.175) (size 0.5 0.5) (drill 0.2) (property pad_prop_heatsink) (layers *.Cu))
  (pad 57 thru_hole circle (at 0 1.175) (size 0.5 0.5) (drill 0.2) (property pad_prop_heatsink) (layers *.Cu))
  (pad 57 thru_hole circle (at 1 1.175) (size 0.5 0.5) (drill 0.2) (property pad_prop_heatsink) (layers *.Cu))
  (pad 57 thru_hole circle (at 2 1.175) (size 0.5 0.5) (drill 0.2) (property pad_prop_heatsink) (layers *.Cu))
  (pad 57 thru_hole circle (at -2 2.35) (size 0.5 0.5) (drill 0.2) (property pad_prop_heatsink) (layers *.Cu))
  (pad 57 thru_hole circle (at -1 2.35) (size 0.5 0.5) (drill 0.2) (property pad_prop_heatsink) (layers *.Cu))
  (pad 57 thru_hole circle (at 0 2.35) (size 0.5 0.5) (drill 0.2) (property pad_prop_heatsink) (layers *.Cu))
  (pad 57 thru_hole circle (at 1 2.35) (size 0.5 0.5) (drill 0.2) (property pad_prop_heatsink) (layers *.Cu))
  (pad 57 thru_hole circle (at 2 2.35) (size 0.5 0.5) (drill 0.2) (property pad_prop_heatsink) (layers *.Cu))
  (pad 57 smd rect (at 0 0) (size 4.5 5.2) (property pad_prop_heatsink) (layers B.Cu)
    (zone_connect 2))
  (pad "" smd custom (at -1.5 -1.7625) (size 0.776286 0.776286) (layers F.Paste)
    (options (clearance outline) (anchor circle))
    (primitives
      (gr_poly (pts
         (xy -0.340576 -0.32954) (xy -0.261763 -0.408353) (xy 0.261763 -0.408353) (xy 0.340576 -0.32954)
         (xy 0.340576 0.32954) (xy 0.261763 0.408353) (xy -0.261763 0.408353) (xy -0.340576 0.32954)) (width 0.19027))
    ))
  (pad "" smd custom (at -1.5 -0.5875) (size 0.776286 0.776286) (layers F.Paste)
    (options (clearance outline) (anchor circle))
    (primitives
      (gr_poly (pts
         (xy -0.340576 -0.32954) (xy -0.261763 -0.408353) (xy 0.261763 -0.408353) (xy 0.340576 -0.32954)
         (xy 0.340576 0.32954) (xy 0.261763 0.408353) (xy -0.261763 0.408353) (xy -0.340576 0.32954)) (width 0.19027))
    ))
  (pad "" smd custom (at -1.5 0.5875) (size 0.776286 0.776286) (layers F.Paste)
    (options (clearance outline) (anchor circle))
    (primitives
      (gr_poly (pts
         (xy -0.340576 -0.32954) (xy -0.261763 -0.408353) (xy 0.261763 -0.408353) (xy 0.340576 -0.32954)
         (xy 0.340576 0.32954) (xy 0.261763 0.408353) (xy -0.261763 0.408353) (xy -0.340576 0.32954)) (width 0.19027))
    ))
  (pad "" smd custom (at -1.5 1.7625) (size 0.776286 0.776286) (layers F.Paste)
    (options (clearance outline) (anchor circle))
    (primitives
      (gr_poly (pts
         (xy -0.340576 -0.32954) (xy -0.261763 -0.408353) (xy 0.261763 -0.408353) (xy 0.340576 -0.32954)
         (xy 0.340576 0.32954) (xy 0.261763 0.408353) (xy -0.261763 0.408353) (xy -0.340576 0.32954)) (width 0.19027))
    ))
  (pad "" smd custom (at -0.5 -1.7625) (size 0.776286 0.776286) (layers F.Paste)
    (options (clearance outline) (anchor circle))
    (primitives
      (gr_poly (pts
         (xy -0.340576 -0.32954) (xy -0.261763 -0.408353) (xy 0.261763 -0.408353) (xy 0.340576 -0.32954)
         (xy 0.340576 0.32954) (xy 0.261763 0.408353) (xy -0.261763 0.408353) (xy -0.340576 0.32954)) (width 0.19027))
    ))
  (pad "" smd custom (at -0.5 -0.5875) (size 0.776286 0.776286) (layers F.Paste)
    (options (clearance outline) (anchor circle))
    (primitives
      (gr_poly (pts
         (xy -0.340576 -0.32954) (xy -0.261763 -0.408353) (xy 0.261763 -0.408353) (xy 0.340576 -0.32954)
         (xy 0.340576 0.32954) (xy 0.261763 0.408353) (xy -0.261763 0.408353) (xy -0.340576 0.32954)) (width 0.19027))
    ))
  (pad "" smd custom (at -0.5 0.5875) (size 0.776286 0.776286) (layers F.Paste)
    (options (clearance outline) (anchor circle))
    (primitives
      (gr_poly (pts
         (xy -0.340576 -0.32954) (xy -0.261763 -0.408353) (xy 0.261763 -0.408353) (xy 0.340576 -0.32954)
         (xy 0.340576 0.32954) (xy 0.261763 0.408353) (xy -0.261763 0.408353) (xy -0.340576 0.32954)) (width 0.19027))
    ))
  (pad "" smd custom (at -0.5 1.7625) (size 0.776286 0.776286) (layers F.Paste)
    (options (clearance outline) (anchor circle))
    (primitives
      (gr_poly (pts
         (xy -0.340576 -0.32954) (xy -0.261763 -0.408353) (xy 0.261763 -0.408353) (xy 0.340576 -0.32954)
         (xy 0.340576 0.32954) (xy 0.261763 0.408353) (xy -0.261763 0.408353) (xy -0.340576 0.32954)) (width 0.19027))
    ))
  (pad "" smd custom (at 0.5 -1.7625) (size 0.776286 0.776286) (layers F.Paste)
    (options (clearance outline) (anchor circle))
    (primitives
      (gr_poly (pts
         (xy -0.340576 -0.32954) (xy -0.261763 -0.408353) (xy 0.261763 -0.408353) (xy 0.340576 -0.32954)
         (xy 0.340576 0.32954) (xy 0.261763 0.408353) (xy -0.261763 0.408353) (xy -0.340576 0.32954)) (width 0.19027))
    ))
  (pad "" smd custom (at 0.5 -0.5875) (size 0.776286 0.776286) (layers F.Paste)
    (options (clearance outline) (anchor circle))
    (primitives
      (gr_poly (pts
         (xy -0.340576 -0.32954) (xy -0.261763 -0.408353) (xy 0.261763 -0.408353) (xy 0.340576 -0.32954)
         (xy 0.340576 0.32954) (xy 0.261763 0.408353) (xy -0.261763 0.408353) (xy -0.340576 0.32954)) (width 0.19027))
    ))
  (pad "" smd custom (at 0.5 0.5875) (size 0.776286 0.776286) (layers F.Paste)
    (options (clearance outline) (anchor circle))
    (primitives
      (gr_poly (pts
         (xy -0.340576 -0.32954) (xy -0.261763 -0.408353) (xy 0.261763 -0.408353) (xy 0.340576 -0.32954)
         (xy 0.340576 0.32954) (xy 0.261763 0.408353) (xy -0.261763 0.408353) (xy -0.340576 0.32954)) (width 0.19027))
    ))
  (pad "" smd custom (at 0.5 1.7625) (size 0.776286 0.776286) (layers F.Paste)
    (options (clearance outline) (anchor circle))
    (primitives
      (gr_poly (pts
         (xy -0.340576 -0.32954) (xy -0.261763 -0.408353) (xy 0.261763 -0.408353) (xy 0.340576 -0.32954)
         (xy 0.340576 0.32954) (xy 0.261763 0.408353) (xy -0.261763 0.408353) (xy -0.340576 0.32954)) (width 0.19027))
    ))
  (pad "" smd custom (at 1.5 -1.7625) (size 0.776286 0.776286) (layers F.Paste)
    (options (clearance outline) (anchor circle))
    (primitives
      (gr_poly (pts
         (xy -0.340576 -0.32954) (xy -0.261763 -0.408353) (xy 0.261763 -0.408353) (xy 0.340576 -0.32954)
         (xy 0.340576 0.32954) (xy 0.261763 0.408353) (xy -0.261763 0.408353) (xy -0.340576 0.32954)) (width 0.19027))
    ))
  (pad "" smd custom (at 1.5 -0.5875) (size 0.776286 0.776286) (layers F.Paste)
    (options (clearance outline) (anchor circle))
    (primitives
      (gr_poly (pts
         (xy -0.340576 -0.32954) (xy -0.261763 -0.408353) (xy 0.261763 -0.408353) (xy 0.340576 -0.32954)
         (xy 0.340576 0.32954) (xy 0.261763 0.408353) (xy -0.261763 0.408353) (xy -0.340576 0.32954)) (width 0.19027))
    ))
  (pad "" smd custom (at 1.5 0.5875) (size 0.776286 0.776286) (layers F.Paste)
    (options (clearance outline) (anchor circle))
    (primitives
      (gr_poly (pts
         (xy -0.340576 -0.32954) (xy -0.261763 -0.408353) (xy 0.261763 -0.408353) (xy 0.340576 -0.32954)
         (xy 0.340576 0.32954) (xy 0.261763 0.408353) (xy -0.261763 0.408353) (xy -0.340576 0.32954)) (width 0.19027))
    ))
  (pad "" smd custom (at 1.5 1.7625) (size 0.776286 0.776286) (layers F.Paste)
    (options (clearance outline) (anchor circle))
    (primitives
      (gr_poly (pts
         (xy -0.340576 -0.32954) (xy -0.261763 -0.408353) (xy 0.261763 -0.408353) (xy 0.340576 -0.32954)
         (xy 0.340576 0.32954) (xy 0.261763 0.408353) (xy -0.261763 0.408353) (xy -0.340576 0.32954)) (width 0.19027))
    ))
  (fp_poly (pts (xy -4.11 -4.11) (xy -4.29 -4.362) (xy -3.93 -4.362) (xy -4.11 -4.11))
    (stroke (width 0.12) (type solid)) (fill solid) (layer F.SilkS))
  (fp_text user ${REFERENCE} (at 0 0) (layer F.Fab)
    (effects (font (size 1 1) (thickness 0.15)))
  )
  (model ${KICAD7_3DMODEL_DIR}/Package_DFN_QFN.3dshapes/QFN-56-1EP_8x8mm_P0.5mm_EP4.5x5.2mm.wrl
    (offset (xyz 0 0 0))
    (scale (xyz 1 1 1))
    (rotate (xyz 0 0 0))
  )
)
