(footprint QFN-32-1EP_4x4mm_P0.4mm_EP2.65x2.65mm_ThermalVias (version 20221018) (generator kicad-footprint-generator)
  (layer F.Cu)
  (descr "QFN, 32 Pin (https://www.renesas.com/eu/en/package-image/pdf/outdrawing/l32.4x4a.pdf), generated with kicad-footprint-generator ipc_noLead_generator.py")
  (tags "QFN NoLead")
  (attr smd)
  (fp_text reference REF** (at 0 -3.3) (layer F.SilkS)
    (effects (font (size 1 1) (thickness 0.15)))
  )
  (fp_text value QFN-32-1EP_4x4mm_P0.4mm_EP2.65x2.65mm_ThermalVias (at 0 3.3) (layer F.Fab)
    (effects (font (size 1 1) (thickness 0.15)))
  )
  (fp_line (start -2.11 -1.76) (end -2.11 -1.87)
    (stroke (width 0.12) (type solid)) (layer F.SilkS))
  (fp_line (start 1.76 -2.11) (end 2.11 -2.11)
    (stroke (width 0.12) (type solid)) (layer F.SilkS))
  (fp_line (start 2.11 -2.11) (end 2.11 -1.76)
    (stroke (width 0.12) (type solid)) (layer F.SilkS))
  (fp_line (start -1.76 2.11) (end -2.11 2.11)
    (stroke (width 0.12) (type solid)) (layer F.SilkS))
  (fp_line (start -2.11 2.11) (end -2.11 1.76)
    (stroke (width 0.12) (type solid)) (layer F.SilkS))
  (fp_line (start 1.76 2.11) (end 2.11 2.11)
    (stroke (width 0.12) (type solid)) (layer F.SilkS))
  (fp_line (start 2.11 2.11) (end 2.11 1.76)
    (stroke (width 0.12) (type solid)) (layer F.SilkS))
  (fp_line (start -1 -2) (end 2 -2)
    (stroke (width 0.1) (type solid)) (layer F.Fab))
  (fp_line (start 2 -2) (end 2 2)
    (stroke (width 0.1) (type solid)) (layer F.Fab))
  (fp_line (start 2 2) (end -2 2)
    (stroke (width 0.1) (type solid)) (layer F.Fab))
  (fp_line (start -2 2) (end -2 -1)
    (stroke (width 0.1) (type solid)) (layer F.Fab))
  (fp_line (start -2 -1) (end -1 -2)
    (stroke (width 0.1) (type solid)) (layer F.Fab))
  (fp_line (start -2.6 -2.6) (end -2.6 2.6)
    (stroke (width 0.05) (type solid)) (layer F.CrtYd))
  (fp_line (start -2.6 2.6) (end 2.6 2.6)
    (stroke (width 0.05) (type solid)) (layer F.CrtYd))
  (fp_line (start 2.6 2.6) (end 2.6 -2.6)
    (stroke (width 0.05) (type solid)) (layer F.CrtYd))
  (fp_line (start 2.6 -2.6) (end -2.6 -2.6)
    (stroke (width 0.05) (type solid)) (layer F.CrtYd))
  (pad 1 smd custom (at -1.95 -1.4) (size 0.129289 0.129289) (layers F.Cu F.Mask F.Paste)
    (options (clearance outline) (anchor circle))
    (primitives
      (gr_poly (pts
         (xy -0.35 -0.05) (xy 0.279289 -0.05) (xy 0.35 0.020711) (xy 0.35 0.05)
         (xy -0.35 0.05)) (width 0.1))
    ))
  (pad 2 smd roundrect (at -1.95 -1) (size 0.8 0.2) (layers F.Cu F.Mask F.Paste) (roundrect_rratio 0.25))
  (pad 3 smd roundrect (at -1.95 -0.6) (size 0.8 0.2) (layers F.Cu F.Mask F.Paste) (roundrect_rratio 0.25))
  (pad 4 smd roundrect (at -1.95 -0.2) (size 0.8 0.2) (layers F.Cu F.Mask F.Paste) (roundrect_rratio 0.25))
  (pad 5 smd roundrect (at -1.95 0.2) (size 0.8 0.2) (layers F.Cu F.Mask F.Paste) (roundrect_rratio 0.25))
  (pad 6 smd roundrect (at -1.95 0.6) (size 0.8 0.2) (layers F.Cu F.Mask F.Paste) (roundrect_rratio 0.25))
  (pad 7 smd roundrect (at -1.95 1) (size 0.8 0.2) (layers F.Cu F.Mask F.Paste) (roundrect_rratio 0.25))
  (pad 8 smd custom (at -1.95 1.4) (size 0.129289 0.129289) (layers F.Cu F.Mask F.Paste)
    (options (clearance outline) (anchor circle))
    (primitives
      (gr_poly (pts
         (xy -0.35 -0.05) (xy 0.35 -0.05) (xy 0.35 -0.020711) (xy 0.279289 0.05)
         (xy -0.35 0.05)) (width 0.1))
    ))
  (pad 9 smd custom (at -1.4 1.95) (size 0.129289 0.129289) (layers F.Cu F.Mask F.Paste)
    (options (clearance outline) (anchor circle))
    (primitives
      (gr_poly (pts
         (xy -0.05 -0.279289) (xy 0.020711 -0.35) (xy 0.05 -0.35) (xy 0.05 0.35)
         (xy -0.05 0.35)) (width 0.1))
    ))
  (pad 10 smd roundrect (at -1 1.95) (size 0.2 0.8) (layers F.Cu F.Mask F.Paste) (roundrect_rratio 0.25))
  (pad 11 smd roundrect (at -0.6 1.95) (size 0.2 0.8) (layers F.Cu F.Mask F.Paste) (roundrect_rratio 0.25))
  (pad 12 smd roundrect (at -0.2 1.95) (size 0.2 0.8) (layers F.Cu F.Mask F.Paste) (roundrect_rratio 0.25))
  (pad 13 smd roundrect (at 0.2 1.95) (size 0.2 0.8) (layers F.Cu F.Mask F.Paste) (roundrect_rratio 0.25))
  (pad 14 smd roundrect (at 0.6 1.95) (size 0.2 0.8) (layers F.Cu F.Mask F.Paste) (roundrect_rratio 0.25))
  (pad 15 smd roundrect (at 1 1.95) (size 0.2 0.8) (layers F.Cu F.Mask F.Paste) (roundrect_rratio 0.25))
  (pad 16 smd custom (at 1.4 1.95) (size 0.129289 0.129289) (layers F.Cu F.Mask F.Paste)
    (options (clearance outline) (anchor circle))
    (primitives
      (gr_poly (pts
         (xy -0.05 -0.35) (xy -0.020711 -0.35) (xy 0.05 -0.279289) (xy 0.05 0.35)
         (xy -0.05 0.35)) (width 0.1))
    ))
  (pad 17 smd custom (at 1.95 1.4) (size 0.129289 0.129289) (layers F.Cu F.Mask F.Paste)
    (options (clearance outline) (anchor circle))
    (primitives
      (gr_poly (pts
         (xy -0.35 -0.05) (xy 0.35 -0.05) (xy 0.35 0.05) (xy -0.279289 0.05)
         (xy -0.35 -0.020711)) (width 0.1))
    ))
  (pad 18 smd roundrect (at 1.95 1) (size 0.8 0.2) (layers F.Cu F.Mask F.Paste) (roundrect_rratio 0.25))
  (pad 19 smd roundrect (at 1.95 0.6) (size 0.8 0.2) (layers F.Cu F.Mask F.Paste) (roundrect_rratio 0.25))
  (pad 20 smd roundrect (at 1.95 0.2) (size 0.8 0.2) (layers F.Cu F.Mask F.Paste) (roundrect_rratio 0.25))
  (pad 21 smd roundrect (at 1.95 -0.2) (size 0.8 0.2) (layers F.Cu F.Mask F.Paste) (roundrect_rratio 0.25))
  (pad 22 smd roundrect (at 1.95 -0.6) (size 0.8 0.2) (layers F.Cu F.Mask F.Paste) (roundrect_rratio 0.25))
  (pad 23 smd roundrect (at 1.95 -1) (size 0.8 0.2) (layers F.Cu F.Mask F.Paste) (roundrect_rratio 0.25))
  (pad 24 smd custom (at 1.95 -1.4) (size 0.129289 0.129289) (layers F.Cu F.Mask F.Paste)
    (options (clearance outline) (anchor circle))
    (primitives
      (gr_poly (pts
         (xy -0.35 0.020711) (xy -0.279289 -0.05) (xy 0.35 -0.05) (xy 0.35 0.05)
         (xy -0.35 0.05)) (width 0.1))
    ))
  (pad 25 smd custom (at 1.4 -1.95) (size 0.129289 0.129289) (layers F.Cu F.Mask F.Paste)
    (options (clearance outline) (anchor circle))
    (primitives
      (gr_poly (pts
         (xy -0.05 -0.35) (xy 0.05 -0.35) (xy 0.05 0.279289) (xy -0.020711 0.35)
         (xy -0.05 0.35)) (width 0.1))
    ))
  (pad 26 smd roundrect (at 1 -1.95) (size 0.2 0.8) (layers F.Cu F.Mask F.Paste) (roundrect_rratio 0.25))
  (pad 27 smd roundrect (at 0.6 -1.95) (size 0.2 0.8) (layers F.Cu F.Mask F.Paste) (roundrect_rratio 0.25))
  (pad 28 smd roundrect (at 0.2 -1.95) (size 0.2 0.8) (layers F.Cu F.Mask F.Paste) (roundrect_rratio 0.25))
  (pad 29 smd roundrect (at -0.2 -1.95) (size 0.2 0.8) (layers F.Cu F.Mask F.Paste) (roundrect_rratio 0.25))
  (pad 30 smd roundrect (at -0.6 -1.95) (size 0.2 0.8) (layers F.Cu F.Mask F.Paste) (roundrect_rratio 0.25))
  (pad 31 smd roundrect (at -1 -1.95) (size 0.2 0.8) (layers F.Cu F.Mask F.Paste) (roundrect_rratio 0.25))
  (pad 32 smd custom (at -1.4 -1.95) (size 0.129289 0.129289) (layers F.Cu F.Mask F.Paste)
    (options (clearance outline) (anchor circle))
    (primitives
      (gr_poly (pts
         (xy -0.05 -0.35) (xy 0.05 -0.35) (xy 0.05 0.35) (xy 0.020711 0.35)
         (xy -0.05 0.279289)) (width 0.1))
    ))
  (pad 33 smd rect (at 0 0) (size 2.65 2.65) (property pad_prop_heatsink) (layers F.Cu F.Mask)
    (zone_connect 2))
  (pad 33 thru_hole circle (at -0.85 -0.85) (size 0.5 0.5) (drill 0.2) (property pad_prop_heatsink) (layers *.Cu))
  (pad 33 thru_hole circle (at 0 -0.85) (size 0.5 0.5) (drill 0.2) (property pad_prop_heatsink) (layers *.Cu))
  (pad 33 thru_hole circle (at 0.85 -0.85) (size 0.5 0.5) (drill 0.2) (property pad_prop_heatsink) (layers *.Cu))
  (pad 33 thru_hole circle (at -0.85 0) (size 0.5 0.5) (drill 0.2) (property pad_prop_heatsink) (layers *.Cu))
  (pad 33 thru_hole circle (at 0 0) (size 0.5 0.5) (drill 0.2) (property pad_prop_heatsink) (layers *.Cu))
  (pad 33 thru_hole circle (at 0.85 0) (size 0.5 0.5) (drill 0.2) (property pad_prop_heatsink) (layers *.Cu))
  (pad 33 thru_hole circle (at -0.85 0.85) (size 0.5 0.5) (drill 0.2) (property pad_prop_heatsink) (layers *.Cu))
  (pad 33 thru_hole circle (at 0 0.85) (size 0.5 0.5) (drill 0.2) (property pad_prop_heatsink) (layers *.Cu))
  (pad 33 thru_hole circle (at 0.85 0.85) (size 0.5 0.5) (drill 0.2) (property pad_prop_heatsink) (layers *.Cu))
  (pad 33 smd rect (at 0 0) (size 2.2 2.2) (property pad_prop_heatsink) (layers B.Cu)
    (zone_connect 2))
  (pad "" smd custom (at -0.425 -0.425) (size 0.601758 0.601758) (layers F.Paste)
    (options (clearance outline) (anchor circle))
    (primitives
      (gr_poly (pts
         (xy -0.259112 -0.189911) (xy -0.189911 -0.259112) (xy 0.189911 -0.259112) (xy 0.259112 -0.189911)
         (xy 0.259112 0.189911) (xy 0.189911 0.259112) (xy -0.189911 0.259112) (xy -0.259112 0.189911)) (width 0.167068))
    ))
  (pad "" smd custom (at -0.425 0.425) (size 0.601758 0.601758) (layers F.Paste)
    (options (clearance outline) (anchor circle))
    (primitives
      (gr_poly (pts
         (xy -0.259112 -0.189911) (xy -0.189911 -0.259112) (xy 0.189911 -0.259112) (xy 0.259112 -0.189911)
         (xy 0.259112 0.189911) (xy 0.189911 0.259112) (xy -0.189911 0.259112) (xy -0.259112 0.189911)) (width 0.167068))
    ))
  (pad "" smd custom (at 0.425 -0.425) (size 0.601758 0.601758) (layers F.Paste)
    (options (clearance outline) (anchor circle))
    (primitives
      (gr_poly (pts
         (xy -0.259112 -0.189911) (xy -0.189911 -0.259112) (xy 0.189911 -0.259112) (xy 0.259112 -0.189911)
         (xy 0.259112 0.189911) (xy 0.189911 0.259112) (xy -0.189911 0.259112) (xy -0.259112 0.189911)) (width 0.167068))
    ))
  (pad "" smd custom (at 0.425 0.425) (size 0.601758 0.601758) (layers F.Paste)
    (options (clearance outline) (anchor circle))
    (primitives
      (gr_poly (pts
         (xy -0.259112 -0.189911) (xy -0.189911 -0.259112) (xy 0.189911 -0.259112) (xy 0.259112 -0.189911)
         (xy 0.259112 0.189911) (xy 0.189911 0.259112) (xy -0.189911 0.259112) (xy -0.259112 0.189911)) (width 0.167068))
    ))
  (pad "" smd custom (at -1.0875 -0.425) (size 0.273732 0.273732) (layers F.Paste)
    (options (clearance outline) (anchor circle))
    (primitives
      (gr_poly (pts
         (xy -0.095739 -0.246907) (xy -0.002645 -0.246907) (xy 0.095739 -0.148522) (xy 0.095739 0.148522)
         (xy -0.002645 0.246907) (xy -0.095739 0.246907)) (width 0.191479))
    ))
  (pad "" smd custom (at -1.0875 0.425) (size 0.273732 0.273732) (layers F.Paste)
    (options (clearance outline) (anchor circle))
    (primitives
      (gr_poly (pts
         (xy -0.095739 -0.246907) (xy -0.002645 -0.246907) (xy 0.095739 -0.148522) (xy 0.095739 0.148522)
         (xy -0.002645 0.246907) (xy -0.095739 0.246907)) (width 0.191479))
    ))
  (pad "" smd custom (at 1.0875 -0.425) (size 0.273732 0.273732) (layers F.Paste)
    (options (clearance outline) (anchor circle))
    (primitives
      (gr_poly (pts
         (xy -0.095739 -0.148522) (xy 0.002645 -0.246907) (xy 0.095739 -0.246907) (xy 0.095739 0.246907)
         (xy 0.002645 0.246907) (xy -0.095739 0.148522)) (width 0.191479))
    ))
  (pad "" smd custom (at 1.0875 0.425) (size 0.273732 0.273732) (layers F.Paste)
    (options (clearance outline) (anchor circle))
    (primitives
      (gr_poly (pts
         (xy -0.095739 -0.148522) (xy 0.002645 -0.246907) (xy 0.095739 -0.246907) (xy 0.095739 0.246907)
         (xy 0.002645 0.246907) (xy -0.095739 0.148522)) (width 0.191479))
    ))
  (pad "" smd custom (at -0.425 -1.0875) (size 0.273732 0.273732) (layers F.Paste)
    (options (clearance outline) (anchor circle))
    (primitives
      (gr_poly (pts
         (xy -0.246907 -0.095739) (xy 0.246907 -0.095739) (xy 0.246907 -0.002645) (xy 0.148522 0.095739)
         (xy -0.148522 0.095739) (xy -0.246907 -0.002645)) (width 0.191479))
    ))
  (pad "" smd custom (at 0.425 -1.0875) (size 0.273732 0.273732) (layers F.Paste)
    (options (clearance outline) (anchor circle))
    (primitives
      (gr_poly (pts
         (xy -0.246907 -0.095739) (xy 0.246907 -0.095739) (xy 0.246907 -0.002645) (xy 0.148522 0.095739)
         (xy -0.148522 0.095739) (xy -0.246907 -0.002645)) (width 0.191479))
    ))
  (pad "" smd custom (at -0.425 1.0875) (size 0.273732 0.273732) (layers F.Paste)
    (options (clearance outline) (anchor circle))
    (primitives
      (gr_poly (pts
         (xy -0.246907 0.002645) (xy -0.148522 -0.095739) (xy 0.148522 -0.095739) (xy 0.246907 0.002645)
         (xy 0.246907 0.095739) (xy -0.246907 0.095739)) (width 0.191479))
    ))
  (pad "" smd custom (at 0.425 1.0875) (size 0.273732 0.273732) (layers F.Paste)
    (options (clearance outline) (anchor circle))
    (primitives
      (gr_poly (pts
         (xy -0.246907 0.002645) (xy -0.148522 -0.095739) (xy 0.148522 -0.095739) (xy 0.246907 0.002645)
         (xy 0.246907 0.095739) (xy -0.246907 0.095739)) (width 0.191479))
    ))
  (pad "" smd custom (at -1.0875 -1.0875) (size 0.248041 0.248041) (layers F.Paste)
    (options (clearance outline) (anchor circle))
    (primitives
      (gr_poly (pts
         (xy -0.095739 -0.095739) (xy 0.095739 -0.095739) (xy 0.095739 -0.038978) (xy -0.038978 0.095739)
         (xy -0.095739 0.095739)) (width 0.191479))
    ))
  (pad "" smd custom (at -1.0875 1.0875) (size 0.248041 0.248041) (layers F.Paste)
    (options (clearance outline) (anchor circle))
    (primitives
      (gr_poly (pts
         (xy -0.095739 -0.095739) (xy -0.038978 -0.095739) (xy 0.095739 0.038978) (xy 0.095739 0.095739)
         (xy -0.095739 0.095739)) (width 0.191479))
    ))
  (pad "" smd custom (at 1.0875 -1.0875) (size 0.248041 0.248041) (layers F.Paste)
    (options (clearance outline) (anchor circle))
    (primitives
      (gr_poly (pts
         (xy -0.095739 -0.095739) (xy 0.095739 -0.095739) (xy 0.095739 0.095739) (xy 0.038978 0.095739)
         (xy -0.095739 -0.038978)) (width 0.191479))
    ))
  (pad "" smd custom (at 1.0875 1.0875) (size 0.248041 0.248041) (layers F.Paste)
    (options (clearance outline) (anchor circle))
    (primitives
      (gr_poly (pts
         (xy -0.095739 0.038978) (xy 0.038978 -0.095739) (xy 0.095739 -0.095739) (xy 0.095739 0.095739)
         (xy -0.095739 0.095739)) (width 0.191479))
    ))
  (fp_poly (pts (xy -2.11 -2.11) (xy -2.29 -2.362) (xy -1.93 -2.362) (xy -2.11 -2.11))
    (stroke (width 0.12) (type solid)) (fill solid) (layer F.SilkS))
  (fp_text user ${REFERENCE} (at 0 0) (layer F.Fab)
    (effects (font (size 1 1) (thickness 0.15)))
  )
  (model ${KICAD7_3DMODEL_DIR}/Package_DFN_QFN.3dshapes/QFN-32-1EP_4x4mm_P0.4mm_EP2.65x2.65mm.wrl
    (offset (xyz 0 0 0))
    (scale (xyz 1 1 1))
    (rotate (xyz 0 0 0))
  )
)
