(footprint "Texas_RWU0007A_VQFN-7_2x2mm_P0.5mm" (version 20221018) (generator pcbnew)
  (layer "F.Cu")
  (descr "Texas  RWU0007A VQFN, 2x2mm, 7 Pin (https://www.ti.com/lit/ds/symlink/tps61022.pdf)")
  (tags "Texas VQFN NoLead")
  (attr smd)
  (fp_text reference "REF**" (at 0 -2.33) (layer "F.SilkS")
      (effects (font (size 1 1) (thickness 0.15)))
    (tstamp b68492a5-43eb-49ae-a692-cea5e1a23cb4)
  )
  (fp_text value "Texas_RWU0007A_VQFN-7_2x2mm_P0.5mm" (at 0 2.33) (layer "F.Fab")
      (effects (font (size 1 1) (thickness 0.15)))
    (tstamp 672f71fd-0081-446a-9470-cc938f520492)
  )
  (fp_text user "${REFERENCE}" (at 0 0) (layer "F.Fab")
      (effects (font (size 0.5 0.5) (thickness 0.08)))
    (tstamp 454ae877-e855-497a-afc5-05e62f691bde)
  )
  (fp_line (start -0.23 -1.11) (end 1.11 -1.11)
    (stroke (width 0.12) (type solid)) (layer "F.SilkS") (tstamp bf45870c-77fe-405a-9478-63c505e562f1))
  (fp_line (start 0.385 1.11) (end -1.11 1.11)
    (stroke (width 0.12) (type solid)) (layer "F.SilkS") (tstamp dd555de1-d9f5-4608-a0fa-1e7fe4d2743f))
  (fp_line (start 0.385 1.11) (end 1.11 1.11)
    (stroke (width 0.12) (type solid)) (layer "F.SilkS") (tstamp 2a1b675e-e856-42e1-a6f0-6a9cf266e05f))
  (fp_poly
    (pts
      (xy -1.37 -1.23)
      (xy -0.8 -1.23)
      (xy -1.1 -1.02)
    )

    (stroke (width 0.1) (type solid)) (fill solid) (layer "F.SilkS") (tstamp ac691776-133a-4d8e-98d9-25b440d32bb2))
  (fp_rect (start -1.45 -1.25) (end 1.45 1.25)
    (stroke (width 0.05) (type default)) (fill none) (layer "F.CrtYd") (tstamp 99405576-6a9a-4a3a-a27b-cef707008a5a))
  (fp_line (start -1 -0.5) (end -0.5 -1)
    (stroke (width 0.1) (type solid)) (layer "F.Fab") (tstamp 73640300-580c-4043-960b-8453d9e0391f))
  (fp_line (start -1 1) (end -1 -0.5)
    (stroke (width 0.1) (type solid)) (layer "F.Fab") (tstamp d588bf32-ee34-472f-b512-f3288ab829c1))
  (fp_line (start -0.5 -1) (end 1 -1)
    (stroke (width 0.1) (type solid)) (layer "F.Fab") (tstamp f052f59a-6ea0-490a-af10-a9d8704ee365))
  (fp_line (start 1 -1) (end 1 1)
    (stroke (width 0.1) (type solid)) (layer "F.Fab") (tstamp 40d180a8-283e-4fdb-a531-4ed727cd4ac8))
  (fp_line (start 1 1) (end -1 1)
    (stroke (width 0.1) (type solid)) (layer "F.Fab") (tstamp 47d2b3df-a650-4750-a111-b7e5c4887110))
  (pad "" smd roundrect (at -0.963 -0.55) (size 0.475 0.35) (layers "F.Paste") (roundrect_rratio 0.25)
    (thermal_bridge_angle 45) (tstamp 48fa8f2b-4a1e-455c-b72f-97d0a58f2992))
  (pad "" smd roundrect (at -0.963 0.55) (size 0.475 0.35) (layers "F.Paste") (roundrect_rratio 0.25)
    (thermal_bridge_angle 45) (tstamp f1982284-79ae-4a0b-b566-489ffbd44484))
  (pad "" smd roundrect (at -0.8875 0) (size 0.625 0.2) (layers "F.Paste") (roundrect_rratio 0.25)
    (thermal_bridge_angle 45) (tstamp 16a4ce0e-733b-49d6-92ac-657596d7e753))
  (pad "" smd roundrect (at -0.288 -0.55) (size 0.475 0.35) (layers "F.Paste") (roundrect_rratio 0.25)
    (thermal_bridge_angle 45) (tstamp 2c569ce1-fa4e-4dd8-b52c-6596269863a9))
  (pad "" smd roundrect (at -0.288 0.55) (size 0.475 0.35) (layers "F.Paste") (roundrect_rratio 0.25)
    (thermal_bridge_angle 45) (tstamp 55c57561-bf31-4260-9515-726e1ea777fe))
  (pad "" smd roundrect (at -0.062 0) (size 0.625 0.2) (layers "F.Paste") (roundrect_rratio 0.25)
    (thermal_bridge_angle 45) (tstamp 15125676-24bb-43cf-88f5-4cf451a5c0a0))
  (pad "1" smd roundrect (at -0.625 -0.55) (size 1.15 0.35) (layers "F.Cu" "F.Mask") (roundrect_rratio 0.25)
    (thermal_bridge_angle 45) (tstamp 0f451a69-f452-4d2f-b549-e73cad3221e5))
  (pad "2" smd roundrect (at -0.475 0) (size 1.45 0.2) (layers "F.Cu" "F.Mask") (roundrect_rratio 0.25)
    (thermal_bridge_angle 45) (tstamp 6dc68814-9753-4fa0-8f44-80caf83f1c85))
  (pad "3" smd roundrect (at -0.625 0.55) (size 1.15 0.35) (layers "F.Cu" "F.Mask") (roundrect_rratio 0.25)
    (thermal_bridge_angle 45) (tstamp c135989b-e2f8-406e-8fe1-63b1f0ee0ec1))
  (pad "4" smd roundrect (at 0.975 0.75) (size 0.45 0.25) (layers "F.Cu" "F.Paste" "F.Mask") (roundrect_rratio 0.25)
    (thermal_bridge_angle 45) (tstamp 045bc439-f50b-4d11-a9af-bcbccef40a21))
  (pad "5" smd roundrect (at 0.975 0.25) (size 0.45 0.25) (layers "F.Cu" "F.Paste" "F.Mask") (roundrect_rratio 0.25)
    (thermal_bridge_angle 45) (tstamp 6062d040-de72-4b26-a767-20d2c16a4e95))
  (pad "6" smd roundrect (at 0.975 -0.25) (size 0.45 0.25) (layers "F.Cu" "F.Paste" "F.Mask") (roundrect_rratio 0.25)
    (thermal_bridge_angle 45) (tstamp d9326e17-051a-4858-9f70-75f9e490e897))
  (pad "7" smd roundrect (at 0.975 -0.75) (size 0.45 0.25) (layers "F.Cu" "F.Paste" "F.Mask") (roundrect_rratio 0.25)
    (thermal_bridge_angle 45) (tstamp 677219e5-362d-44c9-aaa9-e604f6599974))
  (model "${KICAD7_3DMODEL_DIR}/Package_DFN_QFN.3dshapes/Texas_RWU0007A_VQFN-7_2x2mm_P0.5mm.wrl"
    (offset (xyz 0 0 0))
    (scale (xyz 1 1 1))
    (rotate (xyz 0 0 0))
  )
)
