(footprint Texas_S-PDSO-N10_EP1.2x2mm_ThermalVias (version 20221018) (generator kicad-footprint-generator)
  (layer F.Cu)
  (descr "DFN, 10 Pin (http://www.ti.com/lit/ds/symlink/tps7a91.pdf#page=30), generated with kicad-footprint-generator ipc_noLead_generator.py")
  (tags "DFN NoLead")
  (attr smd)
  (fp_text reference REF** (at 0 -2.2) (layer F.SilkS)
    (effects (font (size 1 1) (thickness 0.15)))
  )
  (fp_text value Texas_S-PDSO-N10_EP1.2x2mm_ThermalVias (at 0 2.2) (layer F.Fab)
    (effects (font (size 1 1) (thickness 0.15)))
  )
  (fp_line (start -1.25 -1.385) (end 1.25 -1.385)
    (stroke (width 0.12) (type solid)) (layer F.SilkS))
  (fp_line (start -1.25 1.385) (end 1.25 1.385)
    (stroke (width 0.12) (type solid)) (layer F.SilkS))
  (fp_line (start -0.625 -1.25) (end 1.25 -1.25)
    (stroke (width 0.1) (type solid)) (layer F.Fab))
  (fp_line (start 1.25 -1.25) (end 1.25 1.25)
    (stroke (width 0.1) (type solid)) (layer F.Fab))
  (fp_line (start 1.25 1.25) (end -1.25 1.25)
    (stroke (width 0.1) (type solid)) (layer F.Fab))
  (fp_line (start -1.25 1.25) (end -1.25 -0.625)
    (stroke (width 0.1) (type solid)) (layer F.Fab))
  (fp_line (start -1.25 -0.625) (end -0.625 -1.25)
    (stroke (width 0.1) (type solid)) (layer F.Fab))
  (fp_line (start -1.88 -1.5) (end -1.88 1.5)
    (stroke (width 0.05) (type solid)) (layer F.CrtYd))
  (fp_line (start -1.88 1.5) (end 1.88 1.5)
    (stroke (width 0.05) (type solid)) (layer F.CrtYd))
  (fp_line (start 1.88 1.5) (end 1.88 -1.5)
    (stroke (width 0.05) (type solid)) (layer F.CrtYd))
  (fp_line (start 1.88 -1.5) (end -1.88 -1.5)
    (stroke (width 0.05) (type solid)) (layer F.CrtYd))
  (pad 1 smd roundrect (at -1.2125 -1) (size 0.825 0.25) (layers F.Cu F.Mask F.Paste) (roundrect_rratio 0.25))
  (pad 2 smd roundrect (at -1.2125 -0.5) (size 0.825 0.25) (layers F.Cu F.Mask F.Paste) (roundrect_rratio 0.25))
  (pad 3 smd roundrect (at -1.2125 0) (size 0.825 0.25) (layers F.Cu F.Mask F.Paste) (roundrect_rratio 0.25))
  (pad 4 smd roundrect (at -1.2125 0.5) (size 0.825 0.25) (layers F.Cu F.Mask F.Paste) (roundrect_rratio 0.25))
  (pad 5 smd roundrect (at -1.2125 1) (size 0.825 0.25) (layers F.Cu F.Mask F.Paste) (roundrect_rratio 0.25))
  (pad 6 smd roundrect (at 1.2125 1) (size 0.825 0.25) (layers F.Cu F.Mask F.Paste) (roundrect_rratio 0.25))
  (pad 7 smd roundrect (at 1.2125 0.5) (size 0.825 0.25) (layers F.Cu F.Mask F.Paste) (roundrect_rratio 0.25))
  (pad 8 smd roundrect (at 1.2125 0) (size 0.825 0.25) (layers F.Cu F.Mask F.Paste) (roundrect_rratio 0.25))
  (pad 9 smd roundrect (at 1.2125 -0.5) (size 0.825 0.25) (layers F.Cu F.Mask F.Paste) (roundrect_rratio 0.25))
  (pad 10 smd roundrect (at 1.2125 -1) (size 0.825 0.25) (layers F.Cu F.Mask F.Paste) (roundrect_rratio 0.25))
  (pad 11 smd rect (at 0 0) (size 1.2 2) (property pad_prop_heatsink) (layers F.Cu F.Mask)
    (zone_connect 2))
  (pad 11 thru_hole circle (at -0.35 -0.75) (size 0.5 0.5) (drill 0.2) (property pad_prop_heatsink) (layers *.Cu))
  (pad 11 thru_hole circle (at 0.35 -0.75) (size 0.5 0.5) (drill 0.2) (property pad_prop_heatsink) (layers *.Cu))
  (pad 11 thru_hole circle (at -0.35 0) (size 0.5 0.5) (drill 0.2) (property pad_prop_heatsink) (layers *.Cu))
  (pad 11 thru_hole circle (at 0.35 0) (size 0.5 0.5) (drill 0.2) (property pad_prop_heatsink) (layers *.Cu))
  (pad 11 thru_hole circle (at -0.35 0.75) (size 0.5 0.5) (drill 0.2) (property pad_prop_heatsink) (layers *.Cu))
  (pad 11 thru_hole circle (at 0.35 0.75) (size 0.5 0.5) (drill 0.2) (property pad_prop_heatsink) (layers *.Cu))
  (pad 11 smd rect (at 0 0) (size 1.2 2) (property pad_prop_heatsink) (layers B.Cu)
    (zone_connect 2))
  (pad "" smd roundrect (at -0.3 -0.5) (size 0.5 0.84) (layers F.Paste) (roundrect_rratio 0.25))
  (pad "" smd roundrect (at -0.3 0.5) (size 0.5 0.84) (layers F.Paste) (roundrect_rratio 0.25))
  (pad "" smd roundrect (at 0.3 -0.5) (size 0.5 0.84) (layers F.Paste) (roundrect_rratio 0.25))
  (pad "" smd roundrect (at 0.3 0.5) (size 0.5 0.84) (layers F.Paste) (roundrect_rratio 0.25))
  (fp_poly (pts (xy -1.8 -1.3) (xy -2.16 -1.3) (xy -1.8 -1.66) (xy -1.8 -1.3))
    (stroke (width 0.12) (type solid)) (fill solid) (layer F.SilkS))
  (fp_text user ${REFERENCE} (at 0 0) (layer F.Fab)
    (effects (font (size 0.62 0.62) (thickness 0.09)))
  )
  (model ${KICAD7_3DMODEL_DIR}/Package_DFN_QFN.3dshapes/Texas_S-PDSO-N10_EP1.2x2mm.wrl
    (offset (xyz 0 0 0))
    (scale (xyz 1 1 1))
    (rotate (xyz 0 0 0))
  )
)
