(footprint WQFN-16-1EP_3x3mm_P0.5mm_EP1.68x1.68mm_ThermalVias (version 20221018) (generator kicad-footprint-generator)
  (layer F.Cu)
  (descr "WQFN, 16 Pin (https://www.ti.com/lit/ds/symlink/tlv9064.pdf#page=44), generated with kicad-footprint-generator ipc_noLead_generator.py")
  (tags "WQFN NoLead")
  (attr smd)
  (fp_text reference REF** (at 0 -2.83) (layer F.SilkS)
    (effects (font (size 1 1) (thickness 0.15)))
  )
  (fp_text value WQFN-16-1EP_3x3mm_P0.5mm_EP1.68x1.68mm_ThermalVias (at 0 2.83) (layer F.Fab)
    (effects (font (size 1 1) (thickness 0.15)))
  )
  (fp_line (start -1.135 -1.61) (end -1.31 -1.61)
    (stroke (width 0.12) (type solid)) (layer F.SilkS))
  (fp_line (start -1.61 -1.135) (end -1.61 -1.37)
    (stroke (width 0.12) (type solid)) (layer F.SilkS))
  (fp_line (start 1.135 -1.61) (end 1.61 -1.61)
    (stroke (width 0.12) (type solid)) (layer F.SilkS))
  (fp_line (start 1.61 -1.61) (end 1.61 -1.135)
    (stroke (width 0.12) (type solid)) (layer F.SilkS))
  (fp_line (start -1.135 1.61) (end -1.61 1.61)
    (stroke (width 0.12) (type solid)) (layer F.SilkS))
  (fp_line (start -1.61 1.61) (end -1.61 1.135)
    (stroke (width 0.12) (type solid)) (layer F.SilkS))
  (fp_line (start 1.135 1.61) (end 1.61 1.61)
    (stroke (width 0.12) (type solid)) (layer F.SilkS))
  (fp_line (start 1.61 1.61) (end 1.61 1.135)
    (stroke (width 0.12) (type solid)) (layer F.SilkS))
  (fp_line (start -0.75 -1.5) (end 1.5 -1.5)
    (stroke (width 0.1) (type solid)) (layer F.Fab))
  (fp_line (start 1.5 -1.5) (end 1.5 1.5)
    (stroke (width 0.1) (type solid)) (layer F.Fab))
  (fp_line (start 1.5 1.5) (end -1.5 1.5)
    (stroke (width 0.1) (type solid)) (layer F.Fab))
  (fp_line (start -1.5 1.5) (end -1.5 -0.75)
    (stroke (width 0.1) (type solid)) (layer F.Fab))
  (fp_line (start -1.5 -0.75) (end -0.75 -1.5)
    (stroke (width 0.1) (type solid)) (layer F.Fab))
  (fp_line (start -2.13 -2.13) (end -2.13 2.13)
    (stroke (width 0.05) (type solid)) (layer F.CrtYd))
  (fp_line (start -2.13 2.13) (end 2.13 2.13)
    (stroke (width 0.05) (type solid)) (layer F.CrtYd))
  (fp_line (start 2.13 2.13) (end 2.13 -2.13)
    (stroke (width 0.05) (type solid)) (layer F.CrtYd))
  (fp_line (start 2.13 -2.13) (end -2.13 -2.13)
    (stroke (width 0.05) (type solid)) (layer F.CrtYd))
  (pad 1 smd roundrect (at -1.4575 -0.75) (size 0.835 0.25) (layers F.Cu F.Mask F.Paste) (roundrect_rratio 0.25))
  (pad 2 smd roundrect (at -1.4575 -0.25) (size 0.835 0.25) (layers F.Cu F.Mask F.Paste) (roundrect_rratio 0.25))
  (pad 3 smd roundrect (at -1.4575 0.25) (size 0.835 0.25) (layers F.Cu F.Mask F.Paste) (roundrect_rratio 0.25))
  (pad 4 smd roundrect (at -1.4575 0.75) (size 0.835 0.25) (layers F.Cu F.Mask F.Paste) (roundrect_rratio 0.25))
  (pad 5 smd roundrect (at -0.75 1.4575) (size 0.25 0.835) (layers F.Cu F.Mask F.Paste) (roundrect_rratio 0.25))
  (pad 6 smd roundrect (at -0.25 1.4575) (size 0.25 0.835) (layers F.Cu F.Mask F.Paste) (roundrect_rratio 0.25))
  (pad 7 smd roundrect (at 0.25 1.4575) (size 0.25 0.835) (layers F.Cu F.Mask F.Paste) (roundrect_rratio 0.25))
  (pad 8 smd roundrect (at 0.75 1.4575) (size 0.25 0.835) (layers F.Cu F.Mask F.Paste) (roundrect_rratio 0.25))
  (pad 9 smd roundrect (at 1.4575 0.75) (size 0.835 0.25) (layers F.Cu F.Mask F.Paste) (roundrect_rratio 0.25))
  (pad 10 smd roundrect (at 1.4575 0.25) (size 0.835 0.25) (layers F.Cu F.Mask F.Paste) (roundrect_rratio 0.25))
  (pad 11 smd roundrect (at 1.4575 -0.25) (size 0.835 0.25) (layers F.Cu F.Mask F.Paste) (roundrect_rratio 0.25))
  (pad 12 smd roundrect (at 1.4575 -0.75) (size 0.835 0.25) (layers F.Cu F.Mask F.Paste) (roundrect_rratio 0.25))
  (pad 13 smd roundrect (at 0.75 -1.4575) (size 0.25 0.835) (layers F.Cu F.Mask F.Paste) (roundrect_rratio 0.25))
  (pad 14 smd roundrect (at 0.25 -1.4575) (size 0.25 0.835) (layers F.Cu F.Mask F.Paste) (roundrect_rratio 0.25))
  (pad 15 smd roundrect (at -0.25 -1.4575) (size 0.25 0.835) (layers F.Cu F.Mask F.Paste) (roundrect_rratio 0.25))
  (pad 16 smd roundrect (at -0.75 -1.4575) (size 0.25 0.835) (layers F.Cu F.Mask F.Paste) (roundrect_rratio 0.25))
  (pad 17 smd rect (at 0 0) (size 1.68 1.68) (property pad_prop_heatsink) (layers F.Cu F.Mask)
    (zone_connect 2))
  (pad 17 thru_hole circle (at -0.59 -0.59) (size 0.5 0.5) (drill 0.2) (property pad_prop_heatsink) (layers *.Cu))
  (pad 17 thru_hole circle (at 0.59 -0.59) (size 0.5 0.5) (drill 0.2) (property pad_prop_heatsink) (layers *.Cu))
  (pad 17 thru_hole circle (at -0.59 0.59) (size 0.5 0.5) (drill 0.2) (property pad_prop_heatsink) (layers *.Cu))
  (pad 17 thru_hole circle (at 0.59 0.59) (size 0.5 0.5) (drill 0.2) (property pad_prop_heatsink) (layers *.Cu))
  (pad 17 smd rect (at 0 0) (size 1.68 1.68) (property pad_prop_heatsink) (layers B.Cu)
    (zone_connect 2))
  (pad "" smd roundrect (at -0.42 -0.42) (size 0.73 0.73) (layers F.Paste) (roundrect_rratio 0.25))
  (pad "" smd roundrect (at -0.42 0.42) (size 0.73 0.73) (layers F.Paste) (roundrect_rratio 0.25))
  (pad "" smd roundrect (at 0.42 -0.42) (size 0.73 0.73) (layers F.Paste) (roundrect_rratio 0.25))
  (pad "" smd roundrect (at 0.42 0.42) (size 0.73 0.73) (layers F.Paste) (roundrect_rratio 0.25))
  (fp_poly (pts (xy -1.61 -1.61) (xy -1.79 -1.862) (xy -1.43 -1.862) (xy -1.61 -1.61))
    (stroke (width 0.12) (type solid)) (fill solid) (layer F.SilkS))
  (fp_text user ${REFERENCE} (at 0 0) (layer F.Fab)
    (effects (font (size 0.75 0.75) (thickness 0.11)))
  )
  (model ${KICAD7_3DMODEL_DIR}/Package_DFN_QFN.3dshapes/WQFN-16-1EP_3x3mm_P0.5mm_EP1.68x1.68mm.wrl
    (offset (xyz 0 0 0))
    (scale (xyz 1 1 1))
    (rotate (xyz 0 0 0))
  )
)
