(footprint "Quectel_L96" (version 20221018) (generator pcbnew)
  (layer "F.Cu")
  (descr "Quectel L96 GPS GLONASS Galileo BeiDou Module, internal chip antenna, https://static6.arrow.com/aropdfconversion/50213b4bc5cb920911b62909a5ca765b1c5ab3d1/quectel_l96_hardware_design_v1.2.pdf")
  (tags "Quectel GPS GNSS")
  (attr smd)
  (fp_text reference "REF**" (at -4.8 -7.65) (layer "F.SilkS")
      (effects (font (size 1 1) (thickness 0.15)))
    (tstamp a3b9e29c-c7ed-4fa0-90aa-030603532542)
  )
  (fp_text value "Quectel_L96" (at 0.05 8.15 unlocked) (layer "F.Fab")
      (effects (font (size 1 1) (thickness 0.15)))
    (tstamp 3db929db-934f-4047-930a-cd18c8303504)
  )
  (fp_text user "${REFERENCE}" (at 0 0) (layer "F.Fab")
      (effects (font (size 1 1) (thickness 0.15)))
    (tstamp 151e3ec3-2d4d-40a9-95a7-563f2c6a714d)
  )
  (fp_line (start -5.9 -6.82) (end -4.9 -6.82)
    (stroke (width 0.12) (type default)) (layer "F.SilkS") (tstamp bf4f25e4-8446-4f48-bd20-06543b80f68f))
  (fp_line (start -4.9 -7.1) (end -2.62 -7.1)
    (stroke (width 0.12) (type default)) (layer "F.SilkS") (tstamp 61d40df4-9366-49a0-bf4d-1f3b87e340cb))
  (fp_line (start -4.9 -6.82) (end -4.9 -7.1)
    (stroke (width 0.12) (type default)) (layer "F.SilkS") (tstamp 6edfdae7-cb18-4ad8-a550-41ccedd5dc72))
  (fp_line (start -4.9 7.1) (end -4.9 6.57)
    (stroke (width 0.12) (type default)) (layer "F.SilkS") (tstamp f2a49248-150b-4825-b2a1-31347ef7c587))
  (fp_line (start 2.62 -7.1) (end 4.9 -7.1)
    (stroke (width 0.12) (type default)) (layer "F.SilkS") (tstamp 1fdee051-5e99-4a64-98d5-db011e6f7bf6))
  (fp_line (start 4.9 -7.1) (end 4.9 -6.82)
    (stroke (width 0.12) (type default)) (layer "F.SilkS") (tstamp 453d08eb-3c9f-4282-82ef-190cb2044289))
  (fp_line (start 4.9 7.1) (end -4.9 7.1)
    (stroke (width 0.12) (type default)) (layer "F.SilkS") (tstamp 562e1d40-e25d-48f9-ad8c-1e84475714e3))
  (fp_line (start 4.9 7.1) (end 4.9 6.57)
    (stroke (width 0.12) (type default)) (layer "F.SilkS") (tstamp c5f8b785-fb32-4ee5-b2a9-9e9337cbb5bb))
  (fp_line (start -6.88 -7.55) (end -6.88 7.3)
    (stroke (width 0.05) (type default)) (layer "F.CrtYd") (tstamp e133acf5-6a58-4022-b8dd-db376db036ff))
  (fp_line (start -6.88 7.3) (end -5.8 7.3)
    (stroke (width 0.05) (type default)) (layer "F.CrtYd") (tstamp a33d89b4-6e9b-4ee6-abbd-cef25784cd3f))
  (fp_line (start -5.8 -8) (end -5.8 -7.55)
    (stroke (width 0.05) (type default)) (layer "F.CrtYd") (tstamp 5268e24c-291d-4f6a-90f3-e93255052c47))
  (fp_line (start -5.8 -7.55) (end -6.88 -7.55)
    (stroke (width 0.05) (type default)) (layer "F.CrtYd") (tstamp 80c603f7-2189-40a9-8a98-9220794ea535))
  (fp_line (start -5.8 7.3) (end -5.8 8)
    (stroke (width 0.05) (type default)) (layer "F.CrtYd") (tstamp 3351c964-3366-4b4d-b092-1e7e86aa2745))
  (fp_line (start -5.8 8) (end 5.8 8)
    (stroke (width 0.05) (type default)) (layer "F.CrtYd") (tstamp f988114f-48ac-4745-89f4-45874ff4e2e5))
  (fp_line (start -3.35 -9.08) (end -3.35 -8)
    (stroke (width 0.05) (type default)) (layer "F.CrtYd") (tstamp e8ef410a-721b-4159-96a4-5f4b8949d36e))
  (fp_line (start -3.35 -8) (end -5.8 -8)
    (stroke (width 0.05) (type default)) (layer "F.CrtYd") (tstamp 9eaa75fb-cf2d-4319-addf-18cc65530e48))
  (fp_line (start 3.35 -9.08) (end -3.35 -9.08)
    (stroke (width 0.05) (type default)) (layer "F.CrtYd") (tstamp cdab4c20-c7a3-4f48-828a-5d6eb0ab3471))
  (fp_line (start 3.35 -8) (end 3.35 -9.08)
    (stroke (width 0.05) (type default)) (layer "F.CrtYd") (tstamp 9f5e0572-0394-45b0-a5c5-093b38374550))
  (fp_line (start 5.8 -8) (end 3.35 -8)
    (stroke (width 0.05) (type default)) (layer "F.CrtYd") (tstamp 625a978d-3da8-410d-9fd9-35c1c28c8d95))
  (fp_line (start 5.8 -7.55) (end 5.8 -8)
    (stroke (width 0.05) (type default)) (layer "F.CrtYd") (tstamp cef1b84d-4837-4a39-a50f-fc518a309cfb))
  (fp_line (start 5.8 7.3) (end 6.88 7.3)
    (stroke (width 0.05) (type default)) (layer "F.CrtYd") (tstamp f349ea4a-5aba-4d8e-8c53-98c7bdc5657f))
  (fp_line (start 5.8 8) (end 5.8 7.3)
    (stroke (width 0.05) (type default)) (layer "F.CrtYd") (tstamp 7ef7983c-9e1b-490b-902c-bc903a600440))
  (fp_line (start 6.88 -7.55) (end 5.8 -7.55)
    (stroke (width 0.05) (type default)) (layer "F.CrtYd") (tstamp 44a6ad3d-b5c4-4ca6-8178-1dde0fe0681c))
  (fp_line (start 6.88 7.3) (end 6.88 -7.55)
    (stroke (width 0.05) (type default)) (layer "F.CrtYd") (tstamp ee905a9a-9544-415c-b501-fd0846f7597a))
  (fp_rect (start -4.8 -7) (end 4.8 7)
    (stroke (width 0.1) (type default)) (fill none) (layer "F.Fab") (tstamp fe187a99-a247-4efa-93c3-0cc7748c5775))
  (pad "1" smd roundrect (at -4.8 -6.2) (size 2.15 0.7) (layers "F.Cu" "F.Paste" "F.Mask") (roundrect_rratio 0.25)
    (thermal_bridge_angle 45) (tstamp 54543928-b3a8-423f-97e2-a2a4aa8a942e))
  (pad "2" smd roundrect (at -4.8 -5.2) (size 2.15 0.7) (layers "F.Cu" "F.Paste" "F.Mask") (roundrect_rratio 0.25)
    (thermal_bridge_angle 45) (tstamp 3f1440e7-b690-49e9-a0bc-186f44a8cce6))
  (pad "3" smd roundrect (at -4.8 -4.2) (size 2.15 0.7) (layers "F.Cu" "F.Paste" "F.Mask") (roundrect_rratio 0.25)
    (thermal_bridge_angle 45) (tstamp 07ac225a-9c26-42cb-a310-495034c829cf))
  (pad "4" smd roundrect (at -4.8 -3.2) (size 2.15 0.7) (layers "F.Cu" "F.Paste" "F.Mask") (roundrect_rratio 0.25)
    (thermal_bridge_angle 45) (tstamp 274f3e77-8675-4358-a2cd-ed4b9d359f87))
  (pad "5" smd roundrect (at -4.8 -2.2) (size 2.15 0.7) (layers "F.Cu" "F.Paste" "F.Mask") (roundrect_rratio 0.25)
    (thermal_bridge_angle 45) (tstamp f70c14cd-f954-4f9c-965c-5adb97fe84b1))
  (pad "6" smd roundrect (at -4.8 -1.2) (size 2.15 0.7) (layers "F.Cu" "F.Paste" "F.Mask") (roundrect_rratio 0.25)
    (thermal_bridge_angle 45) (tstamp 25e2f650-5259-4f09-8861-ecf326fa2128))
  (pad "7" smd roundrect (at -4.8 -0.2) (size 2.15 0.7) (layers "F.Cu" "F.Paste" "F.Mask") (roundrect_rratio 0.25)
    (thermal_bridge_angle 45) (tstamp 4d7461cb-6239-47d0-b1ff-5b2971e13770))
  (pad "8" smd roundrect (at -4.8 0.8) (size 2.15 0.7) (layers "F.Cu" "F.Paste" "F.Mask") (roundrect_rratio 0.25)
    (thermal_bridge_angle 45) (tstamp f48a1074-defc-4e40-938e-ec72603489f0))
  (pad "9" smd roundrect (at -4.8 1.8) (size 2.15 0.7) (layers "F.Cu" "F.Paste" "F.Mask") (roundrect_rratio 0.25)
    (thermal_bridge_angle 45) (tstamp 03c41b45-d9f5-4b40-93dd-c189024de29f))
  (pad "10" smd roundrect (at -4.8 2.8) (size 2.15 0.7) (layers "F.Cu" "F.Paste" "F.Mask") (roundrect_rratio 0.25)
    (thermal_bridge_angle 45) (tstamp 925d1bdb-c723-4010-b662-8fd244d915ba))
  (pad "11" smd roundrect (at -4.8 3.8) (size 2.15 0.7) (layers "F.Cu" "F.Paste" "F.Mask") (roundrect_rratio 0.25)
    (thermal_bridge_angle 45) (tstamp 8368a4d1-dc2a-444a-bb6f-835e57f2edc9))
  (pad "12" smd roundrect (at -4.8 4.8) (size 2.15 0.7) (layers "F.Cu" "F.Paste" "F.Mask") (roundrect_rratio 0.25)
    (thermal_bridge_angle 45) (tstamp c34df228-b30d-48ed-bbc4-fa99ad5ff129))
  (pad "13" smd roundrect (at -4.8 5.95) (size 2.15 0.7) (layers "F.Cu" "F.Paste" "F.Mask") (roundrect_rratio 0.25)
    (thermal_bridge_angle 45) (tstamp eb99fb22-7d96-47ca-a1e0-7bc3f71be805))
  (pad "14" smd roundrect (at 4.8 5.95) (size 2.15 0.7) (layers "F.Cu" "F.Paste" "F.Mask") (roundrect_rratio 0.25)
    (thermal_bridge_angle 45) (tstamp 71139f0e-4a42-4d34-8641-5ec639a0b6ec))
  (pad "15" smd roundrect (at 4.8 4.8) (size 2.15 0.7) (layers "F.Cu" "F.Paste" "F.Mask") (roundrect_rratio 0.25)
    (thermal_bridge_angle 45) (tstamp 9f81c20a-088c-4187-9766-55497a49256b))
  (pad "16" smd roundrect (at 4.8 3.8) (size 2.15 0.7) (layers "F.Cu" "F.Paste" "F.Mask") (roundrect_rratio 0.25)
    (thermal_bridge_angle 45) (tstamp 1b921cc9-0ef8-4a03-968d-09ff46a0912c))
  (pad "17" smd roundrect (at 4.8 2.8) (size 2.15 0.7) (layers "F.Cu" "F.Paste" "F.Mask") (roundrect_rratio 0.25)
    (thermal_bridge_angle 45) (tstamp 04c400e9-92b8-4e3e-baab-b05a9e19615c))
  (pad "18" smd roundrect (at 4.8 1.8) (size 2.15 0.7) (layers "F.Cu" "F.Paste" "F.Mask") (roundrect_rratio 0.25)
    (thermal_bridge_angle 45) (tstamp b0af4c78-7fe8-450a-b019-c210de384821))
  (pad "19" smd roundrect (at 4.8 0.8) (size 2.15 0.7) (layers "F.Cu" "F.Paste" "F.Mask") (roundrect_rratio 0.25)
    (thermal_bridge_angle 45) (tstamp 2445afe8-7258-488d-a0d5-3addc7f1fd93))
  (pad "20" smd roundrect (at 4.8 -0.2) (size 2.15 0.7) (layers "F.Cu" "F.Paste" "F.Mask") (roundrect_rratio 0.25)
    (thermal_bridge_angle 45) (tstamp 6a5212ca-6152-4c51-b824-ed541bbc5dc5))
  (pad "21" smd roundrect (at 4.8 -1.2) (size 2.15 0.7) (layers "F.Cu" "F.Paste" "F.Mask") (roundrect_rratio 0.25)
    (thermal_bridge_angle 45) (tstamp b5553850-7a87-4abe-b952-7cd1012cb1a6))
  (pad "22" smd roundrect (at 4.8 -2.2) (size 2.15 0.7) (layers "F.Cu" "F.Paste" "F.Mask") (roundrect_rratio 0.25)
    (thermal_bridge_angle 45) (tstamp 3ca2659e-8f55-49fd-992b-a5e93c51286c))
  (pad "23" smd roundrect (at 4.8 -3.2) (size 2.15 0.7) (layers "F.Cu" "F.Paste" "F.Mask") (roundrect_rratio 0.25)
    (thermal_bridge_angle 45) (tstamp 83f67479-70f1-4b82-8f0a-07e842c565da))
  (pad "24" smd roundrect (at 4.8 -4.2) (size 2.15 0.7) (layers "F.Cu" "F.Paste" "F.Mask") (roundrect_rratio 0.25)
    (thermal_bridge_angle 45) (tstamp 9c3c8e26-37f4-4f2b-9b0c-622e115f039c))
  (pad "25" smd roundrect (at 4.8 -5.2) (size 2.15 0.7) (layers "F.Cu" "F.Paste" "F.Mask") (roundrect_rratio 0.25)
    (thermal_bridge_angle 45) (tstamp e93ca99f-2d6c-46f9-8a83-891de5ec6f17))
  (pad "26" smd roundrect (at 4.8 -6.2) (size 2.15 0.7) (layers "F.Cu" "F.Paste" "F.Mask") (roundrect_rratio 0.25)
    (thermal_bridge_angle 45) (tstamp 170354b4-2f02-4039-8b57-feaeb1908c16))
  (pad "27" smd roundrect (at 2 -7 90) (size 2.15 0.7) (layers "F.Cu" "F.Paste" "F.Mask") (roundrect_rratio 0.25)
    (thermal_bridge_angle 45) (tstamp 49d34eac-43fa-46a5-a402-14659327ee06))
  (pad "28" smd roundrect (at 1 -7 90) (size 2.15 0.7) (layers "F.Cu" "F.Paste" "F.Mask") (roundrect_rratio 0.25)
    (thermal_bridge_angle 45) (tstamp 4f490013-fca0-4cbb-a996-20e14ec5e610))
  (pad "29" smd roundrect (at 0 -7 90) (size 2.15 0.7) (layers "F.Cu" "F.Paste" "F.Mask") (roundrect_rratio 0.25)
    (thermal_bridge_angle 45) (tstamp 47dbc397-64df-4944-a722-7e1d09607de5))
  (pad "30" smd roundrect (at -1 -7 90) (size 2.15 0.7) (layers "F.Cu" "F.Paste" "F.Mask") (roundrect_rratio 0.25)
    (thermal_bridge_angle 45) (tstamp e9f97b11-53e5-4088-8bbe-b754d88e2c93))
  (pad "31" smd roundrect (at -2 -7 90) (size 2.15 0.7) (layers "F.Cu" "F.Paste" "F.Mask") (roundrect_rratio 0.25)
    (thermal_bridge_angle 45) (tstamp 7ffca24f-0a05-43a8-bd37-2a92cb6993b2))
  (zone (net 0) (net_name "") (layers "*.Cu" "F.CrtYd") (tstamp b99b33b9-bb2c-4fac-a214-4936676d7442) (hatch edge 0.508)
    (connect_pads (clearance 0))
    (min_thickness 0.254) (filled_areas_thickness no)
    (keepout (tracks not_allowed) (vias not_allowed) (pads not_allowed) (copperpour not_allowed) (footprints not_allowed))
    (fill (thermal_gap 0.508) (thermal_bridge_width 0.508))
    (polygon
      (pts
        (xy -3.65 7)
        (xy -3.65 2.2)
        (xy -0.8 2.2)
        (xy -0.8 1.5)
        (xy 0.8 1.5)
        (xy 0.8 2.2)
        (xy 3.65 2.2)
        (xy 3.65 7)
      )
    )
  )
  (model "${KICAD7_3DMODEL_DIR}/RF_GPS.3dshapes/Quectel_L96.wrl"
    (offset (xyz 0 0 0))
    (scale (xyz 1 1 1))
    (rotate (xyz 0 0 0))
  )
)
