(footprint Analog_LFCSP-UQ-10_1.3x1.6mm_P0.4mm (version 20221018) (generator kicad-footprint-generator)
  (layer F.Cu)
  (descr "Analog  LFCSP-UQ, 10 Pin (https://www.analog.com/media/en/package-pcb-resources/package/pkg_pdf/lfcspcp/cp_10_10.pdf), generated with kicad-footprint-generator ipc_noLead_generator.py")
  (tags "Analog LFCSP-UQ NoLead")
  (attr smd)
  (fp_text reference REF** (at 0 -2.1) (layer F.SilkS)
    (effects (font (size 1 1) (thickness 0.15)))
  )
  (fp_text value Analog_LFCSP-UQ-10_1.3x1.6mm_P0.4mm (at 0 2.1) (layer F.Fab)
    (effects (font (size 1 1) (thickness 0.15)))
  )
  (fp_line (start 0.76 -0.91) (end 0.76 -0.585)
    (stroke (width 0.12) (type solid)) (layer F.SilkS))
  (fp_line (start -0.76 0.91) (end -0.76 0.585)
    (stroke (width 0.12) (type solid)) (layer F.SilkS))
  (fp_line (start 0.76 0.91) (end 0.76 0.585)
    (stroke (width 0.12) (type solid)) (layer F.SilkS))
  (fp_line (start -0.325 -0.8) (end 0.65 -0.8)
    (stroke (width 0.1) (type solid)) (layer F.Fab))
  (fp_line (start 0.65 -0.8) (end 0.65 0.8)
    (stroke (width 0.1) (type solid)) (layer F.Fab))
  (fp_line (start 0.65 0.8) (end -0.65 0.8)
    (stroke (width 0.1) (type solid)) (layer F.Fab))
  (fp_line (start -0.65 0.8) (end -0.65 -0.475)
    (stroke (width 0.1) (type solid)) (layer F.Fab))
  (fp_line (start -0.65 -0.475) (end -0.325 -0.8)
    (stroke (width 0.1) (type solid)) (layer F.Fab))
  (fp_line (start -1.25 -1.4) (end -1.25 1.4)
    (stroke (width 0.05) (type solid)) (layer F.CrtYd))
  (fp_line (start -1.25 1.4) (end 1.25 1.4)
    (stroke (width 0.05) (type solid)) (layer F.CrtYd))
  (fp_line (start 1.25 1.4) (end 1.25 -1.4)
    (stroke (width 0.05) (type solid)) (layer F.CrtYd))
  (fp_line (start 1.25 -1.4) (end -1.25 -1.4)
    (stroke (width 0.05) (type solid)) (layer F.CrtYd))
  (pad 2 smd roundrect (at -0.6 -0.2) (size 0.8 0.25) (layers F.Cu F.Mask F.Paste) (roundrect_rratio 0.25))
  (pad 3 smd roundrect (at -0.6 0.2) (size 0.8 0.25) (layers F.Cu F.Mask F.Paste) (roundrect_rratio 0.25))
  (pad 4 smd roundrect (at -0.4 0.8) (size 0.25 0.7) (layers F.Cu F.Mask F.Paste) (roundrect_rratio 0.25))
  (pad 5 smd roundrect (at 0 0.8) (size 0.25 0.7) (layers F.Cu F.Mask F.Paste) (roundrect_rratio 0.25))
  (pad 6 smd roundrect (at 0.4 0.8) (size 0.25 0.7) (layers F.Cu F.Mask F.Paste) (roundrect_rratio 0.25))
  (pad 7 smd roundrect (at 0.6 0.2) (size 0.8 0.25) (layers F.Cu F.Mask F.Paste) (roundrect_rratio 0.25))
  (pad 8 smd roundrect (at 0.6 -0.2) (size 0.8 0.25) (layers F.Cu F.Mask F.Paste) (roundrect_rratio 0.25))
  (pad 9 smd roundrect (at 0.4 -0.8) (size 0.25 0.7) (layers F.Cu F.Mask F.Paste) (roundrect_rratio 0.25))
  (pad 10 smd roundrect (at 0 -0.8) (size 0.25 0.7) (layers F.Cu F.Mask F.Paste) (roundrect_rratio 0.25))
  (pad 1 smd roundrect (at -0.4 -0.8) (size 0.25 0.7) (layers F.Cu F.Mask F.Paste) (roundrect_rratio 0.25))
  (fp_poly (pts (xy -0.97 -0.91) (xy -1.15 -1.162) (xy -0.79 -1.162) (xy -0.97 -0.91))
    (stroke (width 0.12) (type solid)) (fill solid) (layer F.SilkS))
  (fp_text user ${REFERENCE} (at 0 0 90) (layer F.Fab)
    (effects (font (size 0.4 0.4) (thickness 0.06)))
  )
  (model ${KICAD7_3DMODEL_DIR}/Package_CSP.3dshapes/Analog_LFCSP-UQ-10_1.3x1.6mm_P0.4mm.wrl
    (offset (xyz 0 0 0))
    (scale (xyz 1 1 1))
    (rotate (xyz 0 0 0))
  )
)
